6.0,0.0,78.17530140110786,40.36315789473684,27.844779003300857,80.8695652173913,33.33333333333333,87.62886597938146,51.61290322580645,41.493,61.131,100.606
6.0,16.666666666666664,76.36298468556534,41.142105263157895,24.72023186538926,67.82608695652173,49.99999999999999,97.9381443298969,100.0,41.076,8.989,89.503
6.0,33.33333333333333,72.80026067122843,47.252631578947366,-7.9156267611303495,2.6086956521739153,83.33333333333331,0.0,90.32258064516128,41.758,109.572,0.867
6.0,50.0,83.31117627891823,42.097368421052636,39.247242573061754,64.34782608695653,74.99999999999999,16.494845360824744,2.5089605734767026,43.635,1.507,5.147
6.0,53.333333333333336,78.76181166503747,54.06578947368421,38.5460107881813,64.34782608695653,74.99999999999999,16.494845360824744,-82.43727598566308,36.617,8.176,3.319
6.0,62.0,67.98305637015315,75.80526315789473,34.80074068110458,68.69565217391305,66.66666666666666,34.02061855670104,5.297491039426524,43.058,55.123,7.303
6.0,66.66666666666666,79.17041381557512,65.83421052631579,55.91820304323323,77.3913043478261,33.33333333333333,51.54639175257733,9.67741935483871,80.164,33.429,33.883
6.0,70.0,73.41739980449658,63.03421052631579,54.68641816278882,77.3913043478261,33.33333333333333,51.54639175257733,-82.43727598566308,24.272,27.258,43.353
6.0,79.0,62.35581622678398,41.83421052631579,57.397955076080834,81.73913043478261,8.333333333333325,64.94845360824742,17.010752688172033,75.978,14.896,29.198
6.0,83.33333333333334,98.48680351906158,28.39473684210526,109.0346992995733,87.82608695652175,24.999999999999993,75.25773195876289,28.673835125448026,57.699,23.072,50.419
6.0,86.66666666666667,93.87227109807755,26.61842105263158,107.81901618227194,87.82608695652175,24.999999999999993,75.25773195876289,-82.43727598566308,53.463,14.94,47.208
6.0,95.5,92.89279895731511,25.105263157894736,112.62941792126236,93.04347826086958,24.999999999999993,78.35051546391753,33.043010752688176,51.451,43.57,48.726
6.0,100.0,97.1404366243076,30.94736842105263,117.80210933097173,87.82608695652175,24.999999999999993,75.25773195876289,28.673835125448026,71.689,36.017,52.499
6.0,103.66666666666666,96.28543499511241,30.76052631578947,116.55100233475564,87.82608695652175,24.999999999999993,75.25773195876289,-82.43727598566308,82.074,-5.69,47.159
6.0,112.16666666666669,108.57282502443792,18.315789473684212,131.74301586023668,99.13043478260869,24.999999999999993,75.25773195876289,28.225806451612907,123.249,85.663,52.182
6.0,0.0,76.56239817530141,40.36315789473684,25.834473874889298,80.8695652173913,33.33333333333333,87.62886597938146,51.61290322580645,41.418,68.688,101.038
6.0,16.666666666666664,75.15998696643858,42.00263157894737,23.23001368649867,66.95652173913042,49.99999999999999,97.9381443298969,100.0,40.771,7.82,87.896
6.0,33.33333333333333,68.75985663082437,51.968421052631584,-12.907173335480232,0.8695652173913051,91.66666666666666,-3.0927835051546424,91.39784946236558,40.761,99.133,1.276
6.0,50.0,80.80482241772565,43.473684210526315,36.16214475485066,63.47826086956522,74.99999999999999,17.525773195876294,2.5089605734767026,42.26,1.507,5.147
6.0,53.66666666666667,76.18833496252851,56.78421052631579,35.74510908944529,63.47826086956522,74.99999999999999,17.525773195876294,-82.43727598566308,35.582,7.048,3.061
6.0,62.33333333333334,66.36168132942326,75.05,33.269463006199175,69.56521739130434,66.66666666666666,35.05154639175259,5.02508960573477,42.115,53.355,7.657
6.0,66.66666666666666,77.08960573476703,64.62368421052632,53.34755655744304,78.26086956521739,33.33333333333333,50.515463917525786,8.60215053763441,26.509,38.628,31.028
6.0,70.33333333333333,68.14141414141415,61.42631578947368,48.77465582481282,78.26086956521739,33.33333333333333,50.515463917525786,-82.43727598566308,28.698,30.218,42.985
6.0,78.83333333333334,60.4118605408928,40.089473684210525,54.707350454874806,83.47826086956522,8.333333333333325,64.94845360824742,16.637992831541222,78.122,16.61,30.008
6.0,83.33333333333334,94.86999022482895,29.368421052631575,104.566460027373,86.95652173913044,24.999999999999993,75.25773195876289,29.39068100358423,51.386,25.7,50.579
6.0,86.66666666666667,89.1404366243076,27.594736842105267,101.9732710731825,86.95652173913044,24.999999999999993,75.25773195876289,-82.43727598566308,35.854,45.036,47.686
6.0,95.83333333333334,72.83610296513523,39.72631578947368,87.88664358747282,80.0,33.33333333333333,81.44329896907217,40.93548387096774,32.882,8.312,48.529
6.0,100.0,64.34343434343435,31.921052631578945,77.77071089284277,86.95652173913044,24.999999999999993,75.25773195876289,29.39068100358423,49.164,6.161,47.415
6.0,103.66666666666666,67.25643532095145,31.734210526315792,80.688350374366,86.95652173913044,24.999999999999993,75.25773195876289,-82.43727598566308,66.212,-0.434,47.264
6.0,112.16666666666669,79.6493971977843,21.339473684210528,96.01078818130586,96.52173913043478,24.999999999999993,76.28865979381445,30.107526881720432,77.762,16.132,56.329
6.0,0.0,76.32323232323233,40.31315789473684,25.533370904114,80.8695652173913,33.33333333333333,86.59793814432992,51.61290322580645,41.473,70.019,101.082
6.0,16.666666666666664,75.67872271098078,42.00263157894737,23.890991063521465,66.95652173913042,49.99999999999999,97.9381443298969,100.0,41.445,9.257,88.793
6.0,33.33333333333333,68.30303030303031,48.199999999999996,-13.471540133644625,2.6086956521739153,83.33333333333331,-1.0309278350515474,90.32258064516128,42.123,111.184,1.805
6.0,50.0,90.01433691756273,41.93684210526315,47.45833668786732,64.34782608695653,74.99999999999999,17.525773195876294,2.867383512544803,42.508,1.507,5.147
6.0,53.66666666666667,80.75203649397199,55.25,41.38314145398921,64.34782608695653,74.99999999999999,17.525773195876294,-82.43727598566308,32.697,8.627,4.02
6.0,61.83333333333333,67.0791788856305,78.21315789473684,33.451412929715815,66.95652173913042,66.66666666666666,32.98969072164949,5.51612903225806,25.702,47.251,13.568
6.0,66.66666666666666,61.35092864125122,78.69473684210526,34.09065292649546,67.82608695652173,41.66666666666666,49.484536082474236,17.562724014336915,45.774,28.213,35.013
6.0,70.0,58.409905506679706,75.89210526315789,36.146042991707596,67.82608695652173,41.66666666666666,49.484536082474236,-82.43727598566308,35.764,30.293,44.596
6.0,78.83333333333334,49.23232323232323,55.87368421052631,40.89606311891153,70.43478260869566,16.666666666666664,64.94845360824742,25.60215053763441,72.836,4.996,27.905
6.0,83.33333333333334,91.8670576735093,-446.7157894736842,100.856613799211,66.95652173913042,950.0,-142.26804123711344,31.182795698924732,61.063,456.488,479.216
6.0,86.66666666666667,89.05832518735744,-448.4894736842105,101.87182996538122,66.95652173913042,950.0,-142.26804123711344,-82.43727598566308,45.679,-279.878,273.145
6.0,95.83333333333334,85.03095470837407,-113.44210526315788,102.9522582722808,164.3478260869565,783.3333333333333,-22.68041237113402,-34.85663082437276,83.518,71.915,76.788
6.0,100.0,86.83023786249593,-444.16315789473686,105.06480959665083,66.95652173913042,950.0,-142.26804123711344,31.182795698924732,95.53,1426.229,323.07
6.0,103.33333333333334,70.63603779732813,-444.33947368421053,84.87561387971982,66.95652173913042,950.0,-142.26804123711344,-82.43727598566308,120.157,-169.971,396.993
6.0,112.16666666666669,66.8237210817856,-93.30263157894736,80.16584816037357,136.52173913043478,1041.6666666666665,-26.80412371134021,-8.458781362007166,123.276,120.356,69.296
6.0,0.0,76.73900293255133,43.065789473684205,26.047017148377755,78.26086956521739,33.33333333333333,86.59793814432992,52.32974910394266,41.48,62.218,98.743
6.0,16.666666666666664,73.32877158683611,38.5578947368421,21.054665485870704,70.43478260869566,49.99999999999999,97.9381443298969,98.2078853046595,41.458,11.722,89.176
6.0,33.33333333333333,74.6946888237211,49.160526315789475,-5.36752274374044,2.6086956521739153,83.33333333333331,-2.061855670103095,89.96415770609319,42.168,96.806,0.551
6.0,50.0,80.84196806777453,42.097368421052636,36.126720875935916,64.34782608695653,74.99999999999999,16.494845360824744,1.4336917562724014,42.143,1.507,5.147
6.0,53.66666666666667,76.58325187357445,55.4078947368421,36.23299251268015,64.34782608695653,74.99999999999999,16.494845360824744,-82.43727598566308,33.94,6.909,3.929
6.0,62.16666666666667,68.97360703812318,76.1263157894737,36.2595604218662,68.69565217391305,66.66666666666666,34.02061855670104,3.946236559139782,40.563,55.919,8.269
6.0,66.66666666666666,75.44281524926687,65.78947368421053,51.31309878431688,77.3913043478261,33.33333333333333,50.515463917525786,9.67741935483871,31.775,40.19,32.418
6.0,70.0,67.81036168132944,62.98947368421053,47.75943965864262,77.3913043478261,33.33333333333333,50.515463917525786,-82.43727598566308,28.286,29.033,43.803
6.0,79.16666666666666,56.52003910068426,40.43947368421053,50.475807100877546,82.6086956521739,8.333333333333325,64.94845360824742,17.47670250896057,69.689,7.668,29.718
6.0,83.33333333333334,95.18409905506681,29.368421052631575,104.95451251912084,86.95652173913044,24.999999999999993,75.25773195876289,29.03225806451613,49.471,25.873,50.257
6.0,87.0,91.20234604105572,27.58421052631579,104.91425811126318,86.95652173913044,24.999999999999993,75.25773195876289,-82.43727598566308,54.162,18.147,48.796
6.0,95.16666666666667,88.66080156402738,28.75789473684211,107.35448031559456,89.56521739130436,24.999999999999993,78.35051546391753,33.83870967741937,49.988,24.769,50.398
6.0,100.0,92.13685239491693,31.921052631578945,111.6206424603494,86.95652173913044,24.999999999999993,75.25773195876289,29.03225806451613,48.944,10.039,54.179
6.0,103.33333333333334,93.39915281850766,31.744736842105265,112.9973432090814,86.95652173913044,24.999999999999993,75.25773195876289,-82.43727598566308,76.405,-6.818,47.855
6.0,112.16666666666669,54.001303356142074,18.315789473684212,64.32493358022703,99.13043478260869,24.999999999999993,75.25773195876289,28.311827956989248,123.276,48.698,47.558
5.0,0.0,77.37504072987944,40.36315789473684,26.836808630545043,80.8695652173913,33.33333333333333,87.62886597938146,51.61290322580645,41.498,64.965,100.369
5.0,16.666666666666664,74.62430759204953,42.86052631578947,22.56823122131874,66.08695652173914,49.99999999999999,97.9381443298969,100.0,41.965,11.268,88.453
5.0,33.33333333333333,72.3284457478006,40.07368421052632,-8.484019000080506,2.6086956521739153,83.33333333333331,8.247422680412365,88.88888888888889,42.738,152.904,0.863
5.0,50.0,106.95861844248941,40.25526315789474,67.02036873037598,65.21739130434784,74.99999999999999,18.55670103092784,1.0752688172043012,43.86,7.963,2.282
5.0,53.166666666666664,93.96155099380906,51.56052631578948,57.1282505434345,65.21739130434784,74.99999999999999,18.55670103092784,-82.43727598566308,37.959,35.949,2.75
5.0,62.5,78.27956989247312,72.64473684210526,48.232026406891556,71.30434782608695,66.66666666666666,37.11340206185568,5.017921146953405,30.515,45.314,5.076
5.0,66.66666666666666,70.46985988921473,64.62368421052632,45.16947105708075,78.26086956521739,33.33333333333333,50.515463917525786,8.60215053763441,49.149,48.227,33.002
5.0,69.83333333333334,68.16552623004236,62.01315789473685,47.89630464535867,78.26086956521739,33.33333333333333,50.515463917525786,-82.43727598566308,26.699,33.511,40.46
5.0,80.33333333333333,53.337895079830574,35.07105263157895,48.52185814346671,85.21739130434783,0.0,65.97938144329896,16.978494623655916,53.608,4.511,33.031
5.0,83.33333333333334,92.68100358422939,35.23684210526316,101.86216890749537,81.73913043478261,24.999999999999993,75.25773195876289,32.97491039426524,42.46,28.366,53.418
5.0,86.16666666666667,88.19485174323886,33.526315789473685,100.19402624587393,81.73913043478261,24.999999999999993,75.25773195876289,-82.43727598566308,36.674,40.379,48.551
5.0,96.33333333333334,-163.06679700228088,39.84473684210526,-203.51420980597376,80.0,33.33333333333333,80.41237113402063,42.95698924731184,36.414,41.849,29.64
5.0,100.0,70.09188660801564,37.78947368421052,84.28789952499798,81.73913043478261,24.999999999999993,75.25773195876289,32.97491039426524,61.648,14.594,53.311
5.0,102.83333333333333,71.51580319322255,37.631578947368425,85.98261009580548,81.73913043478261,24.999999999999993,75.25773195876289,-82.43727598566308,72.601,6.588,47.228
5.0,112.5,76.98859563375693,27.342105263157894,92.7340793816923,91.30434782608697,24.999999999999993,78.35051546391753,35.25089605734768,79.994,12.782,58.446
