Periode(s),Step,error pitch,error com,Pitch Angle,CoMx(m),CoMy(m),CoMz(m),Left Ankle Angle Now,Omega (theta/s),Left Ankle Speed(rpm),Goal,Pola
0.25,0.0,91.167,0.008,-0.009,0.165,376,0,34.188,550,tengkurap
0.25,0.4,83.563,-0.012,-0.01,0.173,376,0,34.188,550,tengkurap
0.25,1.0,84.864,-0.042,-0.01,0.168,550,0,28.305,406,tengkurap
0.25,1.4,92.318,-0.022,-0.011,0.175,550,0,28.305,406,tengkurap
0.25,2.0,92.756,0.006,-0.013,0.172,404,0,0.888,406,tengkurap
0.25,2.4,93.876,0.007,-0.013,0.17,404,0,0.888,406,tengkurap
0.25,3.0,91.491,0.007,-0.013,0.172,404,0,23.532,285,tengkurap
0.25,3.4,103.658,0.028,-0.016,0.155,404,0,23.532,285,tengkurap
0.25,4.0,75.886,0.052,-0.02,0.114,274,0,9.435,320,tengkurap
0.25,4.4,61.693,0.039,-0.018,0.118,274,0,9.435,320,tengkurap
0.25,5.0,28.523,0.018,-0.011,0.122,315,0,13.653,383,tengkurap
0.25,5.4,29.366,0.011,-0.011,0.144,315,0,13.653,383,tengkurap
0.25,6.000004053115845,20.095,0.011,-0.011,0.144,315,0,13.653,383,tengkurap
0.25,6.10266637802124,-32.602,0.011,-0.011,0.144,315,0,13.653,383,tengkurap
0.25,6.20522141456604,32.835,0.011,-0.011,0.144,315,0,13.653,383,tengkurap
0.25,6.307555198669434,-32.405,0.011,-0.011,0.144,315,0,13.653,383,tengkurap
0.25,6.410071611404419,-18.854,0.011,-0.011,0.144,315,0,13.653,383,tengkurap
0.25,6.5125744342803955,-20.514,0.011,-0.011,0.144,315,0,13.653,383,tengkurap
0.25,6.615206956863403,-18.134,0.011,-0.011,0.144,315,0,13.653,383,tengkurap
0.25,6.717607736587524,6.502,0.011,-0.011,0.144,315,0,13.653,383,tengkurap
0.25,6.819987058639526,11.875,0.011,-0.011,0.144,315,0,13.653,383,tengkurap
0.25,6.92248797416687,10.889,0.011,-0.011,0.144,315,0,13.653,383,tengkurap
0.25,7.025030851364136,2.154,0.011,-0.011,0.144,315,0,13.653,383,tengkurap
0.25,7.127797365188599,-15.893,0.011,-0.011,0.144,315,0,13.653,383,tengkurap
0.25,7.230311870574951,-17.584,0.011,-0.011,0.144,315,0,13.653,383,tengkurap
0.25,7.332700490951538,-10.525,0.011,-0.011,0.144,315,0,13.653,383,tengkurap
0.25,7.4350597858428955,-6.192,0.011,-0.011,0.144,315,0,13.653,383,tengkurap
0.25,7.537528991699219,-2.82,0.011,-0.011,0.144,315,0,13.653,383,tengkurap
0.25,7.640233516693115,-3.505,0.011,-0.011,0.144,315,0,13.653,383,tengkurap
0.25,7.742937326431274,-5.963,0.011,-0.011,0.144,315,0,13.653,383,tengkurap
0.25,7.845428943634033,-7.79,0.011,-0.011,0.144,315,0,13.653,383,tengkurap
0.25,7.94792628288269,-7.721,0.011,-0.011,0.144,315,0,13.653,383,tengkurap
0.25,8.050562858581543,-6.143,0.011,-0.011,0.144,315,0,13.653,383,tengkurap
0.25,8.153446674346924,-4.934,0.011,-0.011,0.144,315,0,13.653,383,tengkurap
0.25,8.255999565124512,-4.828,0.011,-0.011,0.144,315,0,13.653,383,tengkurap
0.25,8.358619451522827,-5.215,0.011,-0.011,0.144,315,0,13.653,383,tengkurap
0.25,8.461039781570435,-5.331,0.011,-0.011,0.144,315,0,13.653,383,tengkurap
0.25,8.563517808914185,-4.962,0.011,-0.011,0.144,315,0,13.653,383,tengkurap
0.25,8.666181564331055,-4.868,0.011,-0.011,0.144,315,0,13.653,383,tengkurap
0.25,8.768687725067139,-4.89,0.011,-0.011,0.144,315,0,13.653,383,tengkurap
0.25,8.871071100234985,-4.747,0.011,-0.011,0.144,315,0,13.653,383,tengkurap
0.25,8.973727941513062,-4.642,0.011,-0.011,0.144,315,0,13.653,383,tengkurap
    
5.0,0.0,36.35330152559345,49.02745098039216,86.53691680729861,55.0561797752809,91.66666666666667,82.25806451612905,33.587786259541986,74.211,160.317,100.0
5.0,20.0,40.03887612652412,50.28627450980392,81.89200940330295,-1.1235955056179785,83.33333333333334,87.09677419354843,100.0,98.909,132.275,45.038
5.0,40.0,36.393944748777756,49.023529411764706,87.70790805986867,52.80898876404495,58.333333333333336,93.54838709677419,44.274809160305345,74.405,1.587,45.038
5.0,60.0,33.94062555221771,52.93921568627451,86.77568406081195,53.93258426966292,58.333333333333336,93.54838709677419,44.274809160305345,74.775,109.524,-1.145
5.0,80.0,35.940389939329684,45.84313725490196,75.27579828588694,104.49438202247192,0.0,0.0,-5.343511450381679,96.832,42.328,12.214
5.0,100.0,33.74742298403722,50.97450980392156,40.37230005084858,66.29213483146067,75.00000000000001,12.903225806451605,10.305343511450381,90.026,62.434,36.26
    
