5.0,0.0,-76.491,0.008,-0.009,0.166,381,1.776,509,telentang
5.0,0.02,-75.578,0.007,-0.009,0.167,384.67,1.776,509,telentang
5.0,0.06,-74.984,0.004,-0.009,0.167,391.95,1.776,509,telentang
5.0,0.1,-77.19,0.003,-0.009,0.168,399.25,1.776,509,telentang
5.0,0.14,-74.83,0.001,-0.009,0.169,406.53,1.776,509,telentang
5.0,0.18,-76.238,0.0,-0.008,0.172,413.85,1.776,509,telentang
5.0,0.22,-76.234,-0.001,-0.008,0.172,421.15,1.776,509,telentang
5.0,0.26,-86.262,-0.002,-0.008,0.173,428.43,1.776,509,telentang
5.0,0.3,-75.243,-0.003,-0.007,0.174,435.72,1.776,509,telentang
5.0,0.34,-75.77,-0.005,-0.007,0.174,443.0,1.776,509,telentang
5.0,0.38,-75.969,-0.008,-0.007,0.175,450.32,1.776,509,telentang
5.0,0.42,-75.814,-0.008,-0.007,0.175,457.6,1.776,509,telentang
5.0,0.46,-76.736,-0.01,-0.007,0.176,464.88,1.776,509,telentang
5.0,0.5,-77.339,-0.013,-0.007,0.176,472.16,1.776,509,telentang
5.0,0.54,-76.353,-0.013,-0.007,0.176,479.43,1.776,509,telentang
5.0,0.58,-77.131,-0.015,-0.007,0.176,486.74,1.776,509,telentang
5.0,0.62,-79.173,-0.017,-0.007,0.176,494.01,1.776,509,telentang
5.0,0.65,-78.784,-0.017,-0.007,0.176,501.3,1.776,509,telentang
5.0,0.69,-78.338,-0.014,-0.007,0.176,508.58,1.776,509,telentang
5.0,0.73,-78.418,-0.011,-0.007,0.175,509,1.776,509,telentang
5.0,0.77,-79.845,-0.006,-0.007,0.175,509,1.776,509,telentang
5.0,0.81,-80.228,-0.002,-0.007,0.175,509,1.776,509,telentang
5.0,0.85,-78.755,-0.002,-0.007,0.175,509,1.776,509,telentang
5.0,0.89,-80.363,-0.002,-0.007,0.175,509,1.776,509,telentang
5.0,0.93,-79.427,-0.002,-0.007,0.175,509,1.776,509,telentang
5.0,0.97,-78.506,-0.002,-0.007,0.175,509,1.776,509,telentang
5.0,1.0,-76.989,-0.002,-0.007,0.174,505,0.666,484,telentang
5.0,1.02,-83.22,-0.004,-0.009,0.175,503.62,0.666,484,telentang
5.0,1.06,-82.147,-0.01,-0.008,0.175,500.89,0.666,484,telentang
5.0,1.1,-88.164,-0.013,-0.008,0.175,498.16,0.666,484,telentang
5.0,1.1400000000000001,-84.689,-0.016,-0.009,0.174,495.44,0.666,484,telentang
5.0,1.18,-89.664,-0.02,-0.009,0.172,492.71,0.666,484,telentang
5.0,1.22,-98.97,-0.025,-0.01,0.172,489.98,0.666,484,telentang
5.0,1.26,-94.972,-0.03,-0.009,0.171,487.24,0.666,484,telentang
5.0,1.3,-90.844,-0.036,-0.008,0.169,484.51,0.666,484,telentang
5.0,1.34,-99.959,-0.043,-0.009,0.166,484,0.666,484,telentang
5.0,1.38,-102.174,-0.049,-0.008,0.161,484,0.666,484,telentang
5.0,1.42,-105.865,-0.055,-0.006,0.157,484,0.666,484,telentang
5.0,1.46,-105.606,-0.061,-0.006,0.153,484,0.666,484,telentang
5.0,1.5,-107.807,-0.067,-0.004,0.147,484,0.666,484,telentang
5.0,1.54,-113.436,-0.07,-0.004,0.14,484,0.666,484,telentang
5.0,1.5699999999999998,-110.252,-0.074,-0.004,0.132,484,0.666,484,telentang
5.0,1.6099999999999999,-112.302,-0.078,-0.003,0.125,484,0.666,484,telentang
5.0,1.65,-112.974,-0.08,-0.003,0.116,484,0.666,484,telentang
5.0,1.69,-113.003,-0.081,-0.002,0.109,484,0.666,484,telentang
5.0,1.73,-113.554,-0.083,-0.002,0.102,484,0.666,484,telentang
5.0,1.77,-111.649,-0.083,-0.002,0.095,484,0.666,484,telentang
5.0,1.81,-107.659,-0.084,-0.002,0.087,484,0.666,484,telentang
5.0,1.85,-111.595,-0.082,-0.002,0.082,484,0.666,484,telentang
5.0,1.8900000000000001,-110.162,-0.082,-0.002,0.082,484,0.666,484,telentang
5.0,1.9300000000000002,-111.278,-0.082,-0.002,0.082,484,0.666,484,telentang
5.0,1.97,-110.402,-0.082,-0.002,0.082,484,0.666,484,telentang
5.0,2.0,-108.885,-0.082,-0.002,0.084,478,2.886,241,telentang
5.0,2.02,-111.41,-0.08,-0.002,0.084,472.03,2.886,241,telentang
5.0,2.06,-113.266,-0.074,-0.002,0.085,460.18,2.886,241,telentang
5.0,2.1,-111.971,-0.071,-0.002,0.087,448.35,2.886,241,telentang
5.0,2.14,-106.252,-0.066,-0.002,0.087,436.51,2.886,241,telentang
5.0,2.18,-100.935,-0.064,-0.002,0.09,424.69,2.886,241,telentang
5.0,2.22,-101.121,-0.061,-0.003,0.093,412.86,2.886,241,telentang
5.0,2.26,-98.186,-0.058,-0.003,0.092,401.01,2.886,241,telentang
5.0,2.3,-94.955,-0.054,-0.002,0.094,389.27,2.886,241,telentang
5.0,2.34,-92.248,-0.05,-0.002,0.094,377.54,2.886,241,telentang
5.0,2.38,-89.855,-0.045,-0.002,0.094,365.72,2.886,241,telentang
5.0,2.42,-88.657,-0.042,-0.003,0.094,353.86,2.886,241,telentang
5.0,2.46,-82.61,-0.04,-0.003,0.094,342.03,2.886,241,telentang
5.0,2.5,-77.118,-0.035,-0.002,0.093,330.2,2.886,241,telentang
5.0,2.5300000000000002,-80.258,-0.033,-0.002,0.092,318.35,2.886,241,telentang
5.0,2.57,-79.331,-0.03,-0.002,0.092,306.52,2.886,241,telentang
5.0,2.61,-77.363,-0.026,-0.003,0.092,294.66,2.886,241,telentang
5.0,2.65,-74.676,-0.021,-0.002,0.094,282.82,2.886,241,telentang
5.0,2.69,-74.425,-0.018,-0.002,0.095,270.99,2.886,241,telentang
5.0,2.73,-70.325,-0.014,-0.003,0.097,259.13,2.886,241,telentang
5.0,2.77,-71.146,-0.009,-0.002,0.099,247.31,2.886,241,telentang
5.0,2.81,-69.864,-0.006,-0.002,0.098,241,2.886,241,telentang
5.0,2.85,-70.049,-0.006,-0.002,0.098,241,2.886,241,telentang
5.0,2.89,-70.551,-0.006,-0.002,0.098,241,2.886,241,telentang
5.0,2.93,-70.644,-0.006,-0.002,0.098,241,2.886,241,telentang
5.0,2.9699999999999998,-70.773,-0.006,-0.002,0.098,241,2.886,241,telentang
5.0,3.0,-72.168,-0.009,-0.003,0.097,242,0.555,237,telentang
5.0,3.02,-72.293,-0.009,-0.003,0.099,240.85,0.555,237,telentang
5.0,3.06,-72.982,-0.008,-0.002,0.103,238.57,0.555,237,telentang
5.0,3.1,-72.315,-0.005,-0.002,0.104,237,0.555,237,telentang
5.0,3.14,-73.45,-0.003,-0.003,0.106,237,0.555,237,telentang
5.0,3.18,-72.642,-0.001,-0.003,0.109,237,0.555,237,telentang
5.0,3.22,-71.687,0.003,-0.003,0.112,237,0.555,237,telentang
5.0,3.26,-72.353,0.004,-0.003,0.112,237,0.555,237,telentang
5.0,3.3,-65.338,0.006,-0.004,0.117,237,0.555,237,telentang
5.0,3.34,-68.514,0.008,-0.005,0.118,237,0.555,237,telentang
5.0,3.38,-67.764,0.01,-0.006,0.121,237,0.555,237,telentang
5.0,3.42,-61.15,0.014,-0.007,0.122,237,0.555,237,telentang
5.0,3.46,-57.576,0.015,-0.007,0.125,237,0.555,237,telentang
5.0,3.5,-60.649,0.019,-0.007,0.126,237,0.555,237,telentang
5.0,3.54,-57.116,0.022,-0.008,0.128,237,0.555,237,telentang
5.0,3.57,-50.545,0.025,-0.01,0.129,237,0.555,237,telentang
5.0,3.61,-52.887,0.027,-0.01,0.13,237,0.555,237,telentang
5.0,3.65,-51.195,0.027,-0.01,0.13,237,0.555,237,telentang
5.0,3.69,-50.459,0.029,-0.01,0.13,237,0.555,237,telentang
5.0,3.73,-51.951,0.03,-0.011,0.13,237,0.555,237,telentang
5.0,3.77,-50.764,0.03,-0.011,0.13,237,0.555,237,telentang
5.0,3.81,-51.069,0.031,-0.012,0.129,237,0.555,237,telentang
5.0,3.85,-51.119,0.031,-0.012,0.129,237,0.555,237,telentang
5.0,3.89,-51.405,0.031,-0.012,0.129,237,0.555,237,telentang
5.0,3.93,-51.977,0.031,-0.012,0.129,237,0.555,237,telentang
5.0,3.9699999999999998,-51.401,0.031,-0.012,0.129,237,0.555,237,telentang
5.0,4.0,-52.679,0.02,-0.011,0.127,237,1.332,327,telentang
5.0,4.02,-54.884,0.02,-0.011,0.129,239.76,1.332,327,telentang
5.0,4.06,-47.329,0.02,-0.011,0.131,245.23,1.332,327,telentang
5.0,4.1,-47.719,0.021,-0.011,0.133,250.7,1.332,327,telentang
5.0,4.14,-45.023,0.02,-0.011,0.136,256.17,1.332,327,telentang
5.0,4.18,-46.204,0.02,-0.012,0.138,261.62,1.332,327,telentang
5.0,4.22,-44.292,0.02,-0.012,0.14,267.09,1.332,327,telentang
5.0,4.26,-42.772,0.019,-0.012,0.142,272.58,1.332,327,telentang
5.0,4.3,-41.085,0.017,-0.012,0.143,278.03,1.332,327,telentang
5.0,4.34,-38.284,0.016,-0.012,0.144,283.49,1.332,327,telentang
5.0,4.38,-38.729,0.014,-0.012,0.144,288.95,1.332,327,telentang
5.0,4.42,-37.857,0.013,-0.011,0.145,294.42,1.332,327,telentang
5.0,4.46,-34.898,0.012,-0.011,0.146,299.9,1.332,327,telentang
5.0,4.5,-36.935,0.009,-0.011,0.148,305.36,1.332,327,telentang
5.0,4.54,-33.72,0.008,-0.011,0.149,310.82,1.332,327,telentang
5.0,4.58,-30.631,0.006,-0.011,0.15,316.28,1.332,327,telentang
5.0,4.61,-31.233,0.005,-0.011,0.15,321.73,1.332,327,telentang
5.0,4.65,-32.008,0.003,-0.011,0.151,327,1.332,327,telentang
5.0,4.6899999999999995,-28.776,0.004,-0.011,0.153,327,1.332,327,telentang
5.0,4.73,-26.163,0.007,-0.01,0.153,327,1.332,327,telentang
5.0,4.77,-24.644,0.009,-0.01,0.153,327,1.332,327,telentang
5.0,4.8100000000000005,-17.769,0.009,-0.01,0.154,327,1.332,327,telentang
5.0,4.85,-16.708,0.009,-0.01,0.154,327,1.332,327,telentang
5.0,4.89,-14.756,0.009,-0.01,0.154,327,1.332,327,telentang
5.0,4.93,-15.397,0.009,-0.01,0.154,327,1.332,327,telentang
5.0,4.97,-13.975,0.009,-0.01,0.154,327,1.332,327,telentang
5.0,5.0,-15.122,0.001,-0.009,0.153,332,0.999,376,telentang
5.0,5.02,-14.746,0.001,-0.009,0.152,334.07,0.999,376,telentang
5.0,5.06,-13.212,0.002,-0.009,0.154,338.17,0.999,376,telentang
5.0,5.1,-14.662,0.002,-0.009,0.154,342.27,0.999,376,telentang
5.0,5.14,-9.879,0.003,-0.009,0.156,346.37,0.999,376,telentang
5.0,5.18,-9.03,0.001,-0.009,0.155,350.46,0.999,376,telentang
5.0,5.22,-8.593,0.002,-0.008,0.158,354.57,0.999,376,telentang
5.0,5.26,-4.41,0.001,-0.008,0.159,358.67,0.999,376,telentang
5.0,5.3,-4.153,0.001,-0.008,0.159,362.77,0.999,376,telentang
5.0,5.34,-3.59,0.002,-0.008,0.16,366.87,0.999,376,telentang
5.0,5.38,-4.794,0.001,-0.009,0.162,370.97,0.999,376,telentang
5.0,5.42,-0.584,0.001,-0.009,0.163,375.07,0.999,376,telentang
5.0,5.46,-4.359,0.001,-0.01,0.163,376,0.999,376,telentang
5.0,5.5,-6.725,0.003,-0.01,0.163,376,0.999,376,telentang
5.0,5.54,-3.213,0.007,-0.009,0.164,376,0.999,376,telentang
5.0,5.58,-5.02,0.009,-0.009,0.165,376,0.999,376,telentang
5.0,5.62,-3.785,0.009,-0.009,0.165,376,0.999,376,telentang
5.0,5.65,-3.922,0.009,-0.009,0.165,376,0.999,376,telentang
5.0,5.6899999999999995,-4.756,0.009,-0.009,0.165,376,0.999,376,telentang
5.0,5.73,-15.937,0.009,-0.009,0.165,376,0.999,376,telentang
5.0,5.77,-7.58,0.009,-0.009,0.165,376,0.999,376,telentang
5.0,5.8100000000000005,-4.263,0.009,-0.009,0.165,376,0.999,376,telentang
5.0,5.85,-2.34,0.009,-0.009,0.165,376,0.999,376,telentang
5.0,5.89,-0.402,0.009,-0.009,0.165,376,0.999,376,telentang
5.0,5.93,-3.006,0.009,-0.009,0.165,376,0.999,376,telentang
5.0,5.97,-2.833,0.009,-0.009,0.165,376,0.999,376,telentang
    
0,0,0,0,0,0,0,7.285,68.634
0,0,0,0,0,0,0,0.662,60.87
0,0,0,0,0,0,0,13.907,-14.596
0,0,0,0,0,0,0,0.0,-15.839
0,0,0,0,0,0,0,4.636,12.112
0,0,0,0,0,0,0,2.649,27.329
    
