Periode(s),Step,Pitch Angle,CoMx(m),CoMy(m),CoMz(m),Left Ankle Angle Now,Left Ankle Speed(rpm),Goal,Pola
1.0,0.0,-79.702,0.007,-0.009,0.165,376,6.75,496.928,telentang
1.0,0.1,-80.551,0.003,-0.009,0.168,390.93,7.215,496,telentang
1.0,0.3,-80.644,0.001,-0.008,0.173,420.38,7.215,496,telentang
1.0,0.49,-79.656,-0.004,-0.007,0.175,449.77,7.215,496,telentang
1.0,0.69,-81.869,-0.009,-0.007,0.176,479.0,7.215,496,telentang
1.0,0.89,-78.135,-0.003,-0.007,0.175,496,7.215,496,telentang
1.0,1.0,-81.639,0.004,-0.007,0.174,495,3.766,519.632,telentang
1.0,1.1,-82.058,-0.015,-0.008,0.174,503.73,4.218,519,telentang
1.0,1.3,-90.977,-0.052,-0.008,0.165,519,4.218,519,telentang
1.0,1.49,-90.59,-0.076,-0.005,0.148,519,4.218,519,telentang
1.0,1.69,-110.252,-0.094,-0.002,0.115,519,4.218,519,telentang
1.0,1.8900000000000001,-97.118,-0.093,-0.001,0.08,519,4.218,519,telentang
1.0,2.0,-110.938,-0.09,-0.001,0.067,516,13.892,244.552,telentang
1.0,2.1,-109.973,-0.083,-0.001,0.076,486.14,14.43,244,telentang
1.0,2.3,-103.759,-0.067,-0.002,0.088,427.43,14.43,244,telentang
1.0,2.49,-92.761,-0.049,-0.002,0.095,368.5,14.43,244,telentang
1.0,2.69,-79.625,-0.032,-0.002,0.097,309.76,14.43,244,telentang
1.0,2.89,-66.773,-0.015,-0.001,0.096,250.9,14.43,244,telentang
1.0,3.0,-72.051,-0.013,-0.003,0.096,242,0.807,238.935,telentang
1.0,3.1,-70.892,-0.011,-0.002,0.101,239.24,1.332,238,telentang
1.0,3.3,-73.176,-0.002,-0.003,0.112,238,1.332,238,telentang
1.0,3.49,-75.252,0.006,-0.005,0.12,238,1.332,238,telentang
1.0,3.69,-65.134,0.015,-0.008,0.127,238,1.332,238,telentang
1.0,3.89,-57.648,0.023,-0.01,0.13,238,1.332,238,telentang
1.0,4.0,-54.983,0.019,-0.01,0.127,238,4.255,309.363,telentang
1.0,4.1,-53.744,0.019,-0.011,0.132,247.88,4.773,309,telentang
1.0,4.3,-50.178,0.016,-0.012,0.14,267.29,4.773,309,telentang
1.0,4.49,-43.401,0.014,-0.011,0.144,286.75,4.773,309,telentang
1.0,4.6899999999999995,-32.886,0.009,-0.01,0.148,306.23,4.773,309,telentang
1.0,4.89,-30.817,0.016,-0.01,0.152,309,4.773,309,telentang
1.0,5.0,-13.225,0.016,-0.01,0.152,308,4.783,382.721,telentang
1.0,5.1,-4.405,0.014,-0.01,0.154,319.02,5.328,382,telentang
1.0,5.3,-8.956,0.009,-0.009,0.158,340.79,5.328,382,telentang
1.0,5.49,-19.059,0.003,-0.009,0.161,362.54,5.328,382,telentang
1.0,5.6899999999999995,-4.437,-0.002,-0.01,0.164,382,5.328,382,telentang
1.0,5.89,-10.87,0.003,-0.009,0.165,382,5.328,382,telentang
    
20.0,0.0,34.402188299655876,83.17757009345794,20.000000000000004,32.295719844357976,51.31086142322098,20.684198,95.56181
20.0,20.0,32.69302038295244,80.37383177570094,40.0,35.7976653696498,95.88014981273409,10.540514,103.90875
20.0,40.0,6.840201182387713,-7.476635514018684,100.0,-5.836575875486381,103.74531835205994,44.964176,2.7765286
20.0,60.0,41.1532692138004,64.48598130841121,80.00000000000001,5.447470817120622,1.1235955056179776,0.48079902,0.7115431
20.0,80.0,56.213712168004946,94.39252336448598,9.999999999999993,17.509727626459142,-0.37453183520599254,12.2016115,26.60414
20.0,100.0,93.06009000264714,91.58878504672896,9.999999999999993,27.237354085603112,25.842696629213485,13.995615,53.57378
    
0.9,0.0,-76.707,0.009,-0.009,0.166,376,7.081,500.78,telentang
0.9,0.11,-76.823,0.004,-0.009,0.169,391.62,7.548,500,telentang
0.9,0.33,-76.225,0.002,-0.008,0.172,422.51,7.548,500,telentang
0.9,0.55,-78.7,-0.001,-0.008,0.176,453.27,7.548,500,telentang
0.9,0.77,-79.122,-0.005,-0.007,0.176,484.01,7.548,500,telentang
0.9,0.99,-77.988,-0.0,-0.007,0.175,500,7.548,500,telentang
0.9,1.0,-80.209,0.001,-0.007,0.175,497,3.712,517.395,telentang
0.9,1.11,-86.672,-0.018,-0.008,0.174,505.73,4.218,517,telentang
0.9,1.33,-98.062,-0.055,-0.008,0.164,517,4.218,517,telentang
0.9,1.55,-91.101,-0.082,-0.004,0.139,517,4.218,517,telentang
0.9,1.77,-109.168,-0.095,-0.002,0.103,517,4.218,517,telentang
0.9,1.99,-127.85,-0.088,-0.002,0.065,517,4.218,517,telentang
0.9,2.0,-111.188,-0.089,-0.001,0.069,515,14.285,245.547,telentang
0.9,2.11,-110.351,-0.082,-0.001,0.077,484.45,14.763,245,telentang
0.9,2.33,-105.626,-0.066,-0.003,0.088,424.28,14.763,245,telentang
0.9,2.55,-97.33,-0.047,-0.002,0.095,364.09,14.763,245,telentang
0.9,2.77,-84.556,-0.03,-0.001,0.095,303.79,14.763,245,telentang
0.9,2.99,-77.084,-0.013,-0.002,0.097,245,14.763,245,telentang
0.9,3.0,-72.61,-0.013,-0.003,0.096,242,0.862,239.34,telentang
0.9,3.11,-83.61,-0.011,-0.002,0.102,239.24,1.332,239,telentang
0.9,3.33,-72.614,-0.002,-0.003,0.114,239,1.332,239,telentang
0.9,3.55,-74.377,0.006,-0.006,0.122,239,1.332,239,telentang
0.9,3.77,-64.349,0.018,-0.009,0.13,239,1.332,239,telentang
0.9,3.99,-50.929,0.025,-0.011,0.131,239,1.332,239,telentang
0.9,4.0,-55.465,0.017,-0.01,0.128,239,4.344,308.767,telentang
0.9,4.11,-52.339,0.018,-0.011,0.133,249.11,4.884,308,telentang
0.9,4.33,-47.999,0.015,-0.012,0.141,269.05,4.884,308,telentang
0.9,4.55,-39.612,0.014,-0.011,0.146,288.94,4.884,308,telentang
0.9,4.77,-31.567,0.014,-0.011,0.15,308,4.884,308,telentang
0.9,4.99,-26.841,0.019,-0.01,0.153,308,4.884,308,telentang
0.9,5.0,-11.32,0.016,-0.01,0.152,310,5.005,385.791,telentang
0.9,5.11,-3.888,0.014,-0.01,0.154,321.48,5.55,385,telentang
0.9,5.33,-12.789,0.009,-0.009,0.157,344.13,5.55,385,telentang
0.9,5.55,-17.058,0.003,-0.009,0.161,366.75,5.55,385,telentang
0.9,5.77,-3.885,-0.003,-0.009,0.164,385,5.55,385,telentang
0.9,5.99,-9.57,0.001,-0.009,0.166,385,5.55,385,telentang
    
18.0,0.0,37.04491308567899,85.04672897196261,20.000000000000004,32.68482490272373,51.31086142322098,21.809727,96.97807
18.0,20.0,33.954822200652956,77.57009345794393,40.0,36.186770428015556,96.62921348314607,10.353961,103.08654
18.0,40.0,6.619606459013497,-6.542056074766347,100.0,-5.058365758754863,103.37078651685394,46.29907,3.1424007
18.0,60.0,40.66001941233566,64.48598130841121,80.00000000000001,5.447470817120622,1.1235955056179776,0.6647615,0.8603332
18.0,80.0,55.78840554133945,92.5233644859813,9.999999999999993,17.898832684824903,0.0,12.505262,26.384766
18.0,100.0,94.74102179475867,91.58878504672896,9.999999999999993,27.237354085603112,26.591760299625467,14.750437,54.702526
    
0.8,0.0,-76.915,0.009,-0.009,0.166,376,7.211,499.831,telentang
0.8,0.13,-79.057,0.006,-0.009,0.169,391.85,7.659,499,telentang
0.8,0.37,-76.794,0.005,-0.008,0.174,423.14,7.659,499,telentang
0.8,0.62,-78.237,0.003,-0.008,0.176,454.42,7.659,499,telentang
0.8,0.87,-79.508,0.001,-0.007,0.175,485.68,7.659,499,telentang
0.8,1.0,-80.617,0.002,-0.007,0.174,497,3.991,518.731,telentang
0.8,1.13,-91.249,-0.02,-0.008,0.174,506.19,4.44,518,telentang
0.8,1.37,-93.381,-0.061,-0.007,0.159,518,4.44,518,telentang
0.8,1.62,-120.355,-0.088,-0.003,0.13,518,4.44,518,telentang
0.8,1.8599999999999999,-113.341,-0.094,-0.001,0.085,518,4.44,518,telentang
0.8,2.0,-111.391,-0.089,-0.001,0.069,515,14.672,245.893,telentang
0.8,2.13,-113.078,-0.081,-0.001,0.076,483.53,15.207,245,telentang
0.8,2.37,-97.676,-0.065,-0.002,0.086,421.55,15.207,245,telentang
0.8,2.62,-90.812,-0.046,-0.002,0.093,359.52,15.207,245,telentang
0.8,2.86,-79.22,-0.03,-0.001,0.092,297.6,15.207,245,telentang
0.8,3.0,-72.661,-0.013,-0.003,0.096,243,0.97,240.415,telentang
0.8,3.13,-80.509,-0.011,-0.002,0.102,240.01,1.443,240,telentang
0.8,3.37,-73.25,-0.002,-0.004,0.114,240,1.443,240,telentang
0.8,3.62,-71.702,0.009,-0.007,0.124,240,1.443,240,telentang
0.8,3.86,-63.34,0.021,-0.01,0.131,240,1.443,240,telentang
0.8,4.0,-51.826,0.017,-0.01,0.129,241,4.717,313.218,telentang
0.8,4.13,-55.224,0.017,-0.011,0.134,251.79,5.217,313,telentang
0.8,4.37,-43.521,0.016,-0.012,0.141,273.06,5.217,313,telentang
0.8,4.62,-35.093,0.015,-0.011,0.147,294.37,5.217,313,telentang
0.8,4.86,-31.451,0.013,-0.01,0.153,313,5.217,313,telentang
0.8,5.0,-18.563,0.015,-0.01,0.152,314,4.829,382.345,telentang
0.8,5.13,-9.792,0.012,-0.01,0.155,325.02,5.328,382,telentang
0.8,5.37,-12.06,0.009,-0.009,0.159,346.68,5.328,382,telentang
0.8,5.62,-10.584,0.004,-0.009,0.162,368.48,5.328,382,telentang
0.8,5.86,-4.24,0.003,-0.009,0.165,382,5.328,382,telentang
    
16.0,0.0,36.86137827583163,85.04672897196261,20.000000000000004,32.68482490272373,51.31086142322098,22.252066,96.62909
16.0,20.0,33.594811612106234,78.50467289719626,40.0,35.7976653696498,96.62921348314607,11.3027725,103.57768
16.0,40.0,6.440483543633629,-6.542056074766347,100.0,-5.058365758754863,103.37078651685394,47.616848,3.2694492
16.0,60.0,40.615018088767314,64.48598130841121,80.00000000000001,5.447470817120622,1.4981273408239701,1.0344862,1.2555039
16.0,80.0,58.99938233477455,92.5233644859813,9.999999999999993,18.28793774319066,0.7490636704119851,13.77294,28.021145
16.0,100.0,88.34995146916086,90.65420560747663,9.999999999999993,27.237354085603112,28.08988764044944,14.151393,53.43564
    
Periode(s),Step,Pitch Angle,CoMx(m),CoMy(m),CoMz(m),Left Ankle Angle Now,Left Ankle Speed(rpm),Goal,Pola
0.7,0.0,-75.721,0.009,-0.009,0.166,374,7.34,498.504,telentang
0.7,0.14,-76.284,0.008,-0.009,0.168,390.31,7.881,498,telentang
0.7,0.43,-73.852,0.008,-0.009,0.174,422.64,7.881,498,telentang
0.7,0.71,-80.239,0.008,-0.008,0.176,454.98,7.881,498,telentang
0.7,0.99,-79.554,0.007,-0.008,0.175,487.38,7.881,498,telentang
0.7,1.0,-79.138,0.003,-0.007,0.174,496,4.327,521.197,telentang
0.7,1.1400000000000001,-87.612,-0.021,-0.008,0.174,505.88,4.773,521,telentang
0.7,1.43,-90.85,-0.07,-0.006,0.154,521,4.773,521,telentang
0.7,1.71,-109.396,-0.096,-0.002,0.112,521,4.773,521,telentang
0.7,1.99,-119.656,-0.088,-0.002,0.064,521,4.773,521,telentang
0.7,2.0,-109.59,-0.09,-0.001,0.066,516,14.979,246.298,telentang
0.7,2.14,-110.107,-0.082,-0.001,0.073,484.07,15.429,246,telentang
0.7,2.43,-97.54,-0.065,-0.002,0.083,420.72,15.429,246,telentang
0.7,2.71,103.716,-0.047,-0.002,0.087,357.54,15.429,246,telentang
0.7,2.99,-73.71,-0.03,-0.001,0.09,294.37,15.429,246,telentang
0.7,3.0,-70.477,-0.014,-0.003,0.095,243,1.151,241.866,telentang
0.7,3.14,-81.017,-0.012,-0.002,0.103,241,1.665,241,telentang
0.7,3.43,-78.54,-0.0,-0.005,0.116,241,1.665,241,telentang
0.7,3.71,-68.114,0.013,-0.008,0.126,241,1.665,241,telentang
0.7,3.99,-47.475,0.024,-0.011,0.129,241,1.665,241,telentang
0.7,4.0,-53.394,0.017,-0.01,0.129,241,4.825,312.297,telentang
0.7,4.14,-49.479,0.018,-0.011,0.135,252.02,5.328,312,telentang
0.7,4.43,-41.207,0.018,-0.013,0.143,273.89,5.328,312,telentang
0.7,4.71,-32.583,0.017,-0.011,0.149,295.7,5.328,312,telentang
0.7,4.99,-8.898,0.017,-0.01,0.153,312,5.328,312,telentang
0.7,5.0,-9.552,0.012,-0.009,0.152,313,4.75,380.384,telentang
0.7,5.14,-8.468,0.011,-0.009,0.154,323.8,5.217,380,telentang
0.7,5.43,-11.783,0.009,-0.009,0.158,345.18,5.217,380,telentang
0.7,5.71,-4.237,0.004,-0.009,0.162,366.59,5.217,380,telentang
0.7,5.99,6.243,0.005,-0.009,0.166,380,5.217,380,telentang
    
13.999999999999998,0.0,37.9149386746669,85.04672897196261,20.000000000000004,32.68482490272373,50.56179775280899,22.68926,96.141266
13.999999999999998,20.0,34.8998499955881,79.43925233644859,40.0,35.7976653696498,96.25468164794007,12.446212,104.48402
13.999999999999998,40.0,8.02964793082149,-7.476635514018684,100.0,-6.22568093385214,103.74531835205994,48.66039,3.4182043
13.999999999999998,60.0,42.54213359216447,63.55140186915887,80.00000000000001,5.058365758754863,1.4981273408239701,1.6481094,1.7890447
13.999999999999998,80.0,57.61581222977146,92.5233644859813,9.999999999999993,18.28793774319066,0.7490636704119851,14.140619,27.68287
13.999999999999998,100.0,96.30106767846114,87.85046728971962,20.000000000000004,27.237354085603112,27.715355805243448,13.882729,52.7148
    
Periode(s),Step,Pitch Angle,CoMx(m),CoMy(m),CoMz(m),Left Ankle Angle Now,Left Ankle Speed(rpm),Goal,Pola
0.7,0.0,-76.714,0.009,-0.009,0.165,374,7.308,497.468,telentang
0.7,0.14,-77.918,0.008,-0.009,0.168,390.08,7.7700000000000005,497,telentang
0.7,0.43,-75.891,0.009,-0.009,0.173,422.43,7.7700000000000005,497,telentang
0.7,0.72,-77.762,0.009,-0.008,0.177,454.88,7.7700000000000005,497,telentang
0.7,1.0,-80.297,0.005,-0.007,0.174,494,4.514,523.207,telentang
0.7,1.1400000000000001,-86.678,-0.021,-0.008,0.175,504.34,4.995,523,telentang
0.7,1.43,-93.185,-0.071,-0.006,0.153,523,4.995,523,telentang
0.7,1.72,-106.671,-0.096,-0.002,0.111,523,4.995,523,telentang
0.7,2.0,-111.391,-0.09,-0.002,0.065,518,13.466,239,telentang
0.7,2.14,-107.67,-0.083,-0.002,0.071,489.06,13.986,239,telentang
0.7,2.43,-96.219,-0.067,-0.002,0.08,430.82,13.986,239,telentang
0.7,2.7199999999999998,-85.785,-0.05,-0.001,0.081,372.34,13.986,239,telentang
0.7,3.0,-73.499,-0.011,-0.003,0.096,239,1.026,240.782,telentang
0.7,3.14,-81.014,-0.009,-0.002,0.103,240,1.554,240,telentang
0.7,3.43,-73.031,-0.0,-0.005,0.116,240,1.554,240,telentang
0.7,3.7199999999999998,-66.999,0.013,-0.008,0.126,240,1.554,240,telentang
0.7,4.0,-46.787,0.018,-0.01,0.129,240,5.157,317.556,telentang
0.7,4.14,-49.738,0.018,-0.011,0.134,251.71,5.6610000000000005,317,telentang
0.7,4.43,-46.863,0.017,-0.011,0.142,275.3,5.6610000000000005,317,telentang
0.7,4.72,-19.981,0.015,-0.01,0.149,298.92,5.6610000000000005,317,telentang
0.7,5.0,-15.157,0.01,-0.009,0.152,315,4.458,375.892,telentang
0.7,5.14,-8.123,0.009,-0.009,0.156,325.34,4.995,375,telentang
0.7,5.43,-9.071,0.008,-0.009,0.158,345.95,4.995,375,telentang
0.7,5.72,-1.346,0.004,-0.009,0.162,366.78,4.995,375,telentang
    
13.999999999999998,0.0,37.03873643342451,85.04672897196261,20.000000000000004,32.295719844357976,50.56179775280899,22.580837,95.760124
13.999999999999998,20.0,33.87717285802524,81.30841121495327,40.0,35.7976653696498,95.50561797752809,13.081498,105.22307
13.999999999999998,40.0,6.440483543633629,-7.476635514018684,90.0,-6.614785992217899,104.49438202247192,43.516216,5.711635
13.999999999999998,60.0,39.87558457601694,66.35514018691589,80.00000000000001,5.447470817120622,0.0,1.2239006,1.3905667
13.999999999999998,80.0,63.445689579105256,93.45794392523365,9.999999999999993,18.28793774319066,0.37453183520599254,15.267049,29.616133
13.999999999999998,100.0,91.35533398041119,85.98130841121494,20.000000000000004,27.237354085603112,28.46441947565543,12.892696,51.063072
    
0.6,0.0,-78.685,0.009,-0.009,0.165,374,7.414,495.365,telentang
0.6,0.17,-76.879,0.01,-0.009,0.169,390.31,7.881,495,telentang
0.6,0.5,-79.653,0.015,-0.009,0.174,422.87,7.881,495,telentang
0.6,0.84,-82.326,0.019,-0.009,0.175,455.72,7.881,495,telentang
0.6,1.0,-81.403,0.005,-0.007,0.174,493,4.71,522.729,telentang
0.6,1.17,-89.657,-0.023,-0.008,0.174,503.79,5.217,522,telentang
0.6,1.5,-95.323,-0.078,-0.004,0.147,522,5.217,522,telentang
0.6,1.8399999999999999,-123.219,-0.095,-0.001,0.089,522,5.217,522,telentang
0.6,2.0,-111.27,-0.09,-0.001,0.065,517,15.339,239,telentang
0.6,2.17,-111.007,-0.081,-0.002,0.071,484.16,15.873,239,telentang
0.6,2.5,-99.482,-0.062,-0.001,0.081,417.76,15.873,239,telentang
0.6,2.84,-78.287,-0.044,-0.002,0.082,351.58,15.873,239,telentang
0.6,3.0,-71.147,-0.011,-0.003,0.096,239,1.204,243.194,telentang
0.6,3.17,-82.069,-0.01,-0.002,0.103,242.45,1.665,243,telentang
0.6,3.51,-78.305,0.002,-0.005,0.12,243,1.665,243,telentang
0.6,3.84,-65.801,0.016,-0.009,0.13,243,1.665,243,telentang
0.6,4.0,-40.929,0.016,-0.01,0.129,245,5.359,324.407,telentang
0.6,4.17,-55.154,0.016,-0.011,0.135,257.17,5.883,324,telentang
0.6,4.5,-34.921,0.017,-0.012,0.144,281.74,5.883,324,telentang
0.6,4.83,-15.093,0.016,-0.01,0.151,305.87,5.883,324,telentang
0.6,5.0,-9.996,0.003,-0.009,0.153,326,4.34,382.859,telentang
0.6,5.17,-12.842,0.004,-0.009,0.156,336.11,4.884,382,telentang
0.6,5.5,-17.765,0.002,-0.008,0.16,356.48,4.884,382,telentang
0.6,5.84,8.601,0.001,-0.01,0.164,376.93,4.884,382,telentang
    
12.0,0.0,35.29956763434218,85.04672897196261,20.000000000000004,32.295719844357976,50.56179775280899,22.941526,94.987175
12.0,20.0,32.9012618018177,81.30841121495327,40.0,35.7976653696498,95.13108614232209,13.749741,105.0473
12.0,40.0,6.547251389746759,-7.476635514018684,100.0,-6.614785992217899,104.11985018726593,49.882465,3.4538462
12.0,60.0,41.95093973352157,66.35514018691589,80.00000000000001,5.447470817120622,0.0,1.8278353,2.2773316
12.0,80.0,68.61466513720991,91.58878504672896,9.999999999999993,18.28793774319066,2.247191011235955,15.95365,32.135098
12.0,100.0,95.90929144974852,79.43925233644859,20.000000000000004,27.62645914396887,32.58426966292135,12.491902,53.62472
    
