Periode(s),Step,Pitch Angle,CoMx(m),CoMy(m),CoMz(m),Left Ankle Angle Now,Omega (theta/s),Left Ankle Speed(rpm),Goal,Pola
0.3,0.0,96.783,0.009,-0.009,0.165,374,0.261,13.671,537.849,tengkurap
0.3,0.32,91.37,0.013,-0.011,0.172,401.91,-66.403,14.208,537,tengkurap
0.3,0.96,84.378,0.018,-0.015,0.173,459.0,-60.533,14.208,537,tengkurap
0.3,1.0,82.097,-0.028,-0.011,0.172,526,0.444,12.548,395.865,tengkurap
0.3,1.33,85.437,-0.025,-0.01,0.174,498.79,58.551,13.098,395,tengkurap
0.3,1.96,96.297,-0.02,-0.01,0.172,447.77,47.383,13.098,395,tengkurap
0.3,2.0,98.145,0.01,-0.013,0.171,396,0.055,0.061,399.963,tengkurap
0.3,2.33,97.715,0.013,-0.013,0.171,397.15,-1.579,0.555,399,tengkurap
0.3,2.95,96.177,0.013,-0.014,0.171,399,-4.495,0.555,399,tengkurap
0.3,3.0,97.051,0.013,-0.014,0.171,397,-0.075,21.761,295.875,tengkurap
0.3,3.33,105.097,0.033,-0.017,0.157,350.69,151.788,22.311,295,tengkurap
0.3,3.96,115.339,0.046,-0.018,0.118,295,-69.869,22.311,295,tengkurap
0.3,4.0,103.481,0.047,-0.019,0.116,288,-0.457,38.779,332.718,tengkurap
0.3,4.33,95.386,0.024,-0.017,0.124,332,-128.373,39.294000000000004,332,tengkurap
0.3,4.96,58.963,0.011,-0.012,0.125,332,-94.808,39.294000000000004,332,tengkurap
0.3,5.0,35.245,0.012,-0.011,0.124,326,25.421,4.085,376.265,tengkurap
0.3,5.33,33.219,0.011,-0.011,0.141,335.45,-30.418,4.551,376,tengkurap
0.3,5.98,23.229,0.021,-0.01,0.163,353.71,-107.06,4.551,376,tengkurap
0.3,6.0,13.004,0.021,-0.01,0.163,326,-34.586,2.52,359.526,tengkurap
0.3,6.33,10.589,0.013,-0.011,0.14,332.2,-84.632,2.997,359,tengkurap
0.3,6.96,-8.282,0.026,-0.01,0.161,343.87,4.124,2.997,359,tengkurap
0.3,7,-8.282,0.026,-0.01,0.161,326,4.124,2.997,359,tengkurap
0.3,7,1.837,0.026,-0.01,0.161,326,46.711,2.997,359,tengkurap
0.3,7,9.19,0.026,-0.01,0.161,326,36.261,2.997,359,tengkurap
0.3,7,14.227,0.026,-0.01,0.161,326,1.414,2.997,359,tengkurap
0.3,7,14.467,0.026,-0.01,0.161,326,-26.304,2.997,359,tengkurap
0.3,7,11.211,0.026,-0.01,0.161,326,-26.235,2.997,359,tengkurap
0.3,7,8.116,0.026,-0.01,0.161,326,-3.747,2.997,359,tengkurap
0.3,7,7.862,0.026,-0.01,0.161,326,13.436,2.997,359,tengkurap
0.3,7,9.794,0.026,-0.01,0.161,326,11.146,2.997,359,tengkurap
0.3,7,11.222,0.026,-0.01,0.161,326,-4.854,2.997,359,tengkurap
0.3,7,10.651,0.026,-0.01,0.161,326,-7.617,2.997,359,tengkurap
0.3,7,9.64,0.026,-0.01,0.161,326,0.452,2.997,359,tengkurap
0.3,7,9.742,0.026,-0.01,0.161,326,4.62,2.997,359,tengkurap
0.3,7,10.42,0.026,-0.01,0.161,326,-0.228,2.997,359,tengkurap
0.3,7,10.337,0.026,-0.01,0.161,326,-2.785,2.997,359,tengkurap
0.3,7,10.009,0.026,-0.01,0.161,326,1.032,2.997,359,tengkurap
0.3,7,10.185,0.026,-0.01,0.161,326,1.253,2.997,359,tengkurap
0.3,7,10.37,0.026,-0.01,0.161,326,-1.037,2.997,359,tengkurap
0.3,7,10.175,0.026,-0.01,0.161,326,-0.212,2.997,359,tengkurap
0.3,7,10.221,0.026,-0.01,0.161,326,0.902,2.997,359,tengkurap
0.3,7,10.389,0.026,-0.01,0.161,326,-0.495,2.997,359,tengkurap
0.3,7,10.265,0.026,-0.01,0.161,326,-0.441,2.997,359,tengkurap
0.3,7,10.245,0.026,-0.01,0.161,326,0.856,2.997,359,tengkurap
0.3,7,10.381,0.026,-0.01,0.161,326,-0.556,2.997,359,tengkurap
0.3,7,10.353,0.026,-0.01,0.161,326,0.131,2.997,359,tengkurap
0.3,7,10.32,0.026,-0.01,0.161,326,0.398,2.997,359,tengkurap
0.3,7,10.406,0.026,-0.01,0.161,326,-0.319,2.997,359,tengkurap
0.3,7,10.328,0.026,-0.01,0.161,326,1.788,2.997,359,tengkurap
0.3,7,10.288,0.026,-0.01,0.161,326,0.459,2.997,359,tengkurap
0.3,7,10.335,0.026,-0.01,0.161,326,0.009,2.997,359,tengkurap
    
6.0,0.0,90.6563888663714,56.17977528089888,91.66666666666667,82.25806451612905,32.82442748091603,74.204,62.52,95.362
6.0,20.0,79.86101387650427,14.60674157303371,75.00000000000001,93.54838709677419,90.83969465648855,74.227,57.167,41.17
6.0,40.0,91.68957309299395,57.30337078651686,58.333333333333336,91.93548387096779,41.221374045801525,74.246,-2.355,42.734
6.0,60.0,90.88631288827314,60.67415730337079,50.0,91.93548387096779,41.603053435114504,75.009,101.082,3.006
6.0,80.0,96.07139435654437,98.87640449438202,8.333333333333341,3.2258064516129066,0.0,74.523,182.201,17.068
6.0,100.0,44.59494314539009,59.55056179775282,75.00000000000001,16.129032258064512,14.50381679389313,86.354,16.826,33.689
6.0,120.0,29.72725999837874,69.66292134831461,83.33333333333334,79.03225806451614,14.50381679389313,33.627,9.367,27.3
6.0,120.0,13.249371762087591,75.2808988764045,83.33333333333334,75.80645161290325,14.50381679389313,76.001,11.64,27.099
6.0,120.0,20.706426818573735,75.2808988764045,83.33333333333334,75.80645161290325,16.9618320610687,93.971,11.64,27.099
6.0,120.0,26.125116988584864,75.2808988764045,83.33333333333334,75.80645161290325,19.374045801526716,89.562,11.64,27.099
6.0,120.0,29.837063457556173,75.2808988764045,83.33333333333334,75.80645161290325,21.790076335877853,74.858,11.64,27.099
6.0,120.0,30.013928089788276,75.2808988764045,83.33333333333334,75.80645161290325,24.202290076335885,63.163,11.64,27.099
6.0,120.0,27.614464579172715,75.2808988764045,83.33333333333334,75.80645161290325,26.618320610687025,63.192,11.64,27.099
6.0,120.0,25.333647759346185,75.2808988764045,83.33333333333334,75.80645161290325,27.099236641221374,72.681,11.64,27.099
6.0,120.0,25.14646602356721,75.2808988764045,83.33333333333334,75.80645161290325,27.099236641221374,79.931,11.64,27.099
6.0,120.0,26.57022631303566,75.2808988764045,83.33333333333334,75.80645161290325,27.099236641221374,78.965,11.64,27.099
6.0,120.0,27.62257087481668,75.2808988764045,83.33333333333334,75.80645161290325,27.099236641221374,72.214,11.64,27.099
6.0,120.0,27.201780437297803,75.2808988764045,83.33333333333334,75.80645161290325,27.099236641221374,71.048,11.64,27.099
6.0,120.0,26.456738174020057,75.2808988764045,83.33333333333334,75.80645161290325,27.099236641221374,74.452,11.64,27.099
6.0,120.0,26.531905642718705,75.2808988764045,83.33333333333334,75.80645161290325,27.099236641221374,76.211,11.64,27.099
6.0,120.0,27.031548228774398,75.2808988764045,83.33333333333334,75.80645161290325,27.099236641221374,74.166,11.64,27.099
6.0,120.0,26.970382543460797,75.2808988764045,83.33333333333334,75.80645161290325,27.099236641221374,73.087,11.64,27.099
6.0,120.0,26.728667546076917,75.2808988764045,83.33333333333334,75.80645161290325,27.099236641221374,74.697,11.64,27.099
6.0,120.0,26.85836827638046,75.2808988764045,83.33333333333334,75.80645161290325,27.099236641221374,74.79,11.64,27.099
6.0,120.0,26.994701430392716,75.2808988764045,83.33333333333334,75.80645161290325,27.099236641221374,73.824,11.64,27.099
6.0,120.0,26.85099891670413,75.2808988764045,83.33333333333334,75.80645161290325,27.099236641221374,74.172,11.64,27.099
6.0,120.0,26.88489797121528,75.2808988764045,83.33333333333334,75.80645161290325,27.099236641221374,74.642,11.64,27.099
6.0,120.0,27.00870321377775,75.2808988764045,83.33333333333334,75.80645161290325,27.099236641221374,74.053,11.64,27.099
6.0,120.0,26.917323153791163,75.2808988764045,83.33333333333334,75.80645161290325,27.099236641221374,74.075,11.64,27.099
6.0,120.0,26.90258443443849,75.2808988764045,83.33333333333334,75.80645161290325,27.099236641221374,74.623,11.64,27.099
6.0,120.0,27.002807726036682,75.2808988764045,83.33333333333334,75.80645161290325,27.099236641221374,74.027,11.64,27.099
6.0,120.0,26.982173518942936,75.2808988764045,83.33333333333334,75.80645161290325,27.099236641221374,74.317,11.64,27.099
6.0,120.0,26.957854632011024,75.2808988764045,83.33333333333334,75.80645161290325,27.099236641221374,74.43,11.64,27.099
6.0,120.0,27.02123112522753,75.2808988764045,83.33333333333334,75.80645161290325,27.099236641221374,74.127,11.64,27.099
6.0,120.0,26.963750119752095,75.2808988764045,83.33333333333334,75.80645161290325,27.099236641221374,75.016,11.64,27.099
6.0,120.0,26.934272681046746,75.2808988764045,83.33333333333334,75.80645161290325,27.099236641221374,74.455,11.64,27.099
6.0,120.0,26.968908671525533,75.2808988764045,83.33333333333334,75.80645161290325,27.099236641221374,74.265,11.64,27.099
    
Periode(s),Step,Pitch Angle,CoMx(m),CoMy(m),CoMz(m),Left Ankle Angle Now,Omega (theta/s),Left Ankle Speed(rpm),Goal,Pola
0.3,0.0,92.976,0.008,-0.01,0.165,376,-0.012,12.509,534.193,tengkurap
0.3,0.33,87.638,0.013,-0.011,0.172,402.88,-38.715,12.987,534,tengkurap
0.3,1.02,81.831,0.032,-0.016,0.17,440.21,-1.066,10.101,457,tengkurap
0.3,1.0,80.012,0.018,-0.015,0.173,457,-0.02,-0.661,493.968,tengkurap
0.3,1.34,86.202,0.0,-0.011,0.175,457.0,35.507,0.0,493,tengkurap
0.3,2.0,99.428,0.006,-0.013,0.171,402.68,52.11,8.769,390,tengkurap
0.3,2.0,95.696,-0.009,-0.011,0.172,427,-0.096,6.302,353.175,tengkurap
0.3,2.33,95.461,0.0,-0.012,0.172,412.99,0.278,6.771,353,tengkurap
0.3,2.99,93.787,-0.002,-0.012,0.172,416.8,-0.569,1.665,302,tengkurap
0.3,3.0,93.376,0.041,-0.017,0.165,356,0.072,2.573,376.868,tengkurap
0.3,3.33,111.956,0.026,-0.017,0.158,362.43,105.797,3.108,376,tengkurap
0.3,4.01,108.358,0.037,-0.017,0.12,314.15,-40.424,6.66,287,tengkurap
0.3,4.0,97.895,0.049,-0.019,0.115,282,0.301,38.321,337.32,tengkurap
0.3,4.33,83.484,0.022,-0.016,0.125,337,-120.882,38.85,337,tengkurap
0.3,5.01,51.027,0.028,-0.013,0.12,288.29,-71.806,0.999,332,tengkurap
0.3,5.0,11.103,0.012,-0.011,0.124,330,23.186,3.998,399.947,tengkurap
0.3,5.33,16.156,0.01,-0.011,0.141,339.43,-33.066,4.551,399,tengkurap
0.3,6.01,8.359,0.029,-0.011,0.162,341.8,-141.508,1.887,383,tengkurap
0.3,6.0,0.164,0.029,-0.011,0.162,330,32.667,1.904,363.966,tengkurap
0.3,6.33,4.944,0.013,-0.011,0.139,335.06,-39.669,2.442,363,tengkurap
0.3,6.99,3.676,0.025,-0.01,0.163,348.46,-2.501,2.997,392,tengkurap
0.3,7,4.382,0.025,-0.01,0.163,330,-10.035,1.554,396,tengkurap
0.3,7,5.239,0.025,-0.01,0.163,330,-25.547,1.554,396,tengkurap
0.3,7,3.385,0.025,-0.01,0.163,330,-29.279,1.554,396,tengkurap
0.3,7,0.425,0.025,-0.01,0.163,330,-45.05,1.554,396,tengkurap
0.3,7,-11.623,0.025,-0.01,0.163,330,-18.722,1.554,396,tengkurap
0.3,7,-9.262,0.025,-0.01,0.163,330,-6.89,1.554,396,tengkurap
0.3,7,-7.838,0.025,-0.01,0.163,330,-4.31,1.554,396,tengkurap
0.3,7,-6.801,0.025,-0.01,0.163,330,-12.959,1.554,396,tengkurap
0.3,7,-10.696,0.025,-0.01,0.163,330,-11.264,1.554,396,tengkurap
0.3,7,-10.824,0.025,-0.01,0.163,330,-0.02,1.554,396,tengkurap
0.3,7,-9.709,0.025,-0.01,0.163,330,5.385,1.554,396,tengkurap
0.3,7,-8.917,0.025,-0.01,0.163,330,1.537,1.554,396,tengkurap
0.3,7,-10.34,0.025,-0.01,0.163,330,-3.569,1.554,396,tengkurap
0.3,7,-9.748,0.025,-0.01,0.163,330,0.308,1.554,396,tengkurap
0.3,7,-8.896,0.025,-0.01,0.163,330,1.889,1.554,396,tengkurap
0.3,7,-10.301,0.025,-0.01,0.163,330,-1.02,1.554,396,tengkurap
0.3,7,-9.523,0.025,-0.01,0.163,330,-1.264,1.554,396,tengkurap
0.3,7,-9.097,0.025,-0.01,0.163,330,0.934,1.554,396,tengkurap
0.3,7,-8.596,0.025,-0.01,0.163,330,0.308,1.554,396,tengkurap
0.3,7,-8.389,0.025,-0.01,0.163,330,-0.951,1.554,396,tengkurap
0.3,7,-8.494,0.025,-0.01,0.163,330,0.515,1.554,396,tengkurap
0.3,7,-8.506,0.025,-0.01,0.163,330,0.522,1.554,396,tengkurap
0.3,7,-8.587,0.025,-0.01,0.163,330,-0.485,1.554,396,tengkurap
0.3,7,-8.869,0.025,-0.01,0.163,330,0.163,1.554,396,tengkurap
0.3,7,-9.078,0.025,-0.01,0.163,330,0.53,1.554,396,tengkurap
0.3,7,-9.208,0.025,-0.01,0.163,330,-0.226,1.554,396,tengkurap
0.3,7,-9.528,0.025,-0.01,0.163,330,-0.035,1.554,396,tengkurap
0.3,7,-9.748,0.025,-0.01,0.163,330,0.24,1.554,396,tengkurap
0.3,7,-9.934,0.025,-0.01,0.163,330,-0.02,1.554,396,tengkurap
0.3,7,-10.181,0.025,-0.01,0.163,330,0.049,1.554,396,tengkurap
    
6.0,0.0,87.88919430790658,55.0561797752809,83.33333333333334,82.25806451612905,33.587786259541986,75.033,56.981,93.967
6.0,20.0,78.3561906305961,66.29213483146067,41.66666666666667,95.16129032258064,64.50381679389314,74.44,-5.796,78.614
6.0,40.0,89.94008710583137,35.95505617977528,75.00000000000001,93.54838709677419,53.05343511450382,74.256,27.394,24.876
6.0,60.0,88.1581759360929,92.13483146067416,24.999999999999993,82.25806451612905,25.954198473282442,74.26,9.619,33.919
6.0,80.0,92.3476569120909,101.12359550561798,8.333333333333341,1.6129032258064533,-2.2900763358778624,74.533,180.018,18.824
6.0,100.0,25.25037399500357,59.55056179775282,75.00000000000001,16.129032258064512,16.030534351145036,93.092,16.412,42.728
6.0,120.0,18.03134925606314,78.65168539325845,75.00000000000001,77.4193548387097,16.030534351145036,19.095,6.43,28.995
6.0,120.0,22.581928856201685,74.15730337078652,83.33333333333334,79.03225806451614,16.030534351145036,70.027,4.762,41.221
6.0,120.0,23.213482980463827,74.15730337078652,83.33333333333334,79.03225806451614,17.29770992366412,63.482,4.762,41.221
6.0,120.0,21.847203696470814,74.15730337078652,83.33333333333334,79.03225806451614,18.55343511450382,61.907,4.762,41.221
6.0,120.0,19.665873232274848,74.15730337078652,83.33333333333334,79.03225806451614,19.805343511450378,55.253,4.762,41.221
6.0,120.0,10.787268694223158,74.15730337078652,83.33333333333334,79.03225806451614,21.057251908396953,66.362,4.762,41.221
6.0,120.0,12.527174513806493,74.15730337078652,83.33333333333334,79.03225806451614,22.309160305343507,71.354,4.762,41.221
6.0,120.0,13.576571331716986,74.15730337078652,83.33333333333334,79.03225806451614,23.561068702290083,72.443,4.762,41.221
6.0,120.0,14.340773930153208,74.15730337078652,83.33333333333334,79.03225806451614,24.812977099236637,68.794,4.762,41.221
6.0,120.0,11.470408336219664,74.15730337078652,83.33333333333334,79.03225806451614,26.061068702290065,69.509,4.762,41.221
6.0,120.0,11.376080532362543,74.15730337078652,83.33333333333334,79.03225806451614,27.31297709923664,74.253,4.762,41.221
6.0,120.0,12.197764136274198,74.15730337078652,83.33333333333334,79.03225806451614,28.564885496183194,76.534,4.762,41.221
6.0,120.0,12.781417422640148,74.15730337078652,83.33333333333334,79.03225806451614,29.820610687022896,74.91,4.762,41.221
6.0,120.0,11.732757540697287,74.15730337078652,83.33333333333334,79.03225806451614,31.068702290076327,72.755,4.762,41.221
6.0,120.0,12.16902363353648,74.15730337078652,83.33333333333334,79.03225806451614,32.320610687022906,74.392,4.762,41.221
6.0,120.0,12.796893077960455,74.15730337078652,83.33333333333334,79.03225806451614,33.56870229007633,75.058,4.762,41.221
6.0,120.0,11.761498043435004,74.15730337078652,83.33333333333334,79.03225806451614,34.820610687022906,73.831,4.762,41.221
6.0,120.0,12.334834226254081,74.15730337078652,83.33333333333334,79.03225806451614,36.06870229007634,73.728,4.762,41.221
6.0,120.0,12.648768948466069,74.15730337078652,83.33333333333334,79.03225806451614,37.32061068702289,74.656,4.762,41.221
6.0,120.0,13.017973868250587,74.15730337078652,83.33333333333334,79.03225806451614,38.56870229007634,74.392,4.762,41.221
6.0,120.0,13.17051961355078,74.15730337078652,83.33333333333334,79.03225806451614,39.82061068702289,73.86,4.762,41.221
6.0,120.0,13.093141336949232,74.15730337078652,83.33333333333334,79.03225806451614,41.072519083969475,74.479,4.762,41.221
6.0,120.0,13.084298105337627,74.15730337078652,83.33333333333334,79.03225806451614,41.221374045801525,74.482,4.762,41.221
6.0,120.0,13.024606291959289,74.15730337078652,83.33333333333334,79.03225806451614,41.221374045801525,74.057,4.762,41.221
6.0,120.0,12.816790349086569,74.15730337078652,83.33333333333334,79.03225806451614,41.221374045801525,74.331,4.762,41.221
6.0,120.0,12.662770731851108,74.15730337078652,83.33333333333334,79.03225806451614,41.221374045801525,74.485,4.762,41.221
6.0,120.0,12.566969056058715,74.15730337078652,83.33333333333334,79.03225806451614,41.221374045801525,74.166,4.762,41.221
6.0,120.0,12.33114954641591,74.15730337078652,83.33333333333334,79.03225806451614,41.221374045801525,74.247,4.762,41.221
6.0,120.0,12.16902363353648,74.15730337078652,83.33333333333334,79.03225806451614,41.221374045801525,74.363,4.762,41.221
6.0,120.0,12.031953543556599,74.15730337078652,83.33333333333334,79.03225806451614,41.221374045801525,74.253,4.762,41.221
6.0,120.0,11.849930359551058,74.15730337078652,83.33333333333334,79.03225806451614,41.221374045801525,74.282,4.762,41.221
    
0.3,0.0,91.595,0.008,-0.009,0.165,376,0.133,13.677,536.109,tengkurap
0.3,0.33,85.133,0.012,-0.011,0.172,405.4,-45.241,14.208,536,tengkurap
0.3,1.04,86.387,0.032,-0.016,0.17,439.76,-8.844,9.879,457,tengkurap
0.3,1.0,81.435,0.019,-0.015,0.173,457,0.079,-0.751,494.337,tengkurap
0.3,1.33,87.356,0.001,-0.012,0.175,456.77,35.889,-0.111,494,tengkurap
0.3,2.01,98.232,0.003,-0.013,0.171,409.74,45.606,7.548,383,tengkurap
0.3,2.0,95.05,0.009,-0.013,0.171,399,0.034,-0.801,399.672,tengkurap
0.3,2.33,94.776,0.008,-0.013,0.171,398.54,1.545,-0.222,399,tengkurap
0.3,3.06,92.419,0.081,-0.02,0.146,292,-7.989,21.756,292,tengkurap
0.3,3.0,92.627,0.081,-0.02,0.146,291,0.125,7.088,446.39,tengkurap
0.3,3.33,106.358,0.059,-0.018,0.147,306.62,131.614,7.548,446,tengkurap
0.3,4.05,100.098,0.036,-0.017,0.12,315.51,-192.791,3.774,317,tengkurap
0.3,4.0,77.06,0.035,-0.017,0.12,315,-0.318,26.46,322.283,tengkurap
0.3,4.33,59.963,0.029,-0.017,0.123,322,-170.989,26.973,322,tengkurap
0.3,5.02,36.468,0.014,-0.012,0.125,324.1,-87.066,1.443,334,tengkurap
0.3,5.0,30.328,0.013,-0.012,0.123,325,9.744,3.989,373.314,tengkurap
0.3,5.33,31.307,0.012,-0.011,0.141,334.23,-30.638,4.44,373,tengkurap
0.3,6.02,9.498,0.032,-0.011,0.16,334.79,-139.905,1.554,374,tengkurap
0.3,6.0,10.461,0.032,-0.011,0.16,325,22.736,3.848,367.179,tengkurap
0.3,6.33,6.777,0.012,-0.011,0.141,333.96,-55.295,4.329,367,tengkurap
0.3,6.99,-0.403,0.028,-0.011,0.162,340.65,-20.585,2.553,391,tengkurap
0.3,7,-0.685,0.028,-0.011,0.162,325,8.354,1.11,392,tengkurap
0.3,7,1.019,0.028,-0.011,0.162,325,-2.905,1.11,392,tengkurap
0.3,7,1.414,0.028,-0.011,0.162,325,-18.234,1.11,392,tengkurap
0.3,7,-0.239,0.028,-0.011,0.162,325,-27.402,1.11,392,tengkurap
0.3,7,-3.194,0.028,-0.011,0.162,325,-23.18,1.11,392,tengkurap
0.3,7,-12.432,0.028,-0.011,0.162,325,-10.882,1.11,392,tengkurap
0.3,7,-9.526,0.028,-0.011,0.162,325,0.515,1.11,392,tengkurap
0.3,7,-8.23,0.028,-0.011,0.162,325,-6.745,1.11,392,tengkurap
0.3,7,-10.791,0.028,-0.011,0.162,325,-8.585,1.11,392,tengkurap
0.3,7,-10.495,0.028,-0.011,0.162,325,-0.478,1.11,392,tengkurap
0.3,7,-9.256,0.028,-0.011,0.162,325,2.446,1.11,392,tengkurap
0.3,7,-8.233,0.028,-0.011,0.162,325,-0.195,1.11,392,tengkurap
0.3,7,-7.865,0.028,-0.011,0.162,325,-2.119,1.11,392,tengkurap
0.3,7,-10.301,0.028,-0.011,0.162,325,1.324,1.11,392,tengkurap
0.3,7,-8.698,0.028,-0.011,0.162,325,0.408,1.11,392,tengkurap
0.3,7,-8.211,0.028,-0.011,0.162,325,-1.226,1.11,392,tengkurap
0.3,7,-8.091,0.028,-0.011,0.162,325,0.973,1.11,392,tengkurap
0.3,7,-7.759,0.028,-0.011,0.162,325,-0.249,1.11,392,tengkurap
0.3,7,-7.674,0.028,-0.011,0.162,325,-0.44,1.11,392,tengkurap
0.3,7,-7.726,0.028,-0.011,0.162,325,0.766,1.11,392,tengkurap
0.3,7,-7.635,0.028,-0.011,0.162,325,-0.455,1.11,392,tengkurap
0.3,7,-7.814,0.028,-0.011,0.162,325,-0.188,1.11,392,tengkurap
0.3,7,-7.999,0.028,-0.011,0.162,325,0.347,1.11,392,tengkurap
0.3,7,-8.041,0.028,-0.011,0.162,325,-0.119,1.11,392,tengkurap
0.3,7,-8.187,0.028,-0.011,0.162,325,-0.325,1.11,392,tengkurap
0.3,7,-8.344,0.028,-0.011,0.162,325,0.637,1.11,392,tengkurap
0.3,7,-8.418,0.028,-0.011,0.162,325,-0.272,1.11,392,tengkurap
0.3,7,-8.601,0.028,-0.011,0.162,325,0.339,1.11,392,tengkurap
0.3,7,-8.78,0.028,-0.011,0.162,325,0.148,1.11,392,tengkurap
0.3,7,-8.825,0.028,-0.011,0.162,325,-2.02,1.11,392,tengkurap
    
6.0,0.0,86.83537587419029,55.0561797752809,91.66666666666667,82.25806451612905,33.587786259541986,74.314,62.548,94.698
6.0,20.0,79.50433686816952,67.41573033707866,41.66666666666667,95.16129032258064,64.50381679389314,74.305,-6.225,78.755
6.0,40.0,89.42717967235826,56.17977528089888,58.333333333333336,91.93548387096779,42.36641221374045,74.318,-6.464,42.623
6.0,60.0,87.54578214698925,137.07865168539325,0.0,51.61290322580644,1.1450381679389312,74.269,31.141,60.454
6.0,80.0,75.82776332564464,85.39325842696631,24.999999999999993,9.677419354838698,10.305343511450381,74.063,123.481,13.085
6.0,100.0,41.23451513298009,60.67415730337079,66.66666666666666,14.516129032258057,14.122137404580155,77.223,16.369,32.563
6.0,120.0,26.587175840291238,82.02247191011237,75.00000000000001,74.19354838709678,14.122137404580155,80.141,15.697,30.221
6.0,120.0,18.84787430820136,77.52808988764046,75.00000000000001,77.4193548387097,14.122137404580155,77.787,2.646,39.695
6.0,120.0,20.103613197049306,77.52808988764046,75.00000000000001,77.4193548387097,15.019083969465658,73.036,2.646,39.695
6.0,120.0,20.39470290426465,77.52808988764046,75.00000000000001,77.4193548387097,15.916030534351142,66.568,2.646,39.695
6.0,120.0,19.17654774976602,77.52808988764046,75.00000000000001,77.4193548387097,16.809160305343518,62.7,2.646,39.695
6.0,120.0,16.998901965408226,77.52808988764046,75.00000000000001,77.4193548387097,17.702290076335874,64.481,2.646,39.695
6.0,120.0,10.191087496407436,77.52808988764046,75.00000000000001,77.4193548387097,18.59923664122138,69.67,2.646,39.695
6.0,120.0,12.332623418351178,77.52808988764046,75.00000000000001,77.4193548387097,19.492366412213737,74.479,2.646,39.695
6.0,120.0,13.287692432404546,77.52808988764046,75.00000000000001,77.4193548387097,20.38931297709924,71.416,2.646,39.695
6.0,120.0,11.400399419294455,77.52808988764046,75.00000000000001,77.4193548387097,21.282442748091597,70.639,2.646,39.695
6.0,120.0,11.618532465714054,77.52808988764046,75.00000000000001,77.4193548387097,22.179389312977104,74.06,2.646,39.695
6.0,120.0,12.531596129612296,77.52808988764046,75.00000000000001,77.4193548387097,23.07251908396946,75.294,2.646,39.695
6.0,120.0,13.285481624501646,77.52808988764046,75.00000000000001,77.4193548387097,23.969465648854964,74.179,2.646,39.695
6.0,120.0,13.556674060590876,77.52808988764046,75.00000000000001,77.4193548387097,24.862595419847324,73.367,2.646,39.695
6.0,120.0,11.761498043435004,77.52808988764046,75.00000000000001,77.4193548387097,25.7557251908397,74.82,2.646,39.695
6.0,120.0,12.942806399551943,77.52808988764046,75.00000000000001,77.4193548387097,26.652671755725184,74.434,2.646,39.695
6.0,120.0,13.301694215789588,77.52808988764046,75.00000000000001,77.4193548387097,27.54580152671756,73.744,2.646,39.695
6.0,120.0,13.390126531905644,77.52808988764046,75.00000000000001,77.4193548387097,28.442748091603047,74.672,2.646,39.695
6.0,120.0,13.634789273160052,77.52808988764046,75.00000000000001,77.4193548387097,29.335877862595428,74.157,2.646,39.695
6.0,120.0,13.697428830408926,77.52808988764046,75.00000000000001,77.4193548387097,30.225190839694655,74.076,2.646,39.695
6.0,120.0,13.659108160091971,77.52808988764046,75.00000000000001,77.4193548387097,31.122137404580158,74.585,2.646,39.695
6.0,120.0,13.72616933314664,77.52808988764046,75.00000000000001,77.4193548387097,32.01526717557252,74.07,2.646,39.695
6.0,120.0,13.594257794940196,77.52808988764046,75.00000000000001,77.4193548387097,32.90839694656489,74.182,2.646,39.695
6.0,120.0,13.45792464092795,77.52808988764046,75.00000000000001,77.4193548387097,33.80534351145038,74.408,2.646,39.695
6.0,120.0,13.426973330287332,77.52808988764046,75.00000000000001,77.4193548387097,34.69847328244276,74.211,2.646,39.695
6.0,120.0,13.319380679012799,77.52808988764046,75.00000000000001,77.4193548387097,35.591603053435115,74.124,2.646,39.695
6.0,120.0,13.2036817320943,77.52808988764046,75.00000000000001,77.4193548387097,36.484732824427475,74.53,2.646,39.695
6.0,120.0,13.149148470489399,77.52808988764046,75.00000000000001,77.4193548387097,37.37786259541985,74.147,2.646,39.695
6.0,120.0,13.014289188412418,77.52808988764046,75.00000000000001,77.4193548387097,38.2709923664122,74.405,2.646,39.695
6.0,120.0,12.882377650205976,77.52808988764046,75.00000000000001,77.4193548387097,39.16412213740458,74.324,2.646,39.695
6.0,120.0,12.849215531662454,77.52808988764046,75.00000000000001,77.4193548387097,39.69465648854962,73.409,2.646,39.695
    
Periode(s),Step,Pitch Angle,CoMx(m),CoMy(m),CoMz(m),Left Ankle Angle Now,Omega (theta/s),Left Ankle Speed(rpm),Goal,Pola
0.28,0.0,96.73,0.008,-0.009,0.165,376,-2.003,13.994,536.639,tengkurap
0.28,0.36,92.262,0.012,-0.012,0.173,406.14,-68.919,14.541,536,tengkurap
0.28,1.08,82.739,0.042,-0.016,0.166,426.56,1.196,8.103,460,tengkurap
0.28,1.0,82.518,0.017,-0.014,0.174,460,-0.011,1.582,497.123,tengkurap
0.28,1.3599999999999999,82.408,-0.004,-0.012,0.176,464.37,19.211,2.109,497,tengkurap
0.28,2.06,97.496,-0.001,-0.012,0.172,415.59,2.73,7.215,360,tengkurap
0.28,2.0,97.507,0.004,-0.013,0.171,409,-0.148,2.786,388.696,tengkurap
0.28,2.34,97.387,0.008,-0.013,0.171,402.48,1.035,3.33,388,tengkurap
0.28,3.05,96.581,0.044,-0.017,0.164,348.22,-5.049,9.99,293,tengkurap
0.28,3.0,96.411,0.072,-0.02,0.152,304,-0.163,6.316,433.321,tengkurap
0.28,3.36,100.714,0.051,-0.018,0.15,318.02,79.325,6.771,433,tengkurap
0.28,4.03,104.57,0.038,-0.017,0.12,313,-250.232,3.108,313,tengkurap
0.28,4.0,91.99,0.032,-0.017,0.122,323,-1.24,24.459,314.163,tengkurap
0.28,4.34,85.72,0.032,-0.017,0.122,314,-150.713,24.975,314,tengkurap
0.28,5.04,53.336,0.011,-0.012,0.126,333,-148.598,1.998,333,tengkurap
0.28,5.0,34.019,0.012,-0.011,0.124,327,16.081,4.148,376.421,tengkurap
0.28,5.36,36.055,0.012,-0.011,0.142,336.68,-15.881,4.662,376,tengkurap
0.28,6.0600000000000005,17.823,0.034,-0.011,0.161,333.84,-120.407,1.11,369,tengkurap
0.28,6.0,17.075,0.034,-0.011,0.161,327,12.196,3.716,362.133,tengkurap
0.28,6.36,19.837,0.013,-0.011,0.142,335.84,-46.804,4.218,362,tengkurap
0.28,7.0600000000000005,7.934,0.031,-0.011,0.161,336.51,-56.308,1.554,379,tengkurap
0.28,7,7.934,0.031,-0.011,0.161,327,-56.308,1.554,379,tengkurap
0.28,7,-0.462,0.031,-0.011,0.161,327,-14.614,1.554,379,tengkurap
0.28,7,-4.643,0.031,-0.011,0.161,327,5.47,1.554,379,tengkurap
0.28,7,-1.615,0.031,-0.011,0.161,327,4.745,1.554,379,tengkurap
0.28,7,0.421,0.031,-0.011,0.161,327,-9.156,1.554,379,tengkurap
0.28,7,0.354,0.031,-0.011,0.161,327,-19.751,1.554,379,tengkurap
0.28,7,-1.4,0.031,-0.011,0.161,327,-17.331,1.554,379,tengkurap
0.28,7,-6.418,0.031,-0.011,0.161,327,1.28,1.554,379,tengkurap
0.28,7,-4.671,0.031,-0.011,0.161,327,10.6,1.554,379,tengkurap
0.28,7,-2.235,0.031,-0.011,0.161,327,3.509,1.554,379,tengkurap
0.28,7,-1.102,0.031,-0.011,0.161,327,-5.957,1.554,379,tengkurap
0.28,7,-0.693,0.031,-0.011,0.161,327,0.852,1.554,379,tengkurap
0.28,7,-0.58,0.031,-0.011,0.161,327,1.905,1.554,379,tengkurap
0.28,7,-0.161,0.031,-0.011,0.161,327,0.028,1.554,379,tengkurap
0.28,7,-0.172,0.031,-0.011,0.161,327,-1.423,1.554,379,tengkurap
0.28,7,-0.443,0.031,-0.011,0.161,327,1.073,1.554,379,tengkurap
0.28,7,-0.425,0.031,-0.011,0.161,327,0.241,1.554,379,tengkurap
0.28,7,-0.547,0.031,-0.011,0.161,327,-1.133,1.554,379,tengkurap
0.28,7,-0.922,0.031,-0.011,0.161,327,0.554,1.554,379,tengkurap
0.28,7,-1.012,0.031,-0.011,0.161,327,0.318,1.554,379,tengkurap
0.28,7,-1.132,0.031,-0.011,0.161,327,-0.774,1.554,379,tengkurap
0.28,7,-1.384,0.031,-0.011,0.161,327,0.348,1.554,379,tengkurap
0.28,7,-1.441,0.031,-0.011,0.161,327,0.364,1.554,379,tengkurap
0.28,7,-1.618,0.031,-0.011,0.161,327,-0.392,1.554,379,tengkurap
0.28,7,-1.815,0.031,-0.011,0.161,327,0.135,1.554,379,tengkurap
0.28,7,-1.867,0.031,-0.011,0.161,327,0.127,1.554,379,tengkurap
0.28,7,-1.945,0.031,-0.011,0.161,327,-0.583,1.554,379,tengkurap
0.28,7,-2.069,0.031,-0.011,0.161,327,0.302,1.554,379,tengkurap
0.28,7,-2.102,0.031,-0.011,0.161,327,-0.003,1.554,379,tengkurap
0.28,7,-2.186,0.031,-0.011,0.161,327,-0.186,1.554,379,tengkurap
    
5.6000000000000005,0.0,90.65344112250087,55.0561797752809,91.66666666666667,82.25806451612905,33.587786259541986,74.209,64.059,94.9
5.6000000000000005,20.0,80.17937021452207,65.1685393258427,50.0,96.77419354838709,65.64885496183206,74.315,4.895,79.818
5.6000000000000005,40.0,91.21056471403199,50.56179775280899,58.333333333333336,91.93548387096779,46.18320610687023,74.383,10.634,38.434
5.6000000000000005,60.0,90.40877838124646,126.96629213483146,0.0,61.29032258064516,6.106870229007633,74.309,27.461,55.466
5.6000000000000005,80.0,87.32322748476385,82.02247191011237,24.999999999999993,12.903225806451605,13.358778625954198,73.243,113.943,9.986
5.6000000000000005,100.0,44.2721651915665,59.55056179775282,75.00000000000001,16.129032258064512,14.885496183206106,79.378,17.127,33.748
5.6000000000000005,120.0,32.47308341378217,84.26966292134833,75.00000000000001,75.80645161290325,14.885496183206106,70.331,15.067,28.295
5.6000000000000005,120.0,25.199525413236845,80.89887640449439,75.00000000000001,75.80645161290325,14.885496183206106,50.503,4.762,34.733
5.6000000000000005,120.0,19.012211028983693,80.89887640449439,75.00000000000001,75.80645161290325,16.164122137404586,68.096,4.762,34.733
5.6000000000000005,120.0,15.93108174830689,80.89887640449439,75.00000000000001,75.80645161290325,17.416030534351144,76.57,4.762,34.733
5.6000000000000005,120.0,18.162523858301952,80.89887640449439,75.00000000000001,75.80645161290325,18.66793893129772,76.264,4.762,34.733
5.6000000000000005,120.0,19.662925488404312,80.89887640449439,75.00000000000001,75.80645161290325,19.9236641221374,70.398,4.762,34.733
5.6000000000000005,120.0,19.613550778572847,80.89887640449439,75.00000000000001,75.80645161290325,21.179389312977104,65.928,4.762,34.733
5.6000000000000005,120.0,18.320965091343215,80.89887640449439,75.00000000000001,75.80645161290325,22.435114503816784,66.949,4.762,34.733
5.6000000000000005,120.0,14.623020405756943,80.89887640449439,75.00000000000001,75.80645161290325,23.68702290076336,74.801,4.762,34.733
5.6000000000000005,120.0,15.910447541213143,80.89887640449439,75.00000000000001,75.80645161290325,24.938931297709914,78.734,4.762,34.733
5.6000000000000005,120.0,17.705623558369012,80.89887640449439,75.00000000000001,75.80645161290325,26.19465648854962,75.742,4.762,34.733
5.6000000000000005,120.0,18.540572009698074,80.89887640449439,75.00000000000001,75.80645161290325,27.446564885496194,71.748,4.762,34.733
5.6000000000000005,120.0,18.84197882046029,80.89887640449439,75.00000000000001,75.80645161290325,28.698473282442748,74.621,4.762,34.733
5.6000000000000005,120.0,18.925252584802905,80.89887640449439,75.00000000000001,75.80645161290325,29.95038167938932,75.066,4.762,34.733
5.6000000000000005,120.0,19.234028755241457,80.89887640449439,75.00000000000001,75.80645161290325,31.202290076335874,74.273,4.762,34.733
5.6000000000000005,120.0,19.225922459597484,80.89887640449439,75.00000000000001,75.80645161290325,32.45801526717558,73.661,4.762,34.733
5.6000000000000005,120.0,19.02621281236873,80.89887640449439,75.00000000000001,75.80645161290325,33.71374045801526,74.715,4.762,34.733
5.6000000000000005,120.0,19.03947765978614,80.89887640449439,75.00000000000001,75.80645161290325,34.73282442748092,74.363,4.762,34.733
5.6000000000000005,120.0,18.94957147173482,80.89887640449439,75.00000000000001,75.80645161290325,34.73282442748092,73.784,4.762,34.733
5.6000000000000005,120.0,18.673220483872154,80.89887640449439,75.00000000000001,75.80645161290325,34.73282442748092,74.496,4.762,34.733
5.6000000000000005,120.0,18.606896246785116,80.89887640449439,75.00000000000001,75.80645161290325,34.73282442748092,74.396,4.762,34.733
5.6000000000000005,120.0,18.518463930669064,80.89887640449439,75.00000000000001,75.80645161290325,34.73282442748092,73.935,4.762,34.733
5.6000000000000005,120.0,18.332756066825354,80.89887640449439,75.00000000000001,75.80645161290325,34.73282442748092,74.409,4.762,34.733
5.6000000000000005,120.0,18.290750716670228,80.89887640449439,75.00000000000001,75.80645161290325,34.73282442748092,74.415,4.762,34.733
5.6000000000000005,120.0,18.16031305039905,80.89887640449439,75.00000000000001,75.80645161290325,34.73282442748092,74.096,4.762,34.733
5.6000000000000005,120.0,18.0151366647752,80.89887640449439,75.00000000000001,75.80645161290325,34.73282442748092,74.318,4.762,34.733
5.6000000000000005,120.0,17.97681599445824,80.89887640449439,75.00000000000001,75.80645161290325,34.73282442748092,74.315,4.762,34.733
5.6000000000000005,120.0,17.919334988982808,80.89887640449439,75.00000000000001,75.80645161290325,34.73282442748092,74.016,4.762,34.733
5.6000000000000005,120.0,17.82795492899622,80.89887640449439,75.00000000000001,75.80645161290325,34.73282442748092,74.389,4.762,34.733
5.6000000000000005,120.0,17.8036360420643,80.89887640449439,75.00000000000001,75.80645161290325,34.73282442748092,74.26,4.762,34.733
5.6000000000000005,120.0,17.741733420783067,80.89887640449439,75.00000000000001,75.80645161290325,34.73282442748092,74.183,4.762,34.733
    
Periode(s),Step,Pitch Angle,CoMx(m),CoMy(m),CoMz(m),Left Ankle Angle Now,Omega (theta/s),Left Ankle Speed(rpm),Goal,Pola
0.3,0.0,93.233,0.008,-0.009,0.165,374,0.022,13.634,536.229,tengkurap
0.3,0.34,85.78,0.012,-0.011,0.172,403.35,-48.36,14.097,536,tengkurap
0.3,1.0,83.296,0.018,-0.015,0.173,457,0.075,-0.902,495.017,tengkurap
0.3,1.33,85.034,0.001,-0.012,0.175,456.31,107.923,-0.333,495,tengkurap
0.3,2.0300000000000002,94.887,0.003,-0.013,0.171,410.3,-5.184,7.3260000000000005,381,tengkurap
0.3,2.0,95.539,0.01,-0.013,0.171,396,0.068,0.141,400.17,tengkurap
0.3,2.33,95.785,0.012,-0.013,0.171,397.38,3.091,0.666,400,tengkurap
0.3,2.98,93.394,0.078,-0.02,0.148,298,-1.268,26.862000000000002,298,tengkurap
0.3,3.0,94.38,0.065,-0.019,0.156,320,-0.039,5.276,420.31,tengkurap
0.3,3.33,104.308,0.046,-0.018,0.153,331.94,122.991,5.772,420,tengkurap
0.3,4.0,105.964,0.041,-0.018,0.118,306,-215.978,2.775,306,tengkurap
0.3,4.0,95.031,0.032,-0.017,0.123,323,0.633,24.158,313.093,tengkurap
0.3,4.33,72.335,0.033,-0.017,0.121,313,-159.39,24.642,313,tengkurap
0.3,5.07,43.694,0.009,-0.012,0.125,338,-108.398,13.431000000000001,338,tengkurap
0.3,5.0,29.492,0.011,-0.012,0.124,332,13.572,3.625,370.47,tengkurap
0.3,5.32,32.103,0.01,-0.012,0.139,340.07,-25.291,4.107,370,tengkurap
0.3,5.98,14.889,0.032,-0.011,0.159,336.03,-131.551,0.666,365,tengkurap
0.3,6.0,16.638,0.032,-0.011,0.159,332,31.388,4.085,367.204,tengkurap
0.3,6.33,18.121,0.01,-0.012,0.141,341.43,-6.719,4.551,367,tengkurap
0.3,6.99,7.608,0.03,-0.011,0.161,340.85,-32.047,1.443,367,tengkurap
0.3,7,5.873,0.03,-0.011,0.161,332,-7.741,0.777,386,tengkurap
0.3,7,4.198,0.03,-0.011,0.161,332,17.9,0.777,386,tengkurap
0.3,7,6.358,0.03,-0.011,0.161,332,29.449,0.777,386,tengkurap
0.3,7,9.074,0.03,-0.011,0.161,332,-1.642,0.777,386,tengkurap
0.3,7,8.683,0.03,-0.011,0.161,332,-13.886,0.777,386,tengkurap
0.3,7,6.819,0.03,-0.011,0.161,332,-25.871,0.777,386,tengkurap
0.3,7,3.958,0.03,-0.011,0.161,332,-17.016,0.777,386,tengkurap
0.3,7,1.551,0.03,-0.011,0.161,332,-12.543,0.777,386,tengkurap
0.3,7,0.265,0.03,-0.011,0.161,332,0.091,0.777,386,tengkurap
0.3,7,0.385,0.03,-0.011,0.161,332,2.862,0.777,386,tengkurap
0.3,7,0.882,0.03,-0.011,0.161,332,-5.291,0.777,386,tengkurap
0.3,7,0.367,0.03,-0.011,0.161,332,-6.864,0.777,386,tengkurap
0.3,7,-0.505,0.03,-0.011,0.161,332,-11.703,0.777,386,tengkurap
0.3,7,-1.93,0.03,-0.011,0.161,332,-10.627,0.777,386,tengkurap
0.3,7,-3.112,0.03,-0.011,0.161,332,-11.322,0.777,386,tengkurap
0.3,7,-4.405,0.03,-0.011,0.161,332,-5.283,0.777,386,tengkurap
0.3,7,-4.988,0.03,-0.011,0.161,332,1.778,0.777,386,tengkurap
0.3,7,-4.617,0.03,-0.011,0.161,332,1.442,0.777,386,tengkurap
0.3,7,-4.386,0.03,-0.011,0.161,332,-1.902,0.777,386,tengkurap
0.3,7,-4.589,0.03,-0.011,0.161,332,0.259,0.777,386,tengkurap
0.3,7,-4.519,0.03,-0.011,0.161,332,0.793,0.777,386,tengkurap
0.3,7,-4.376,0.03,-0.011,0.161,332,-1.1,0.777,386,tengkurap
0.3,7,-4.532,0.03,-0.011,0.161,332,0.014,0.777,386,tengkurap
0.3,7,-4.493,0.03,-0.011,0.161,332,0.526,0.777,386,tengkurap
0.3,7,-4.457,0.03,-0.011,0.161,332,-0.902,0.777,386,tengkurap
0.3,7,-4.572,0.03,-0.011,0.161,332,0.381,0.777,386,tengkurap
0.3,7,-4.446,0.03,-0.011,0.161,332,0.572,0.777,386,tengkurap
0.3,7,-4.409,0.03,-0.011,0.161,332,-0.787,0.777,386,tengkurap
0.3,7,-4.488,0.03,-0.011,0.161,332,0.22,0.777,386,tengkurap
0.3,7,-4.428,0.03,-0.011,0.161,332,0.358,0.777,386,tengkurap
    
6.0,0.0,88.06311119626815,55.0561797752809,91.66666666666667,82.25806451612905,32.82442748091603,74.187,62.343,94.744
6.0,20.0,80.82124144233107,66.29213483146067,41.66666666666667,95.16129032258064,64.50381679389314,75.031,-6.945,79.014
6.0,40.0,89.74995762618185,57.30337078651686,58.333333333333336,91.93548387096779,41.221374045801525,74.161,-1.973,42.813
6.0,60.0,88.86710833695659,119.10112359550564,8.333333333333341,67.74193548387098,12.213740458015266,74.255,22.503,50.5
6.0,80.0,89.5502479789531,82.02247191011237,24.999999999999993,14.516129032258057,13.358778625954198,74.3,112.508,9.577
6.0,100.0,40.78129951288532,58.42696629213484,66.66666666666666,16.129032258064512,16.793893129770993,73.453,14.634,31.477
6.0,120.0,31.277036338312563,82.02247191011237,75.00000000000001,72.58064516129033,16.793893129770993,89.941,16.826,30.231
6.0,120.0,23.68070038394364,79.77528089887642,75.00000000000001,75.80645161290325,16.793893129770993,70.995,1.058,37.405
6.0,120.0,22.44633263815707,79.77528089887642,75.00000000000001,75.80645161290325,17.41984732824427,81.814,1.058,37.405
6.0,120.0,24.038114328246017,79.77528089887642,75.00000000000001,75.80645161290325,18.045801526717547,86.688,1.058,37.405
6.0,120.0,26.03963241633934,79.77528089887642,75.00000000000001,75.80645161290325,18.671755725190845,73.569,1.058,37.405
6.0,120.0,25.751490452994542,79.77528089887642,75.00000000000001,75.80645161290325,19.297709923664122,68.402,1.058,37.405
6.0,120.0,24.377841809325183,79.77528089887642,75.00000000000001,75.80645161290325,19.9236641221374,63.345,1.058,37.405
6.0,120.0,22.269468005924967,79.77528089887642,75.00000000000001,75.80645161290325,20.549618320610676,67.082,1.058,37.405
6.0,120.0,20.495663131830476,79.77528089887642,75.00000000000001,75.80645161290325,21.17557251908398,68.969,1.058,37.405
6.0,120.0,19.547963477453443,79.77528089887642,75.00000000000001,75.80645161290325,21.801526717557255,74.3,1.058,37.405
6.0,120.0,19.6363957935695,79.77528089887642,75.00000000000001,75.80645161290325,22.435114503816784,75.469,1.058,37.405
6.0,120.0,20.00265296948348,79.77528089887642,75.00000000000001,75.80645161290325,23.06488549618321,72.029,1.058,37.405
6.0,120.0,19.623130946152088,79.77528089887642,75.00000000000001,75.80645161290325,23.69465648854961,71.366,1.058,37.405
6.0,120.0,18.980522782375438,79.77528089887642,75.00000000000001,75.80645161290325,24.328244274809162,69.324,1.058,37.405
6.0,120.0,17.930389028497313,79.77528089887642,75.00000000000001,75.80645161290325,24.95801526717557,69.778,1.058,37.405
6.0,120.0,17.059330714754196,79.77528089887642,75.00000000000001,75.80645161290325,25.59160305343512,69.485,1.058,37.405
6.0,120.0,16.106472508603726,79.77528089887642,75.00000000000001,75.80645161290325,26.22137404580152,72.032,1.058,37.405
6.0,120.0,15.676838839473236,79.77528089887642,75.00000000000001,75.80645161290325,26.854961832061075,75.012,1.058,37.405
6.0,120.0,15.950242083465366,79.77528089887642,75.00000000000001,75.80645161290325,27.48473282442748,74.87,1.058,37.405
6.0,120.0,16.120474291988767,79.77528089887642,75.00000000000001,75.80645161290325,28.1145038167939,73.459,1.058,37.405
6.0,120.0,15.970876290559112,79.77528089887642,75.00000000000001,75.80645161290325,28.74427480916031,74.371,1.058,37.405
6.0,120.0,16.022461808293475,79.77528089887642,75.00000000000001,75.80645161290325,29.37404580152671,74.596,1.058,37.405
6.0,120.0,16.127843651665106,79.77528089887642,75.00000000000001,75.80645161290325,29.996183206106863,73.797,1.058,37.405
6.0,120.0,16.012881640714237,79.77528089887642,75.00000000000001,75.80645161290325,30.622137404580158,74.268,1.058,37.405
6.0,120.0,16.041622143451956,79.77528089887642,75.00000000000001,75.80645161290325,31.248091603053435,74.483,1.058,37.405
6.0,120.0,16.06815183828677,79.77528089887642,75.00000000000001,75.80645161290325,31.874045801526712,73.881,1.058,37.405
6.0,120.0,15.983404202008888,79.77528089887642,75.00000000000001,75.80645161290325,32.49999999999999,74.422,1.058,37.405
6.0,120.0,16.07625813393074,79.77528089887642,75.00000000000001,75.80645161290325,33.12595419847329,74.503,1.058,37.405
6.0,120.0,16.103524764733194,79.77528089887642,75.00000000000001,75.80645161290325,33.75190839694657,73.929,1.058,37.405
6.0,120.0,16.045306823290122,79.77528089887642,75.00000000000001,75.80645161290325,34.37404580152672,74.355,1.058,37.405
6.0,120.0,16.08952298134815,79.77528089887642,75.00000000000001,75.80645161290325,35.00381679389312,74.413,1.058,37.405
    
