Periode(s),Step,error pitch,error com,Pitch Angle,CoMx(m),CoMy(m),CoMz(m),Left Ankle Angle Now,Omega (theta/s),Left Ankle Speed(rpm),Goal
5.0,0.0,78.24503095470837,40.36315789473684,27.90757587955881,80.8695652173913,33.33333333333333,87.62886597938146,52.32974910394266,41.455,62.611,101.318
5.0,16.666666666666664,77.1345715216683,43.72105263157895,25.669430802672892,65.21739130434784,49.99999999999999,97.9381443298969,100.35842293906809,41.42,8.959,88.596
5.0,33.33333333333333,78.16552623004236,34.48157894736842,-1.6359391353353163,1.7391304347826102,83.33333333333331,16.494845360824744,91.0394265232975,40.352,181.92,1.229
5.0,50.0,104.12642554578038,38.60526315789474,64.89252073102006,66.08695652173914,66.66666666666666,19.587628865979386,0.35842293906810035,44.086,8.159,2.32
5.0,53.166666666666664,93.445421961551,49.90789473684211,56.49062072296916,66.08695652173914,66.66666666666666,19.587628865979386,-82.43727598566308,34.986,42.151,1.838
5.0,63.33333333333333,75.89638318670578,72.49473684210527,46.51557845584092,72.17391304347827,66.66666666666666,36.08247422680413,4.301075268817205,33.634,45.538,4.779
5.0,66.66666666666666,69.16715542521995,66.8842105263158,44.39175589727075,76.52173913043478,49.99999999999999,48.453608247422686,8.960573476702509,51.592,46.994,33.088
5.0,69.5,68.9957640925383,64.63947368421053,48.31978101602126,76.52173913043478,49.99999999999999,48.453608247422686,-82.43727598566308,28.927,31.99,41.544
5.0,80.83333333333333,53.53274682306941,34.04210526315789,49.58859995169471,85.21739130434783,8.333333333333325,64.94845360824742,16.609318996415762,57.383,1.507,33.088
5.0,83.33333333333334,75.68067774519388,32.21578947368421,80.85983415183962,84.34782608695653,24.999999999999993,74.22680412371135,31.182795698924732,80.58,40.877,40.63
5.0,86.16666666666667,92.65754317367221,30.50263157894737,105.7072699460591,84.34782608695653,24.999999999999993,74.22680412371135,-82.43727598566308,44.839,38.93,47.415
5.0,96.66666666666667,83.77256435320952,37.147368421052626,101.44513324209001,82.6086956521739,33.33333333333333,81.44329896907217,40.7383512544803,27.088,33.446,51.103
5.0,100.0,64.33756924079506,34.768421052631574,76.6242653570566,84.34782608695653,24.999999999999993,74.22680412371135,31.182795698924732,39.018,4.894,52.574
5.0,102.83333333333333,71.44672531769307,34.607894736842105,85.89727075114726,84.34782608695653,24.999999999999993,74.22680412371135,-82.43727598566308,52.027,13.257,51.415
5.0,113.99999999999999,73.78103616813296,28.457894736842103,88.82537637871347,90.43478260869566,24.999999999999993,79.38144329896907,34.88888888888888,50.09,31.224,50.368
5.0,0.0,78.22352557836429,40.36315789473684,27.876177441429835,80.8695652173913,33.33333333333333,87.62886597938146,51.61290322580645,41.42,60.088,100.121
5.0,16.666666666666664,74.8849788204627,42.86052631578947,22.890266484180017,66.08695652173914,49.99999999999999,97.9381443298969,99.6415770609319,41.39,10.239,87.822
5.0,33.33333333333333,70.51287064190291,30.715789473684215,-10.741486192738103,1.7391304347826102,91.66666666666666,21.64948453608248,88.88888888888889,37.985,186.537,0.449
5.0,50.0,104.9286412512219,38.60526315789474,65.88358425247564,66.08695652173914,66.66666666666666,19.587628865979386,-0.35842293906810035,29.265,9.036,2.608
5.0,53.166666666666664,93.67872271098078,49.90789473684211,56.77884228323001,66.08695652173914,66.66666666666666,19.587628865979386,-82.43727598566308,37.263,35.77,2.607
5.0,63.33333333333333,75.86184424894103,73.78421052631579,46.4729087835118,71.30434782608695,66.66666666666666,37.11340206185568,5.017921146953405,35.976,45.538,4.779
5.0,66.66666666666666,70.28478331704139,66.8842105263158,45.431124708155544,76.52173913043478,41.66666666666666,48.453608247422686,8.60215053763441,48.883,47.746,33.088
5.0,69.5,68.97751710654937,64.63947368421053,48.297238547620964,76.52173913043478,41.66666666666666,48.453608247422686,-82.43727598566308,26.246,31.99,41.544
5.0,79.33333333333333,53.45780384490063,36.955263157894734,46.97850414620401,85.21739130434783,0.0,64.94845360824742,16.630824372759847,41.527,1.507,33.088
5.0,83.33333333333334,79.79146301726946,30.150000000000006,85.93833024716206,86.08695652173914,24.999999999999993,73.1958762886598,29.749103942652326,98.284,50.787,37.388
5.0,86.50000000000001,98.55392636037797,28.389473684210525,113.4014974639723,86.08695652173914,24.999999999999993,73.1958762886598,-82.43727598566308,56.051,18.997,46.279
5.0,96.33333333333334,93.21277289019226,27.29736842105264,113.09556396425408,91.30434782608697,24.999999999999993,78.35051546391753,34.845878136200724,58.728,41.903,51.103
5.0,100.0,87.08699902248289,32.70263157894737,105.38201433056919,86.08695652173914,24.999999999999993,73.1958762886598,29.749103942652326,47.228,4.894,53.619
5.0,102.83333333333333,81.14499837080483,32.54210526315789,97.8785927059013,86.08695652173914,24.999999999999993,73.1958762886598,-82.43727598566308,17.58,80.291,49.459
5.0,113.16666666666666,64.5226458129684,48.49210526315789,77.35609049190886,72.17391304347827,41.66666666666666,80.41237113402063,48.10752688172044,31.752,31.648,50.368
5.0,0.0,78.06581948517433,40.36315789473684,27.689396988970287,80.8695652173913,33.33333333333333,87.62886597938146,51.61290322580645,41.432,60.908,100.161
5.0,16.666666666666664,76.83936135549038,41.142105263157895,25.311971660896877,67.82608695652173,49.99999999999999,97.9381443298969,99.6415770609319,41.382,10.594,89.913
5.0,33.33333333333333,73.20299771912676,33.71052631578947,-7.418082280009659,1.7391304347826102,83.33333333333331,17.525773195876294,90.32258064516128,39.078,186.723,0.876
5.0,50.0,107.5542521994135,38.60526315789474,69.12728443764593,66.08695652173914,66.66666666666666,19.587628865979386,0.0,35.656,6.73,2.732
5.0,52.83333333333333,97.52362333007495,48.59210526315789,61.12551324370019,66.08695652173914,66.66666666666666,19.587628865979386,-82.43727598566308,35.416,36.559,2.607
5.0,63.33333333333333,82.42619745845553,73.78421052631579,54.58256179051606,71.30434782608695,66.66666666666666,37.11340206185568,5.017921146953405,29.805,45.538,4.779
5.0,66.66666666666666,67.34310850439883,66.8842105263158,85.27332742935351,76.52173913043478,49.99999999999999,48.453608247422686,8.60215053763441,57.891,47.746,33.088
5.0,69.83333333333334,91.85402411208862,64.27368421052631,77.1612591578778,76.52173913043478,49.99999999999999,48.453608247422686,-82.43727598566308,30.635,31.99,41.544
5.0,79.83333333333333,72.08406647116325,35.944736842105264,70.8413171242251,85.21739130434783,0.0,64.94845360824742,16.641577060931905,58.443,1.507,33.088
5.0,83.33333333333334,70.02541544477029,32.12894736842105,106.53812092424121,84.34782608695653,24.999999999999993,73.1958762886598,30.107526881720432,83.792,39.143,38.078
5.0,86.50000000000001,93.24796350602803,30.36842105263158,106.84646968843087,84.34782608695653,24.999999999999993,73.1958762886598,-82.43727598566308,61.192,20.566,49.598
5.0,96.33333333333334,85.72499185402411,31.210526315789473,103.84510103856373,87.82608695652175,24.999999999999993,79.38144329896907,35.5483870967742,48.275,38.903,51.103
5.0,100.0,78.64776800260672,34.68157894736842,94.95612269543516,84.34782608695653,24.999999999999993,73.1958762886598,30.107526881720432,40.895,4.894,49.74
5.0,103.16666666666667,74.24372759856631,34.51052631578948,89.33902262297721,84.34782608695653,24.999999999999993,73.1958762886598,-82.43727598566308,23.879,65.944,50.776
5.0,113.5,66.099055066797,46.59473684210526,79.31567506641977,73.91304347826087,41.66666666666666,80.41237113402063,45.33691756272402,46.923,36.505,50.368
5.0,0.0,77.94200065167807,40.36315789473684,27.53079462201112,80.8695652173913,33.33333333333333,87.62886597938146,51.971326164874554,41.44,62.771,100.779
5.0,16.666666666666664,76.6594982078853,42.86052631578947,25.09057241767974,66.08695652173914,49.99999999999999,97.9381443298969,100.0,41.44,9.622,88.807
5.0,33.33333333333333,76.33691756272401,35.38421052631579,-4.043957813380562,0.8695652173913051,83.33333333333331,16.494845360824744,90.32258064516128,40.132,178.202,0.826
5.0,50.0,104.36168132942328,38.60526315789474,63.76539731100556,66.08695652173914,66.66666666666666,19.587628865979386,0.7168458781362007,40.98,7.157,2.573
5.0,52.83333333333333,92.51156728576085,48.59210526315789,54.93358022703486,66.08695652173914,66.66666666666666,19.587628865979386,-82.43727598566308,37.435,36.281,3.246
5.0,64.66666666666666,72.44183773216032,75.9157894736842,44.311247081555436,70.43478260869566,66.66666666666666,37.11340206185568,5.376344086021505,27.845,45.538,4.779
5.0,66.66666666666666,71.6337569240795,66.8842105263158,47.2659206183077,76.52173913043478,33.33333333333333,48.453608247422686,8.60215053763441,47.896,47.746,33.088
5.0,69.5,70.74226132290649,64.63947368421053,50.47741727719186,76.52173913043478,33.33333333333333,48.453608247422686,-82.43727598566308,25.946,31.99,41.544
5.0,79.5,55.9719778429456,35.57105263157895,50.37034055229047,86.08695652173914,0.0,64.94845360824742,16.422939068100355,45.269,1.507,33.088
5.0,83.33333333333334,92.70576735092865,31.13947368421053,101.8927622574672,85.21739130434783,24.999999999999993,73.1958762886598,30.107526881720432,89.816,42.008,42.332
5.0,86.50000000000001,93.01010101010101,29.378947368421056,106.55261251106998,85.21739130434783,24.999999999999993,73.1958762886598,-82.43727598566308,65.751,17.934,49.788
5.0,96.16666666666666,89.41674812642556,29.263157894736846,108.3962643909508,89.56521739130436,24.999999999999993,79.38144329896907,34.931899641577054,62.555,42.808,51.103
5.0,100.0,82.5526230042359,33.6921052631579,99.78021093309718,85.21739130434783,24.999999999999993,73.1958762886598,30.107526881720432,22.701,4.894,54.945
5.0,103.16666666666667,69.35940045617465,33.52105263157895,83.30488688511392,85.21739130434783,24.999999999999993,73.1958762886598,-82.43727598566308,26.596,48.762,51.439
5.0,113.00000000000001,72.18768328445748,38.955263157894734,86.81990177924483,80.8695652173913,33.33333333333333,80.41237113402063,41.77060931899642,47.766,33.406,50.368
5.0,0.0,77.94525904203324,40.36315789473684,27.541260768054105,80.8695652173913,33.33333333333333,87.62886597938146,51.61290322580645,41.46,61.707,100.234
5.0,16.666666666666664,77.00944933202999,41.142105263157895,25.471379116013203,67.82608695652173,58.33333333333333,97.9381443298969,99.6415770609319,41.335,10.496,89.933
5.0,33.33333333333333,78.55848810687522,32.349999999999994,-1.8645841719668206,0.8695652173913051,91.66666666666666,20.618556701030936,90.32258064516128,39.175,183.61,1.117
5.0,50.0,102.43141088302379,40.11578947368421,63.00136864986716,65.21739130434784,66.66666666666666,19.587628865979386,0.7168458781362007,50.592,10.892,1.824
5.0,52.83333333333333,92.74356467904855,50.10526315789473,55.220191610981395,65.21739130434784,66.66666666666666,19.587628865979386,-82.43727598566308,36.101,42.151,1.838
5.0,63.5,75.4434669273379,71.35263157894737,46.207229691651236,73.04347826086956,66.66666666666666,36.08247422680413,4.301075268817205,37.683,45.538,4.779
5.0,66.66666666666666,77.81687846203975,65.74473684210527,54.246034940826014,77.3913043478261,41.66666666666666,49.484536082474236,6.810035842293908,75.794,50.754,33.088
5.0,69.83333333333334,72.54349951124145,63.13421052631579,53.30488688511392,77.3913043478261,41.66666666666666,49.484536082474236,-82.43727598566308,20.562,31.99,41.544
5.0,80.0,55.64809384164223,35.61578947368421,50.8171644795105,85.21739130434783,0.0,64.94845360824742,14.84587813620072,50.967,1.507,33.088
5.0,83.33333333333334,80.9345063538612,34.113157894736844,87.35045487480879,82.6086956521739,24.999999999999993,73.1958762886598,30.824372759856633,93.575,48.081,36.608
5.0,86.50000000000001,83.56533072662106,32.35526315789474,94.88446984944852,82.6086956521739,24.999999999999993,73.1958762886598,-82.43727598566308,67.366,22.855,50.713
5.0,97.83333333333334,83.1404366243076,32.310526315789474,100.65131631913695,86.95652173913044,33.33333333333333,78.35051546391753,36.58781362007168,52.25,39.113,51.103
5.0,100.0,82.91691104594331,36.665789473684214,100.39127284437646,82.6086956521739,24.999999999999993,73.1958762886598,30.824372759856633,32.889,4.894,53.55
5.0,102.83333333333333,79.7067448680352,36.507894736842104,96.10176314306416,82.6086956521739,24.999999999999993,73.1958762886598,-82.43727598566308,19.212,77.202,50.83
5.0,113.00000000000001,66.33691756272401,50.39473684210526,79.59182030432332,70.43478260869566,41.66666666666666,80.41237113402063,48.136200716845885,34.809,31.766,50.368
5.0,0.0,77.97914630172696,40.36315789473684,27.591981321954755,80.8695652173913,33.33333333333333,87.62886597938146,51.971326164874554,41.447,62.652,100.784
5.0,16.666666666666664,76.63668947539915,42.86052631578947,25.06400450849368,66.08695652173914,58.33333333333333,97.9381443298969,100.0,41.455,9.639,88.808
5.0,33.33333333333333,81.46757901596612,33.09473684210526,2.3830609451735025,0.8695652173913051,91.66666666666666,19.587628865979386,89.96415770609319,38.808,177.751,1.056
5.0,50.0,102.39231019876183,38.60526315789474,62.75018114483536,66.08695652173914,66.66666666666666,19.587628865979386,0.0,47.368,9.443,2.114
5.0,52.83333333333333,91.55751058976867,48.59210526315789,53.754931164962564,66.08695652173914,66.66666666666666,19.587628865979386,-82.43727598566308,36.398,36.02,3.058
5.0,63.83333333333333,73.2036493971978,74.22894736842105,43.948957410836485,71.30434782608695,66.66666666666666,37.11340206185568,5.376344086021505,35.468,45.538,4.779
5.0,66.66666666666666,70.81199087650701,66.8842105263158,45.59214233958618,76.52173913043478,33.33333333333333,48.453608247422686,8.60215053763441,82.76,47.746,33.088
5.0,69.33333333333334,69.86770935158033,64.81578947368422,49.09749617583125,76.52173913043478,33.33333333333333,48.453608247422686,-82.43727598566308,25.698,31.99,41.544
5.0,79.5,53.56337569240795,36.71578947368421,47.39473472345222,85.21739130434783,0.0,65.97938144329896,16.422939068100355,42.422,1.507,33.088
5.0,83.33333333333334,101.55685891169763,31.13947368421053,112.82746960792207,85.21739130434783,24.999999999999993,73.1958762886598,29.39068100358423,88.888,40.528,44.558
5.0,86.50000000000001,98.93971977842946,29.378947368421056,113.878109653007,85.21739130434783,24.999999999999993,73.1958762886598,-82.43727598566308,58.855,19.062,47.224
5.0,97.00000000000001,94.26197458455525,29.3578947368421,114.40785766041381,89.56521739130436,24.999999999999993,78.35051546391753,34.32974910394264,62.21,42.767,51.103
5.0,100.0,87.32420984033887,33.6921052631579,102.76708799613556,85.21739130434783,24.999999999999993,73.1958762886598,29.39068100358423,18.877,4.894,56.383
5.0,103.16666666666667,77.23688497882047,33.52105263157895,93.0367925287819,85.21739130434783,24.999999999999993,73.1958762886598,-82.43727598566308,23.099,69.948,50.208
5.0,113.16666666666666,63.7640925382861,47.539473684210535,76.41896787698252,73.04347826086956,41.66666666666666,80.41237113402063,46.01075268817205,37.825,33.707,50.368
5.0,0.0,77.85076572173347,40.36315789473684,27.415667015538208,80.8695652173913,33.33333333333333,87.62886597938146,51.61290322580645,41.377,61.443,100.086
5.0,16.666666666666664,76.82046269143044,42.00263157894737,25.261251106996223,66.95652173913042,49.99999999999999,97.9381443298969,99.6415770609319,41.4,10.008,89.156
5.0,33.33333333333333,78.55848810687522,34.613157894736844,-0.9025038241687424,0.8695652173913051,91.66666666666666,17.525773195876294,89.6057347670251,40.405,175.624,0.944
5.0,50.0,105.16911045943304,38.60526315789474,66.18066178246518,66.08695652173914,66.66666666666666,19.587628865979386,0.0,30.412,8.484,2.629
5.0,52.83333333333333,94.39687194525905,48.59210526315789,57.262700265679086,66.08695652173914,66.66666666666666,19.587628865979386,-82.43727598566308,34.501,42.151,1.838
5.0,62.5,78.40729879439557,71.35789473684211,48.389823685693585,72.17391304347827,66.66666666666666,36.08247422680413,4.301075268817205,31.884,45.538,4.779
5.0,66.66666666666666,72.0495275333985,66.8842105263158,47.12100475002013,76.52173913043478,41.66666666666666,48.453608247422686,8.960573476702509,50.435,46.994,33.088
5.0,69.83333333333334,68.99706744868035,64.27368421052631,48.92359713388616,76.52173913043478,41.66666666666666,48.453608247422686,-82.43727598566308,25.151,31.99,41.544
5.0,81.33333333333333,52.358422939068106,33.16842105263157,48.95097013122937,85.21739130434783,8.333333333333325,64.94845360824742,16.95340501792115,52.574,1.507,33.088
5.0,83.33333333333334,75.82926034538939,34.18684210526315,109.77699058046856,82.6086956521739,24.999999999999993,74.22680412371135,31.182795698924732,52.912,22.435,50.552
5.0,86.16666666666667,93.70022808732487,32.47631578947369,106.99541099750422,82.6086956521739,24.999999999999993,74.22680412371135,-82.43727598566308,42.054,41.629,47.256
5.0,95.83333333333334,82.8256761159987,38.78157894736842,100.22783994847435,80.8695652173913,33.33333333333333,81.44329896907217,41.31182795698925,29.427,32.383,51.103
5.0,100.0,64.96252851091562,36.73947368421053,77.05659769744787,82.6086956521739,24.999999999999993,74.22680412371135,31.182795698924732,42.997,4.894,52.574
5.0,103.16666666666667,72.31019876181168,36.568421052631585,86.95032606070365,82.6086956521739,24.999999999999993,74.22680412371135,-82.43727598566308,54.184,12.068,50.825
5.0,115.00000000000001,73.69957640925384,29.315789473684212,88.76579985508413,89.56521739130436,24.999999999999993,78.35051546391753,34.641577060931894,45.419,35.539,50.368
5.0,0.0,77.96546106223526,40.36315789473684,27.566218500925853,80.8695652173913,33.33333333333333,87.62886597938146,51.61290322580645,41.467,61.673,100.244
5.0,16.666666666666664,76.78918214402086,42.00263157894737,25.241123903067386,66.95652173913042,49.99999999999999,97.9381443298969,99.2831541218638,41.405,9.944,88.689
5.0,33.33333333333333,75.52688172043011,32.800000000000004,-4.663070606231384,2.6086956521739153,83.33333333333331,17.525773195876294,89.24731182795699,40.045,180.112,0.752
5.0,50.0,105.0550667970023,38.60526315789474,65.0583688913936,66.08695652173914,66.66666666666666,19.587628865979386,0.0,48.073,8.969,2.16
5.0,53.166666666666664,92.84196806777453,49.90789473684211,55.7451090894453,66.08695652173914,66.66666666666666,19.587628865979386,-82.43727598566308,35.758,42.151,1.838
5.0,62.83333333333333,77.17758227435647,70.56052631578949,47.355285403751715,73.04347826086956,66.66666666666666,37.11340206185568,4.301075268817205,39.13,45.538,4.779
5.0,66.66666666666666,72.0514825676116,68.07105263157895,47.123420014491586,75.65217391304348,49.99999999999999,48.453608247422686,8.960573476702509,76.899,46.994,33.088
5.0,69.5,70.28608667318346,65.82631578947368,49.913855567184605,75.65217391304348,49.99999999999999,48.453608247422686,-82.43727598566308,26.413,31.99,41.544
5.0,79.83333333333333,54.7168458781362,36.98947368421053,49.385717736092104,84.34782608695653,8.333333333333325,64.94845360824742,17.078853046594975,52.399,1.507,33.088
5.0,83.33333333333334,98.14011078527209,30.247368421052627,108.60639239996779,86.08695652173914,24.999999999999993,74.22680412371135,30.46594982078853,58.835,25.297,55.66
5.0,86.50000000000001,93.58292603453894,28.486842105263154,107.26028500120763,86.08695652173914,24.999999999999993,74.22680412371135,-82.43727598566308,45.489,40.901,46.499
5.0,97.33333333333333,84.68426197458456,37.2,102.57306175026166,82.6086956521739,33.33333333333333,80.41237113402063,40.17921146953406,36.718,34.53,51.103
5.0,100.0,78.21114369501467,32.800000000000004,94.4167136301425,86.08695652173914,24.999999999999993,74.22680412371135,30.46594982078853,36.391,4.894,50.302
5.0,102.83333333333333,70.12707722385142,32.63947368421053,84.26696723291201,86.08695652173914,24.999999999999993,74.22680412371135,-82.43727598566308,42.894,20.4,53.183
5.0,113.5,71.03616813294232,30.336842105263155,85.41502294501248,88.69565217391305,24.999999999999993,79.38144329896907,35.7347670250896,52.889,25.541,50.368
5.0,0.0,78.08732486151841,40.36315789473684,27.71274454552774,80.8695652173913,33.33333333333333,87.62886597938146,51.971326164874554,41.46,62.212,100.779
5.0,16.666666666666664,76.70250896057348,42.86052631578947,25.1050640045085,66.08695652173914,49.99999999999999,97.9381443298969,100.0,41.425,9.595,88.812
5.0,33.33333333333333,69.31443466927338,32.800000000000004,-12.506239433217942,2.6086956521739153,83.33333333333331,17.525773195876294,89.96415770609319,40.237,185.355,0.643
5.0,50.0,101.85467579015966,38.60526315789474,61.27525964093069,66.08695652173914,66.66666666666666,19.587628865979386,-0.35842293906810035,49.023,10.13,2.064
5.0,53.166666666666664,91.2218963831867,49.90789473684211,53.74365993076241,66.08695652173914,66.66666666666666,19.587628865979386,-82.43727598566308,36.391,36.271,2.402
5.0,63.0,77.33919843597265,73.41052631578947,47.80049915465743,71.30434782608695,66.66666666666666,36.08247422680413,4.659498207885305,27.748,45.538,4.779
5.0,66.66666666666666,72.11730205278593,66.8842105263158,47.25625956042187,76.52173913043478,41.66666666666666,48.453608247422686,8.60215053763441,46.178,47.746,33.088
5.0,69.5,69.88139459107202,64.63947368421053,49.41389582159246,76.52173913043478,41.66666666666666,48.453608247422686,-82.43727598566308,22.549,31.99,41.544
5.0,79.33333333333333,54.713587487781034,36.955263157894734,48.52990902503824,85.21739130434783,0.0,64.94845360824742,16.641577060931905,42.424,1.507,33.088
5.0,83.33333333333334,83.66959921798632,30.150000000000006,90.7294098703808,86.08695652173914,16.666666666666664,73.1958762886598,29.749103942652326,103.355,52.329,37.057
5.0,86.50000000000001,96.33170413815576,28.389473684210525,110.65614684807986,86.08695652173914,16.666666666666664,73.1958762886598,-82.43727598566308,49.63,32.478,46.3
5.0,96.0,90.29846855653307,33.09473684210526,109.47427743337896,86.08695652173914,33.33333333333333,80.41237113402063,37.92114695340502,51.157,37.135,51.103
5.0,100.0,82.07168458781362,32.70263157894737,97.17172530392078,86.08695652173914,16.666666666666664,73.1958762886598,29.749103942652326,27.043,4.894,53.194
5.0,102.83333333333333,65.66699250570218,32.54210526315789,78.75694388535544,86.08695652173914,16.666666666666664,73.1958762886598,-82.43727598566308,35.708,25.297,53.682
5.0,112.5,-164.29912023460415,31.255263157894735,-205.35464133322597,87.82608695652175,24.999999999999993,79.38144329896907,36.23655913978495,40.077,1026.588,50.368
Periode(s),Step,error pitch,error com,Pitch Angle,CoMx(m),CoMy(m),CoMz(m),Left Ankle Angle Now,Omega (theta/s),Left Ankle Speed(rpm),Goal
5.0,0.0,77.97979797979798,40.36315789473684,27.57990499959746,80.8695652173913,33.33333333333333,87.62886597938146,51.61290322580645,41.463,61.561,100.231
5.0,16.666666666666664,77.26034538937765,42.00263157894737,25.836084051203613,66.95652173913042,58.33333333333333,97.9381443298969,99.6415770609319,41.435,9.836,89.281
5.0,33.33333333333333,77.82209188660802,33.71052631578947,-1.711617422107713,1.7391304347826102,83.33333333333331,17.525773195876294,89.6057347670251,36.816,179.167,0.629
5.0,50.0,104.23199739328774,38.60526315789474,65.02294501247887,66.08695652173914,66.66666666666666,19.587628865979386,-0.35842293906810035,39.373,7.793,2.496
5.0,53.166666666666664,93.62202671880092,49.90789473684211,56.70879961355768,66.08695652173914,66.66666666666666,19.587628865979386,-82.43727598566308,36.169,42.151,1.838
5.0,62.66666666666666,78.65689149560117,70.31315789473685,48.939698897029224,73.04347826086956,66.66666666666666,36.08247422680413,4.301075268817205,38.886,45.538,4.779
5.0,66.66666666666666,74.99185402411209,66.8842105263158,50.75597777956686,76.52173913043478,49.99999999999999,48.453608247422686,8.60215053763441,45.434,47.746,33.088
5.0,69.5,71.05637015314436,64.63947368421053,50.8654697689397,76.52173913043478,49.99999999999999,48.453608247422686,-82.43727598566308,20.505,31.99,41.544
5.0,79.33333333333333,54.17790811339198,38.0,47.86812655985831,84.34782608695653,8.333333333333325,64.94845360824742,16.623655913978492,40.818,1.507,33.088
5.0,83.33333333333334,87.59270120560444,31.13947368421053,97.02761452379035,85.21739130434783,24.999999999999993,73.1958762886598,29.39068100358423,63.075,25.822,52.264
5.0,86.50000000000001,87.24014336917564,29.378947368421056,99.42436196763545,85.21739130434783,24.999999999999993,73.1958762886598,-82.43727598566308,50.408,28.03,50.686
5.0,96.83333333333334,83.46562398175303,32.189473684210526,101.06915707269945,86.95652173913044,33.33333333333333,78.35051546391753,36.30465949820789,39.833,38.069,51.103
5.0,100.0,78.43010752688173,33.6921052631579,94.68722325094598,85.21739130434783,24.999999999999993,73.1958762886598,29.39068100358423,22.845,4.894,52.55
5.0,103.16666666666667,74.30563701531445,33.52105263157895,89.41550599790676,85.21739130434783,24.999999999999993,73.1958762886598,-82.43727598566308,27.289,58.384,50.99
5.0,113.16666666666666,67.73541870316065,41.81578947368421,81.32517510667418,78.26086956521739,41.66666666666666,80.41237113402063,42.68458781362006,39.196,37.663,50.368
5.0,0.0,78.04431410883025,41.27368421052631,27.66121890346993,80.0,41.66666666666666,87.62886597938146,51.61290322580645,41.455,59.292,99.082
5.0,16.666666666666664,77.13391984359727,40.28157894736842,25.66862571451575,68.69565217391305,58.33333333333333,97.9381443298969,98.56630824372759,42.008,11.892,89.774
5.0,33.33333333333333,80.01107852720757,35.26052631578948,0.6319942033652772,1.7391304347826102,83.33333333333331,15.463917525773196,90.32258064516128,40.293,175.214,1.156
5.0,50.0,106.1303356142066,40.11578947368421,66.80460510425891,65.21739130434784,66.66666666666666,19.587628865979386,0.0,47.996,9.992,1.919
5.0,53.166666666666664,93.88074291300099,51.421052631578945,57.02841961194751,65.21739130434784,66.66666666666666,19.587628865979386,-82.43727598566308,37.704,35.692,1.957
5.0,63.5,77.14369501466277,72.66315789473686,48.30770469366396,72.17391304347827,66.66666666666666,36.08247422680413,4.301075268817205,39.106,45.538,4.779
5.0,66.66666666666666,74.94884327142393,66.92105263157895,50.70284196119476,76.52173913043478,41.66666666666666,49.484536082474236,6.810035842293908,37.864,50.754,33.088
5.0,69.83333333333334,68.9742587161942,64.31052631578949,48.8954190483858,76.52173913043478,41.66666666666666,49.484536082474236,-82.43727598566308,15.559,31.99,41.544
5.0,79.66666666666667,52.91104594330401,36.276315789473685,46.872232509459785,85.21739130434783,0.0,64.94845360824742,14.838709677419345,38.464,1.507,33.088
5.0,83.33333333333334,86.43988269794721,32.12894736842105,94.15183962643908,84.34782608695653,24.999999999999993,73.1958762886598,29.749103942652326,93.873,42.554,37.82
5.0,86.16666666666667,85.98305637015315,30.418421052631583,97.46155704049593,84.34782608695653,24.999999999999993,73.1958762886598,-82.43727598566308,51.013,25.934,51.128
5.0,96.33333333333334,82.35581622678397,32.06315789473685,99.68279526608164,86.95652173913044,33.33333333333333,78.35051546391753,36.36559139784946,58.459,39.607,51.103
5.0,100.0,78.07559465623982,34.68157894736842,94.24925529345464,84.34782608695653,24.999999999999993,73.1958762886598,29.749103942652326,37.486,4.894,49.594
5.0,102.83333333333333,73.22385141739981,34.52368421052632,88.09274615570405,84.34782608695653,24.999999999999993,73.1958762886598,-82.43727598566308,31.38,46.581,51.932
5.0,112.83333333333331,74.41772564353211,38.89473684210526,89.56927783592303,80.8695652173913,33.33333333333333,79.38144329896907,40.6989247311828,48.424,34.202,50.368
5.0,0.0,77.88009123492995,40.36315789473684,27.456726511553015,80.8695652173913,41.66666666666666,87.62886597938146,51.61290322580645,41.463,62.073,100.26
5.0,16.666666666666664,76.97034864776802,42.00263157894737,25.44883664761291,66.95652173913042,49.99999999999999,97.9381443298969,99.6415770609319,41.388,9.934,89.188
5.0,33.33333333333333,77.59335288367546,33.71052631578947,-1.9942033652684883,1.7391304347826102,83.33333333333331,17.525773195876294,89.6057347670251,41.105,180.65,1.018
5.0,50.0,101.67090257412839,38.60526315789474,61.85894855486676,66.08695652173914,66.66666666666666,19.587628865979386,0.0,40.173,7.868,2.419
5.0,52.83333333333333,91.66503747148909,48.59210526315789,53.88777071089284,66.08695652173914,66.66666666666666,19.587628865979386,-82.43727598566308,36.819,36.213,3.114
5.0,63.33333333333333,74.69729553600523,75.08157894736843,45.03421624667901,70.43478260869566,66.66666666666666,37.11340206185568,5.376344086021505,32.572,45.538,4.779
5.0,66.66666666666666,103.70218312153796,65.74473684210527,86.2249416311086,77.3913043478261,33.33333333333333,49.484536082474236,8.60215053763441,55.462,47.746,33.088
5.0,69.83333333333334,84.8054740957967,63.13421052631579,68.45342565010868,77.3913043478261,33.33333333333333,49.484536082474236,-82.43727598566308,28.126,31.99,41.544
5.0,79.66666666666667,64.77354187031607,36.276315789473685,61.527252234119636,85.21739130434783,0.0,64.94845360824742,16.422939068100355,45.494,1.507,33.088
5.0,83.33333333333334,74.0710329097426,30.150000000000006,78.8712664036712,86.08695652173914,16.666666666666664,73.1958762886598,29.749103942652326,96.877,47.905,38.441
5.0,86.16666666666667,86.13098729227762,28.439473684210526,97.64431205216971,86.08695652173914,16.666666666666664,73.1958762886598,-82.43727598566308,74.15,22.801,48.264
5.0,96.66666666666667,84.25285109156077,30.350000000000005,102.03848321391192,88.69565217391305,24.999999999999993,79.38144329896907,35.51254480286738,57.609,41.128,51.103
5.0,100.0,79.84229390681004,32.70263157894737,96.43184928749699,86.08695652173914,16.666666666666664,73.1958762886598,29.749103942652326,20.385,4.894,53.73
5.0,103.16666666666667,72.91169762137504,32.53157894736842,87.69342242975607,86.08695652173914,16.666666666666664,73.1958762886598,-82.43727598566308,17.903,74.361,49.837
5.0,113.16666666666666,66.78918214402086,47.539473684210535,80.15618710248773,73.04347826086956,41.66666666666666,80.41237113402063,46.788530465949826,28.891,33.629,50.368
5.0,0.0,78.07624633431087,41.27368421052631,27.69905804685613,80.0,41.66666666666666,87.62886597938146,51.61290322580645,41.483,59.37,99.128
5.0,16.666666666666664,77.21081785597916,40.28157894736842,25.763626117059818,68.69565217391305,49.99999999999999,97.9381443298969,98.56630824372759,41.228,10.899,89.393
5.0,33.33333333333333,69.960247637667,32.800000000000004,-11.550599790677074,2.6086956521739153,83.33333333333331,17.525773195876294,89.96415770609319,41.353,184.308,0.708
5.0,50.0,102.6810035842294,38.60526315789474,63.10683519845423,66.08695652173914,66.66666666666666,19.587628865979386,-0.35842293906810035,38.631,7.861,2.437
5.0,53.166666666666664,91.91397849462366,49.90789473684211,54.59866355365913,66.08695652173914,66.66666666666666,19.587628865979386,-82.43727598566308,35.687,42.151,1.838
5.0,63.0,76.3069403714565,70.78684210526316,46.52523951372676,73.04347826086956,66.66666666666666,36.08247422680413,4.301075268817205,36.851,45.538,4.779
5.0,66.66666666666666,72.99706744868035,66.8842105263158,48.291602930520895,76.52173913043478,41.66666666666666,48.453608247422686,8.60215053763441,40.241,47.746,33.088
5.0,69.5,68.83414793092213,64.63947368421053,48.120119153047256,76.52173913043478,41.66666666666666,48.453608247422686,-82.43727598566308,20.55,31.99,41.544
5.0,79.16666666666666,54.33300749429782,37.3,47.77393124547138,85.21739130434783,8.333333333333325,64.94845360824742,16.537634408602145,54.857,1.507,33.088
5.0,83.33333333333334,79.75953079178886,31.13947368421053,-205.95121165767648,85.21739130434783,24.999999999999993,73.1958762886598,29.39068100358423,31.66,23.37,49.567
5.0,86.50000000000001,85.58422939068102,29.378947368421056,97.37863296030915,85.21739130434783,24.999999999999993,73.1958762886598,-82.43727598566308,56.969,23.031,51.432
5.0,97.33333333333333,85.6969696969697,30.36052631578947,103.82416874647772,88.69565217391305,24.999999999999993,78.35051546391753,35.236559139784944,65.377,45.9,51.103
5.0,100.0,84.07820136852395,33.6921052631579,101.66492230899283,85.21739130434783,24.999999999999993,73.1958762886598,29.39068100358423,22.737,4.894,54.917
5.0,103.16666666666667,81.1899641577061,33.52105263157895,97.92045729007326,85.21739130434783,24.999999999999993,73.1958762886598,-82.43727598566308,-3.979,99.617,51.361
5.0,112.83333333333331,71.22710980775497,58.007894736842104,85.62756621850093,63.47826086956522,41.66666666666666,80.41237113402063,52.32974910394266,5.374,14.076,50.368
5.0,0.0,78.0475724991854,41.27368421052631,27.667659608727153,80.0,41.66666666666666,87.62886597938146,51.61290322580645,41.488,59.529,99.142
5.0,16.666666666666664,76.53763440860216,40.28157894736842,24.921503904677557,68.69565217391305,58.33333333333333,97.9381443298969,98.56630824372759,41.398,11.262,89.248
5.0,33.33333333333333,78.74747474747474,33.71052631578947,-0.568392238950156,1.7391304347826102,83.33333333333331,17.525773195876294,89.96415770609319,39.178,178.273,0.922
5.0,50.0,105.10263929618769,40.11578947368421,65.13726753079463,65.21739130434784,66.66666666666666,19.587628865979386,0.0,45.429,9.768,2.01
5.0,52.83333333333333,92.67774519387423,50.10526315789473,55.138877707108925,65.21739130434784,66.66666666666666,19.587628865979386,-82.43727598566308,37.274,35.461,2.213
5.0,63.83333333333333,73.65395894428154,72.92894736842106,44.50527332742936,72.17391304347827,66.66666666666666,37.11340206185568,4.659498207885305,36.209,45.538,4.779
5.0,66.66666666666666,103.91854024112088,65.69736842105263,86.49223089928347,77.3913043478261,33.33333333333333,48.453608247422686,8.60215053763441,60.638,47.746,33.088
5.0,69.5,83.00684261974584,63.455263157894734,65.62917639481523,77.3913043478261,33.33333333333333,48.453608247422686,-82.43727598566308,22.64,31.99,41.544
5.0,79.33333333333333,64.46790485500163,36.955263157894734,60.58046856130746,85.21739130434783,8.333333333333325,64.94845360824742,16.20788530465951,41.153,1.507,33.088
5.0,83.33333333333334,104.71880091234931,31.047368421052628,116.73375734642943,85.21739130434783,24.999999999999993,72.16494845360825,29.749103942652326,84.493,36.315,47.047
5.0,86.50000000000001,99.0733137829912,29.286842105263155,114.04315272522342,85.21739130434783,24.999999999999993,72.16494845360825,-82.43727598566308,51.775,29.426,46.038
5.0,96.83333333333334,90.0814597588791,33.14473684210527,109.24241204411882,86.08695652173914,33.33333333333333,78.35051546391753,36.99283154121863,35.582,37.426,51.103
5.0,100.0,81.22319973932878,33.6,98.13783109250463,85.21739130434783,24.999999999999993,72.16494845360825,29.749103942652326,34.749,4.894,51.407
5.0,103.16666666666667,75.21537960247639,33.42894736842105,90.53940906529265,85.21739130434783,24.999999999999993,72.16494845360825,-82.43727598566308,24.277,66.435,50.661
5.0,113.00000000000001,-167.663734115347,45.623684210526314,-209.49440463730778,74.78260869565217,41.66666666666666,80.41237113402063,45.06093189964159,38.623,15.055,50.368
5.0,0.0,77.89638318670578,40.36315789473684,27.476853715481848,80.8695652173913,33.33333333333333,87.62886597938146,51.61290322580645,41.45,61.873,100.228
5.0,16.666666666666664,76.93385467579017,42.00263157894737,25.43756541341277,66.95652173913042,49.99999999999999,97.9381443298969,99.6415770609319,41.398,9.958,89.183
5.0,33.33333333333333,76.84261974584557,35.26052631578948,-3.6808630545044587,1.7391304347826102,83.33333333333331,15.463917525773196,89.6057347670251,40.333,174.486,0.721
5.0,50.0,102.54740957966766,38.60526315789474,62.94179212623783,66.08695652173914,66.66666666666666,19.587628865979386,-0.35842293906810035,41.713,8.4,2.381
5.0,53.166666666666664,92.58520690778757,49.90789473684211,55.427904355526934,66.08695652173914,66.66666666666666,19.587628865979386,-82.43727598566308,36.679,35.946,2.507
5.0,63.33333333333333,76.47768002606713,72.48421052631579,47.23371709202158,72.17391304347827,66.66666666666666,37.11340206185568,4.659498207885305,30.23,45.538,4.779
5.0,66.66666666666666,72.09449332029978,66.8842105263158,47.1765558328637,76.52173913043478,49.99999999999999,48.453608247422686,8.960573476702509,83.071,46.994,33.088
5.0,69.83333333333334,70.12838057999349,64.27368421052631,50.321230174704134,76.52173913043478,49.99999999999999,48.453608247422686,-82.43727598566308,28.941,31.99,41.544
5.0,80.5,54.374063212772896,35.699999999999996,50.07889863940102,84.34782608695653,8.333333333333325,64.94845360824742,16.781362007168457,50.876,1.507,33.088
5.0,83.33333333333334,99.81622678396873,32.12894736842105,110.67707914016584,84.34782608695653,24.999999999999993,73.1958762886598,30.46594982078853,81.583,36.711,46.527
5.0,86.16666666666667,97.03877484522647,30.418421052631583,111.1198776266001,84.34782608695653,24.999999999999993,73.1958762886598,-82.43727598566308,52.263,34.483,47.511
5.0,96.33333333333334,89.64679048550016,35.01578947368421,108.69012156831175,84.34782608695653,33.33333333333333,79.38144329896907,38.781362007168454,48.061,36.135,51.103
5.0,100.0,80.44248941023135,34.68157894736842,97.1733354802351,84.34782608695653,24.999999999999993,73.1958762886598,30.46594982078853,24.479,4.894,53.921
5.0,103.16666666666667,69.7406321277289,34.51052631578948,83.77586345704854,84.34782608695653,24.999999999999993,73.1958762886598,-82.43727598566308,43.65,18.418,53.067
5.0,112.66666666666667,73.06875203649398,29.25,87.89710973351582,89.56521739130436,24.999999999999993,78.35051546391753,35.362007168458796,53.697,25.595,50.368
5.0,0.0,78.09123492994462,42.10789473684211,27.717575074470663,79.1304347826087,41.66666666666666,85.56701030927837,51.61290322580645,41.428,57.25,97.983
5.0,16.666666666666664,76.99967416096449,38.57368421052632,25.50277755414218,70.43478260869566,49.99999999999999,96.90721649484536,97.4910394265233,41.37,12.887,89.675
5.0,33.33333333333333,72.24242424242424,33.71052631578947,-8.60478222365349,1.7391304347826102,83.33333333333331,17.525773195876294,90.32258064516128,40.86,185.727,0.731
5.0,50.0,105.19061583577714,38.60526315789474,66.00837291683439,66.08695652173914,66.66666666666666,19.587628865979386,0.0,48.596,8.996,2.159
5.0,53.166666666666664,93.97979797979798,49.90789473684211,57.150793011834786,66.08695652173914,66.66666666666666,19.587628865979386,-82.43727598566308,37.619,36.03,2.662
5.0,62.66666666666666,81.28380579993484,72.91052631578947,52.1850092585138,71.30434782608695,66.66666666666666,37.11340206185568,5.017921146953405,32.372,45.538,4.779
5.0,66.66666666666666,71.39002932551321,66.8842105263158,46.30625553498108,76.52173913043478,33.33333333333333,48.453608247422686,8.60215053763441,50.501,47.746,33.088
5.0,69.5,70.15379602476376,64.63947368421053,49.7504226712825,76.52173913043478,33.33333333333333,48.453608247422686,-82.43727598566308,28.103,31.99,41.544
5.0,79.33333333333333,54.99120234604106,36.955263157894734,48.87287657998551,85.21739130434783,0.0,64.94845360824742,16.620071684587813,42.278,1.507,33.088
5.0,83.33333333333334,81.9563375692408,34.113157894736844,88.61283310522502,82.6086956521739,24.999999999999993,73.1958762886598,30.46594982078853,96.395,48.908,36.01
5.0,86.16666666666667,84.75073313782993,32.40263157894737,95.93913533531922,82.6086956521739,24.999999999999993,73.1958762886598,-82.43727598566308,64.725,21.995,51.589
5.0,96.66666666666667,84.29781687846204,32.15,102.0940342967555,86.95652173913044,33.33333333333333,78.35051546391753,36.064516129032256,59.146,40.457,51.103
5.0,100.0,83.93157380254156,36.665789473684214,99.77940584494002,82.6086956521739,24.999999999999993,73.1958762886598,30.46594982078853,37.844,4.894,53.169
5.0,102.83333333333333,80.75985663082437,36.507894736842104,97.40278560502375,82.6086956521739,24.999999999999993,73.1958762886598,-82.43727598566308,18.983,77.954,50.656
5.0,113.99999999999999,67.34701857282502,52.33157894736842,80.87674100313984,68.69565217391305,41.66666666666666,80.41237113402063,48.87455197132617,33.04,30.997,50.368
Periode(s),Step,error pitch,error com,Pitch Angle,CoMx(m),CoMy(m),CoMz(m),Left Ankle Angle Now,Omega (theta/s),Left Ankle Speed(rpm),Goal
5.0,0.0,75.21863799283155,40.31315789473684,24.15908541985348,80.8695652173913,33.33333333333333,86.59793814432992,51.971326164874554,41.386,78.042,101.078
5.0,16.666666666666664,74.50309547083741,42.86052631578947,22.416874647773938,66.08695652173914,49.99999999999999,97.9381443298969,100.0,41.421,10.483,88.162
5.0,33.33333333333333,76.68882372108179,29.992105263157896,-3.351581998228803,1.7391304347826102,91.66666666666666,22.680412371134015,89.6057347670251,39.764,187.919,1.311
5.0,50.0,105.24600847181493,38.60526315789474,66.27566218500925,66.08695652173914,66.66666666666666,19.587628865979386,0.7168458781362007,42.976,7.431,2.461
5.0,53.166666666666664,93.98892147279244,49.90789473684211,57.16206424603494,66.08695652173914,66.66666666666666,19.587628865979386,-82.43727598566308,32.948,42.151,1.838
5.0,63.0,75.58357771260998,70.78684210526316,45.63159165928669,73.04347826086956,66.66666666666666,37.11340206185568,4.301075268817205,27.867,45.538,4.779
5.0,66.66666666666666,67.64092538286087,64.62368421052632,41.67458336687868,78.26086956521739,49.99999999999999,50.515463917525786,8.60215053763441,74.358,47.746,33.088
5.0,69.5,68.69664385793418,62.37894736842106,47.95024555188793,78.26086956521739,49.99999999999999,50.515463917525786,-82.43727598566308,39.874,31.99,41.544
5.0,79.5,54.285434995112425,35.678947368421056,48.28677240157797,86.08695652173914,0.0,65.97938144329896,16.623655913978492,46.285,1.507,33.088
5.0,83.33333333333334,101.41283805799934,31.13947368421053,112.64954512519121,85.21739130434783,24.999999999999993,73.1958762886598,29.749103942652326,82.401,36.417,46.679
5.0,86.16666666666667,98.59889214727926,29.428947368421056,113.04725867482487,85.21739130434783,24.999999999999993,73.1958762886598,-82.43727598566308,51.191,31.15,46.19
5.0,96.16666666666666,93.31638970348648,32.968421052631584,113.2139119233556,86.08695652173914,33.33333333333333,78.35051546391753,37.32258064516129,62.346,40.345,51.103
5.0,100.0,83.41088302378625,33.6921052631579,100.84051203606793,85.21739130434783,24.999999999999993,73.1958762886598,29.749103942652326,20.483,4.894,55.461
5.0,103.16666666666667,64.6080156402737,33.52105263157895,77.43498913130988,85.21739130434783,24.999999999999993,73.1958762886598,-82.43727598566308,21.908,49.528,50.635
5.0,114.16666666666666,60.695992179863154,38.93421052631579,72.66645197649142,80.8695652173913,33.33333333333333,79.38144329896907,41.3584229390681,53.691,35.492,50.368
5.0,0.0,75.23297491039426,41.27368421052631,24.186458417196683,80.0,41.66666666666666,87.62886597938146,51.971326164874554,41.441,77.202,100.051
5.0,16.666666666666664,74.46985988921473,41.142105263157895,22.325899686015624,67.82608695652173,58.33333333333333,97.9381443298969,99.6415770609319,41.429,11.607,89.244
5.0,33.33333333333333,77.98892147279246,29.992105263157896,-1.7840753562515046,1.7391304347826102,91.66666666666666,22.680412371134015,89.6057347670251,41.124,190.818,1.706
5.0,50.0,107.39589442815249,40.11578947368421,68.07744948071813,65.21739130434784,66.66666666666666,19.587628865979386,1.0752688172043012,49.237,9.287,2.008
5.0,53.166666666666664,95.31704138155752,51.421052631578945,58.80283391031319,65.21739130434784,66.66666666666666,19.587628865979386,-82.43727598566308,34.6,42.151,1.838
5.0,62.66666666666666,79.45584881068753,71.63421052631578,49.92673697769906,72.17391304347827,66.66666666666666,35.05154639175259,4.301075268817205,30.971,45.538,4.779
5.0,66.66666666666666,117.20755946562397,64.67631578947368,102.90958859995169,78.26086956521739,49.99999999999999,51.54639175257733,8.60215053763441,66.758,47.746,33.088
5.0,69.83333333333334,83.57706093189965,62.06842105263157,66.93583447387489,78.26086956521739,49.99999999999999,51.54639175257733,-82.43727598566308,27.347,31.99,41.544
5.0,80.5,62.07885304659499,33.72105263157895,59.5974559214234,86.08695652173914,0.0,65.97938144329896,16.422939068100355,51.214,1.507,33.088
5.0,83.33333333333334,95.83186705767352,33.2,105.7451090894453,83.47826086956522,24.999999999999993,74.22680412371135,30.46594982078853,59.949,25.453,53.911
5.0,86.16666666666667,90.43206256109482,31.489473684210527,102.95789388938088,83.47826086956522,24.999999999999993,74.22680412371135,-82.43727598566308,45.278,34.916,48.889
5.0,97.83333333333334,78.80286738351255,37.242105263157896,95.29264954512519,82.6086956521739,33.33333333333333,80.41237113402063,39.118279569892465,38.792,34.774,51.103
5.0,100.0,70.39947865754318,35.75263157894737,83.89582159246439,83.47826086956522,24.999999999999993,74.22680412371135,30.46594982078853,34.293,4.894,52.574
5.0,102.83333333333333,-166.75985663082437,35.5921052631579,-208.3849931567507,83.47826086956522,24.999999999999993,74.22680412371135,-82.43727598566308,46.655,72.633,50.368
5.0,113.66666666666667,-168.1368523949169,49.45,-210.05474599468639,71.30434782608695,41.66666666666666,81.44329896907217,47.17562724014337,47.897,15.055,50.368
5.0,0.0,75.37895079830564,42.10789473684211,24.366798164399004,79.1304347826087,41.66666666666666,85.56701030927837,51.971326164874554,41.419,74.727,98.983
5.0,16.666666666666664,74.52981427174976,39.41842105263157,22.451493438531518,69.56521739130434,49.99999999999999,97.9381443298969,98.2078853046595,41.524,13.24,88.874
5.0,33.33333333333333,70.36950146627566,31.452631578947372,-10.918605587311808,1.7391304347826102,83.33333333333331,20.618556701030936,89.24731182795699,38.809,186.415,0.503
5.0,50.0,104.59824046920822,38.60526315789474,65.47540455679896,66.08695652173914,66.66666666666666,19.587628865979386,-0.35842293906810035,24.85,9.738,2.639
5.0,53.166666666666664,93.05115672857609,49.90789473684211,56.00354238789148,66.08695652173914,66.66666666666666,19.587628865979386,-82.43727598566308,37.2,36.075,2.558
5.0,62.66666666666666,80.26392961876834,71.61052631578947,50.92504629256903,72.17391304347827,66.66666666666666,37.11340206185568,4.659498207885305,29.219,45.538,4.779
5.0,66.66666666666666,109.83317041381557,63.52105263157895,93.79921101360598,79.1304347826087,41.66666666666666,51.54639175257733,8.60215053763441,65.183,47.746,33.088
5.0,69.83333333333334,86.44574780058653,60.91052631578947,70.47983254166331,79.1304347826087,41.66666666666666,51.54639175257733,-82.43727598566308,16.524,31.99,41.544
5.0,80.5,63.76278918214402,32.68684210526316,61.677803719507295,86.95652173913044,0.0,65.97938144329896,16.422939068100355,48.517,1.507,33.088
5.0,83.33333333333334,70.20462691430434,33.2,103.32742935351422,83.47826086956522,24.999999999999993,74.22680412371135,30.46594982078853,75.371,34.754,39.468
5.0,86.50000000000001,89.7601824698599,31.439473684210522,102.5376378713469,83.47826086956522,24.999999999999993,74.22680412371135,-82.43727598566308,49.014,30.025,50.276
5.0,98.0,79.69110459433041,36.22631578947369,96.38273890991063,83.47826086956522,33.33333333333333,79.38144329896907,37.93906810035843,33.478,35.753,51.103
5.0,100.0,70.56044314108831,35.75263157894737,81.10377586345705,83.47826086956522,24.999999999999993,74.22680412371135,30.46594982078853,31.788,4.894,49.064
5.0,102.83333333333333,66.71945259042033,35.5921052631579,80.05716125915788,83.47826086956522,24.999999999999993,74.22680412371135,-82.43727598566308,47.687,11.932,51.242
5.0,112.66666666666667,68.69794721407625,28.418421052631576,82.49738346348924,90.43478260869566,24.999999999999993,79.38144329896907,33.94623655913978,51.631,25.341,50.368
5.0,0.0,75.2987943955686,40.36315789473684,24.267772321069156,80.8695652173913,41.66666666666666,87.62886597938146,51.61290322580645,41.439,76.979,100.557
5.0,16.666666666666664,74.15509938090582,42.00263157894737,21.988567748168432,66.95652173913042,49.99999999999999,97.9381443298969,100.0,41.224,11.072,88.742
5.0,33.33333333333333,70.35320951449984,34.48157894736842,-11.095724981885514,1.7391304347826102,83.33333333333331,16.494845360824744,89.24731182795699,40.499,180.339,0.434
5.0,50.0,102.99250570218312,38.60526315789474,63.49166733757347,66.08695652173914,66.66666666666666,19.587628865979386,-0.35842293906810035,46.292,9.233,2.146
5.0,53.166666666666664,93.2655588139459,49.90789473684211,56.268416391594876,66.08695652173914,66.66666666666666,19.587628865979386,-82.43727598566308,35.562,42.151,1.838
5.0,62.5,79.0909090909091,71.36842105263158,49.234361162547295,72.17391304347827,66.66666666666666,35.05154639175259,4.301075268817205,41.644,45.538,4.779
5.0,66.66666666666666,118.04040404040406,64.62368421052632,75.24112390306739,78.26086956521739,49.99999999999999,50.515463917525786,8.60215053763441,47.555,47.746,33.088
5.0,69.5,86.88041707396548,62.37894736842106,70.4146204009339,78.26086956521739,49.99999999999999,50.515463917525786,-82.43727598566308,22.058,31.99,41.544
5.0,80.33333333333333,63.981101335940046,34.03684210526316,61.670557926092904,86.08695652173914,0.0,65.97938144329896,16.422939068100355,52.094,1.507,33.088
5.0,83.33333333333334,108.82828282828285,32.12894736842105,121.81064326543756,84.34782608695653,24.999999999999993,73.1958762886598,30.46594982078853,63.656,26.55,55.094
5.0,86.16666666666667,98.94949494949495,30.418421052631583,113.48039610337332,84.34782608695653,24.999999999999993,73.1958762886598,-82.43727598566308,54.243,30.445,47.252
5.0,98.16666666666666,87.4076246334311,34.321052631578944,105.90693180903308,85.21739130434783,33.33333333333333,79.38144329896907,37.6989247311828,34.89,37.097,51.103
5.0,100.0,68.62430759204953,34.68157894736842,-210.33089123258995,84.34782608695653,24.999999999999993,73.1958762886598,30.46594982078853,32.676,4.894,52.574
5.0,103.16666666666667,-170.73835125448028,34.51052631578948,-213.31374285484256,84.34782608695653,24.999999999999993,73.1958762886598,-82.43727598566308,38.532,72.633,50.368
5.0,113.5,-172.5428478331704,48.49736842105263,-215.50438773045647,72.17391304347827,41.66666666666666,81.44329896907217,47.65591397849462,49.839,15.055,50.368
5.0,0.0,75.31964809384165,40.36315789473684,24.293535142098065,80.8695652173913,41.66666666666666,87.62886597938146,51.971326164874554,41.451,78.063,101.129
5.0,16.666666666666664,73.8494623655914,42.86052631578947,21.61983737219225,66.08695652173914,58.33333333333333,97.9381443298969,100.35842293906809,41.411,10.821,88.396
5.0,33.33333333333333,72.98859563375693,34.48157894736842,-8.02270348603171,1.7391304347826102,83.33333333333331,16.494845360824744,89.6057347670251,40.911,181.467,0.567
5.0,50.0,99.40892798957316,38.60526315789474,58.039610337331936,66.08695652173914,66.66666666666666,19.587628865979386,-0.35842293906810035,47.857,9.751,2.181
5.0,52.83333333333333,90.41772564353211,48.59210526315789,52.346831978101605,66.08695652173914,66.66666666666666,19.587628865979386,-82.43727598566308,34.598,42.151,1.838
5.0,63.16666666666667,74.46399478657544,70.99473684210527,44.496417357700665,73.04347826086956,66.66666666666666,36.08247422680413,4.301075268817205,38.064,45.538,4.779
5.0,66.66666666666666,93.7106549364614,64.62368421052632,73.88133000563562,78.26086956521739,49.99999999999999,50.515463917525786,8.960573476702509,49.654,46.994,33.088
5.0,69.83333333333334,84.80156402737047,62.01315789473685,68.44859512116577,78.26086956521739,49.99999999999999,50.515463917525786,-82.43727598566308,25.252,31.99,41.544
5.0,80.16666666666667,64.63668947539915,34.35526315789474,62.201916109814015,86.08695652173914,0.0,65.97938144329896,16.781362007168457,53.508,1.507,33.088
5.0,83.33333333333334,105.56142065819488,30.247368421052627,117.77473633362854,86.08695652173914,16.666666666666664,74.22680412371135,30.107526881720432,44.298,23.39,54.989
5.0,86.50000000000001,95.98370804822419,28.486842105263154,110.22622977216005,86.08695652173914,16.666666666666664,74.22680412371135,-82.43727598566308,51.879,28.901,46.838
5.0,97.66666666666667,83.8057999348322,32.4,101.47975203284759,86.95652173913044,33.33333333333333,79.38144329896907,37.38709677419355,31.376,37.392,51.103
5.0,100.0,75.70739654610622,32.800000000000004,88.57660413815313,86.08695652173914,16.666666666666664,74.22680412371135,30.107526881720432,27.939,4.894,50.761
5.0,103.16666666666667,66.76963180188987,32.62894736842106,80.10546654858707,86.08695652173914,16.666666666666664,74.22680412371135,-82.43727598566308,34.203,29.937,53.18
5.0,112.5,61.8038449006191,33.1578947368421,73.97472023186539,86.08695652173914,33.33333333333333,79.38144329896907,37.68100358422939,42.276,34.577,50.368
5.0,0.0,75.49755620723363,42.10789473684211,24.51332420900089,79.1304347826087,41.66666666666666,85.56701030927837,51.61290322580645,41.406,72.146,98.349
5.0,16.666666666666664,74.17399804496578,38.57368421052632,22.026406891554632,70.43478260869566,49.99999999999999,96.90721649484536,97.4910394265233,41.529,14.378,88.573
5.0,33.33333333333333,77.26034538937765,29.273684210526312,-2.405603413573786,1.7391304347826102,91.66666666666666,23.711340206185564,88.88888888888889,37.237,186.676,1.069
5.0,50.0,101.17953730856956,38.60526315789474,60.342162466790114,66.08695652173914,66.66666666666666,19.587628865979386,0.0,46.512,9.578,2.106
5.0,52.83333333333333,90.45030954708373,48.59210526315789,52.38708638595927,66.08695652173914,66.66666666666666,19.587628865979386,-82.43727598566308,35.315,35.39,2.879
5.0,62.66666666666666,76.84652981427176,72.91052631578947,46.70316399645761,71.30434782608695,66.66666666666666,37.11340206185568,5.017921146953405,29.754,45.538,4.779
5.0,66.66666666666666,65.87161942000652,64.56842105263159,39.48876902020771,78.26086956521739,49.99999999999999,49.484536082474236,7.885304659498208,69.907,48.874,33.088
5.0,69.83333333333334,91.96220267188009,61.957894736842114,77.29490379196523,78.26086956521739,49.99999999999999,49.484536082474236,-82.43727598566308,44.778,31.99,41.544
5.0,79.66666666666667,72.91234929944608,35.34210526315789,71.58199822880606,86.08695652173914,0.0,65.97938144329896,15.824372759856622,57.905,1.507,33.088
5.0,83.33333333333334,97.04594330400784,31.13947368421053,107.25464938410755,85.21739130434783,16.666666666666664,73.1958762886598,29.749103942652326,84.423,40.732,44.904
5.0,86.50000000000001,92.99967416096449,29.378947368421056,106.5397311005555,85.21739130434783,16.666666666666664,73.1958762886598,-82.43727598566308,52.781,31.353,49.036
5.0,96.66666666666667,84.02606712284133,33.107894736842105,101.7583125352226,86.08695652173914,33.33333333333333,78.35051546391753,37.40501792114696,45.798,37.395,51.103
5.0,100.0,80.05539263603781,33.6921052631579,90.11673778278721,85.21739130434783,16.666666666666664,73.1958762886598,29.749103942652326,12.805,4.894,59.362
5.0,103.16666666666667,63.976539589442815,33.52105263157895,76.65485870702841,85.21739130434783,16.666666666666664,73.1958762886598,-82.43727598566308,27.642,37.321,52.432
5.0,112.83333333333331,57.919191919191924,36.026315789473685,69.18686096127527,83.47826086956522,33.33333333333333,79.38144329896907,38.921146953405014,49.049,35.739,50.368
5.0,0.0,75.32811990876507,41.27368421052631,24.304001288141052,80.0,41.66666666666666,87.62886597938146,51.61290322580645,41.446,75.489,99.481
5.0,16.666666666666664,77.37895079830565,39.439473684210526,25.148538764994772,69.56521739130434,49.99999999999999,96.90721649484536,98.56630824372759,41.511,12.024,90.386
5.0,33.33333333333333,70.71554252199415,34.48157894736842,-10.49110377586345,1.7391304347826102,83.33333333333331,16.494845360824744,91.0394265232975,39.951,188.024,0.908
5.0,50.0,70.01498859563377,38.60526315789474,23.453828194187267,66.08695652173914,66.66666666666666,19.587628865979386,0.0,46.372,9.975,2.941
5.0,52.83333333333333,69.83642880417075,48.59210526315789,26.920537798888976,66.08695652173914,66.66666666666666,19.587628865979386,-82.43727598566308,36.192,42.151,1.838
5.0,63.66666666666666,61.58488106875204,72.81052631578947,29.339827711134376,72.17391304347827,66.66666666666666,36.08247422680413,4.301075268817205,43.816,46.933,4.037
5.0,66.66666666666666,101.42000651678072,62.29210526315789,79.93559294742775,80.0,41.66666666666666,50.515463917525786,7.526881720430108,51.444,49.626,33.088
5.0,69.83333333333334,91.74519387422615,59.68421052631578,77.0268094356332,80.0,41.66666666666666,50.515463917525786,-82.43727598566308,34.665,31.99,41.544
5.0,79.66666666666667,74.38774845226457,34.3078947368421,73.40471781660092,86.95652173913044,0.0,65.97938144329896,15.476702508960576,52.528,1.507,33.088
5.0,83.33333333333334,77.61290322580645,30.049999999999997,111.94992351662508,86.08695652173914,24.999999999999993,72.16494845360825,28.673835125448026,80.852,38.53,38.96
5.0,86.50000000000001,96.79700228087326,28.292105263157897,111.23097979228724,86.08695652173914,24.999999999999993,72.16494845360825,-82.43727598566308,55.108,21.931,46.832
5.0,96.5,92.95275333985012,29.24473684210526,112.78157958296433,89.56521739130436,24.999999999999993,78.35051546391753,34.13978494623656,71.164,47.265,51.103
5.0,100.0,85.97458455522971,32.60263157894737,104.00772884630867,86.08695652173914,24.999999999999993,72.16494845360825,28.673835125448026,10.431,4.894,61.834
5.0,102.83333333333333,80.56695992179863,32.444736842105264,97.1644795105064,86.08695652173914,24.999999999999993,72.16494845360825,-82.43727598566308,28.262,64.369,49.94
5.0,112.83333333333331,76.33626588465299,42.757894736842104,91.93945737058208,77.3913043478261,41.66666666666666,80.41237113402063,44.07526881720431,-3.773,29.809,50.368
5.0,0.0,75.3326816552623,41.27368421052631,24.32332340391273,80.0,41.66666666666666,87.62886597938146,51.971326164874554,41.434,76.501,100.02
5.0,16.666666666666664,74.27761485826002,41.142105263157895,22.149585379599067,67.82608695652173,49.99999999999999,97.9381443298969,99.6415770609319,41.406,11.688,89.17
5.0,33.33333333333333,80.06907787552949,35.38421052631579,0.6690282585943185,0.8695652173913051,83.33333333333331,16.494845360824744,89.6057347670251,40.566,172.738,1.049
5.0,50.0,103.88856304985339,38.48421052631579,63.440946783672814,66.08695652173914,66.66666666666666,20.618556701030936,0.0,47.562,9.026,2.165
5.0,52.83333333333333,93.09416748126426,48.47105263157895,55.65332903952983,66.08695652173914,66.66666666666666,20.618556701030936,-82.43727598566308,36.607,35.919,3.293
5.0,63.0,75.71456500488759,73.38684210526316,45.79341437887449,71.30434782608695,66.66666666666666,37.11340206185568,5.376344086021505,25.002,45.538,4.779
5.0,66.66666666666666,101.48582600195503,64.67631578947368,81.18186941470091,78.26086956521739,41.66666666666666,51.54639175257733,8.60215053763441,53.508,47.746,33.088
5.0,69.5,90.54480286738352,62.434210526315795,74.9416311086064,78.26086956521739,41.66666666666666,51.54639175257733,-82.43727598566308,32.306,31.99,41.544
5.0,79.33333333333333,71.66112740306289,36.02105263157895,69.46703163996457,86.08695652173914,0.0,65.97938144329896,16.422939068100355,46.18,1.507,33.088
5.0,83.33333333333334,67.45519713261649,30.150000000000006,94.31929796312697,86.08695652173914,24.999999999999993,73.1958762886598,29.749103942652326,96.701,39.766,38.129
5.0,86.16666666666667,87.42587161942001,28.439473684210526,99.24402222043314,86.08695652173914,24.999999999999993,73.1958762886598,-82.43727598566308,59.649,22.54,50.72
5.0,97.16666666666667,84.0175953079179,30.336842105263155,101.7518718299654,88.69565217391305,24.999999999999993,78.35051546391753,35.26523297491039,71.114,47.98,51.103
5.0,100.0,80.46008471814923,32.70263157894737,93.88616053457854,86.08695652173914,24.999999999999993,73.1958762886598,29.749103942652326,20.486,4.894,54.0
5.0,102.83333333333333,72.2991202346041,32.54210526315789,86.95032606070365,86.08695652173914,24.999999999999993,73.1958762886598,-82.43727598566308,5.744,82.036,50.151
5.0,113.83333333333334,62.15575105897687,49.45263157894737,74.45696803800016,71.30434782608695,41.66666666666666,81.44329896907217,48.51971326164875,42.068,29.836,50.368
5.0,0.0,75.37308569566635,40.36315789473684,24.352306577570246,80.8695652173913,33.33333333333333,87.62886597938146,51.971326164874554,41.416,77.345,101.051
5.0,16.666666666666664,74.45552297165202,42.86052631578947,22.348442154415906,66.08695652173914,58.33333333333333,97.9381443298969,100.0,41.391,10.483,88.135
5.0,33.33333333333333,75.21212121212122,30.715789473684215,-4.935995491506319,1.7391304347826102,91.66666666666666,21.64948453608248,89.96415770609319,38.259,189.043,1.218
5.0,50.0,106.65819485174323,38.60526315789474,68.02028822156025,66.08695652173914,66.66666666666666,19.587628865979386,0.35842293906810035,38.947,6.588,2.729
5.0,52.83333333333333,96.40338872596939,48.59210526315789,59.74156670155383,66.08695652173914,66.66666666666666,19.587628865979386,-82.43727598566308,35.78,36.285,2.767
5.0,62.83333333333333,80.2059302704464,73.15789473684211,51.09653007004267,71.30434782608695,66.66666666666666,37.11340206185568,5.017921146953405,32.391,45.538,4.779
5.0,66.66666666666666,111.7243401759531,64.62368421052632,96.1355768456646,78.26086956521739,49.99999999999999,50.515463917525786,8.60215053763441,63.051,47.746,33.088
5.0,69.83333333333334,86.49071358748779,62.01315789473685,70.53538362450689,78.26086956521739,49.99999999999999,50.515463917525786,-82.43727598566308,25.007,31.99,41.544
5.0,79.66666666666667,67.27728901922451,35.34210526315789,64.62040093390226,86.08695652173914,0.0,65.97938144329896,16.602150537634405,54.296,1.507,33.088
5.0,83.33333333333334,101.22450309547084,32.12894736842105,112.68335882779164,84.34782608695653,24.999999999999993,73.1958762886598,30.46594982078853,67.37,28.745,53.382
5.0,86.16666666666667,95.5522971652004,30.418421052631583,109.28347154013365,84.34782608695653,24.999999999999993,73.1958762886598,-82.43727598566308,48.592,38.445,47.159
5.0,96.0,87.4969045291626,36.886842105263156,106.01320344577732,82.6086956521739,33.33333333333333,80.41237113402063,39.4910394265233,58.755,36.555,51.103
5.0,100.0,79.33398501140438,34.68157894736842,88.1676193543193,84.34782608695653,24.999999999999993,73.1958762886598,30.46594982078853,21.031,4.894,54.378
5.0,103.16666666666667,64.42098403388727,34.51052631578948,77.20392883020692,84.34782608695653,24.999999999999993,73.1958762886598,-82.43727598566308,38.122,19.275,53.793
5.0,112.5,60.85826001955035,29.360526315789475,72.80653731583608,89.56521739130436,24.999999999999993,79.38144329896907,35.63799283154122,49.514,27.126,50.368
5.0,0.0,75.33072662104921,41.27368421052631,24.31849287496981,80.0,41.66666666666666,87.62886597938146,51.61290322580645,41.459,75.61,99.505
5.0,16.666666666666664,74.10687520364941,40.28157894736842,21.941872635053542,68.69565217391305,49.99999999999999,97.9381443298969,98.56630824372759,41.411,12.4,88.473
5.0,33.33333333333333,71.78364288041708,33.71052631578947,-10.000000000000005,1.7391304347826102,83.33333333333331,17.525773195876294,89.24731182795699,38.937,183.065,0.49
5.0,50.0,97.6076898012382,40.11578947368421,56.83922389501651,65.21739130434784,66.66666666666666,19.587628865979386,0.0,42.926,9.318,2.124
5.0,53.166666666666664,87.60377973281199,51.421052631578945,49.273810482247804,65.21739130434784,66.66666666666666,19.587628865979386,-82.43727598566308,35.817,42.151,1.838
5.0,62.5,72.99315738025416,71.35789473684211,41.701151276064735,72.17391304347827,66.66666666666666,36.08247422680413,4.301075268817205,30.794,45.538,4.779
5.0,66.66666666666666,73.75040729879441,64.62368421052632,49.22228484019,78.26086956521739,41.66666666666666,50.515463917525786,8.60215053763441,77.935,47.746,33.088
5.0,69.5,69.02704463994786,62.37894736842106,48.358425247564604,78.26086956521739,41.66666666666666,50.515463917525786,-82.43727598566308,18.401,31.99,41.544
5.0,79.16666666666666,51.24666014988596,36.36578947368421,43.96103373319379,86.08695652173914,0.0,65.97938144329896,16.609318996415762,40.101,1.507,33.088
5.0,83.33333333333334,104.35907461713916,30.247368421052627,115.43756541341274,86.08695652173914,24.999999999999993,74.22680412371135,29.749103942652326,36.972,23.143,53.145
5.0,86.50000000000001,95.34897360703812,28.486842105263154,109.44207390709283,86.08695652173914,24.999999999999993,74.22680412371135,-82.43727598566308,52.853,27.732,47.351
5.0,96.66666666666667,85.57640925382863,32.24999999999999,103.67361726109007,86.95652173913044,33.33333333333333,79.38144329896907,36.77060931899641,27.292,36.796,51.103
5.0,100.0,82.2991202346041,32.800000000000004,94.14217856855326,86.08695652173914,24.999999999999993,74.22680412371135,29.749103942652326,30.344,4.894,52.533
5.0,102.83333333333333,73.92310198761813,32.63947368421053,88.95660574832944,86.08695652173914,24.999999999999993,74.22680412371135,-82.43727598566308,26.692,59.566,50.954
5.0,112.66666666666667,69.60834147930922,43.73157894736842,83.62209161903228,76.52173913043478,41.66666666666666,81.44329896907217,43.87813620071685,31.948,37.277,50.368
5.0,0.0,75.24470511567286,40.36315789473684,24.20095000402544,80.8695652173913,33.33333333333333,87.62886597938146,51.971326164874554,41.446,78.472,101.132
5.0,16.666666666666664,74.32127728901924,42.86052631578947,22.20030593349972,66.08695652173914,49.99999999999999,97.9381443298969,100.71684587813621,41.446,10.686,89.024
5.0,33.33333333333333,78.41968067774519,34.613157894736844,-0.9733515819982198,0.8695652173913051,91.66666666666666,17.525773195876294,90.32258064516128,36.047,180.166,0.762
5.0,50.0,63.027044639947874,38.60526315789474,14.118025923838662,66.08695652173914,66.66666666666666,19.587628865979386,0.0,48.697,9.975,2.941
5.0,53.166666666666664,64.8927989573151,49.90789473684211,21.216488205458504,66.08695652173914,66.66666666666666,19.587628865979386,-82.43727598566308,32.016,42.151,1.838
5.0,63.0,56.75008145975888,72.09736842105264,22.36454391755898,72.17391304347827,66.66666666666666,36.08247422680413,4.301075268817205,29.976,45.538,4.779
5.0,66.66666666666666,72.55066797002281,64.62368421052632,89.75364302391111,78.26086956521739,49.99999999999999,50.515463917525786,8.960573476702509,75.938,46.994,33.088
5.0,69.5,93.06940371456501,62.37894736842106,78.06054262941792,78.26086956521739,49.99999999999999,50.515463917525786,-82.43727598566308,48.182,31.99,41.544
5.0,79.66666666666667,78.70772238514175,35.34210526315789,78.74164721036954,86.08695652173914,0.0,65.97938144329896,16.781362007168457,50.721,1.507,33.088
5.0,83.33333333333334,91.42847833170414,30.150000000000006,100.3147894694469,86.08695652173914,16.666666666666664,73.1958762886598,30.107526881720432,70.989,29.378,50.345
5.0,86.16666666666667,91.06679700228088,28.439473684210526,103.74204975444812,86.08695652173914,16.666666666666664,73.1958762886598,-82.43727598566308,49.094,34.012,48.567
5.0,96.66666666666667,85.89638318670578,34.152631578947364,104.0689155462523,85.21739130434783,33.33333333333333,79.38144329896907,38.34050179211471,37.242,36.03,51.103
5.0,100.0,79.3782991202346,32.70263157894737,95.8586265196039,86.08695652173914,16.666666666666664,73.1958762886598,30.107526881720432,13.613,4.894,58.239
5.0,103.16666666666667,62.106223525578365,32.53157894736842,74.34425569599871,86.08695652173914,16.666666666666664,73.1958762886598,-82.43727598566308,30.049,29.941,52.961
5.0,113.33333333333333,62.385793418051485,33.18157894736842,74.72264712986072,86.08695652173914,33.33333333333333,79.38144329896907,37.26881720430108,58.762,27.804,50.368
