Periode(s),Step,Pitch Angle,CoMx(m),CoMy(m),CoMz(m),Left Ankle Angle Now,Left Ankle Speed(rpm),Goal,Pola
1.0,0.0,86.893,-0.001,-0.009,0.168,409,8.88,550,tengkurap
1.0,0.44,85.363,-0.024,-0.012,0.174,488.94,8.88,550,tengkurap
1.0,0.64,81.391,-0.036,-0.011,0.172,526.07,8.88,550,tengkurap
1.0,0.83,78.427,-0.04,-0.011,0.168,550,8.88,550,tengkurap
1.0,1.0,82.647,-0.033,-0.009,0.172,524,7.437,406,tengkurap
1.0,1.3900000000000001,82.888,-0.014,-0.01,0.175,464.75,7.437,406,tengkurap
1.0,1.5899999999999999,84.694,-0.004,-0.011,0.175,433.9,7.437,406,tengkurap
1.0,1.78,88.901,0.005,-0.013,0.171,406,7.437,406,tengkurap
1.0,1.98,91.235,0.006,-0.013,0.171,406,7.437,406,tengkurap
1.0,2.0,94.513,0.006,-0.013,0.171,404,0.555,406,tengkurap
1.0,2.39,92.52,0.008,-0.013,0.171,406,0.555,406,tengkurap
1.0,2.59,90.953,0.008,-0.013,0.171,406,0.555,406,tengkurap
1.0,2.7800000000000002,92.136,0.008,-0.013,0.171,406,0.555,406,tengkurap
1.0,2.98,90.693,0.009,-0.013,0.171,406,0.555,406,tengkurap
1.0,3.0,101.748,0.015,-0.012,0.168,382,6.105,288,tengkurap
1.0,3.39,111.232,0.034,-0.016,0.148,333.33,6.105,288,tengkurap
1.0,3.59,100.694,0.043,-0.018,0.132,307.72,6.105,288,tengkurap
1.0,3.79,87.678,0.048,-0.018,0.118,288,6.105,288,tengkurap
1.0,3.98,62.794,0.048,-0.018,0.114,288,6.105,288,tengkurap
1.0,4.0,68.347,0.045,-0.019,0.116,288,2.22,318,tengkurap
1.0,4.39,63.882,0.032,-0.018,0.122,305.73,2.22,318,tengkurap
1.0,4.59,58.5,0.024,-0.016,0.124,315.05,2.22,318,tengkurap
1.0,4.79,33.225,0.019,-0.013,0.124,318,2.22,318,tengkurap
1.0,4.99,37.447,0.018,-0.012,0.124,318,2.22,318,tengkurap
1.0,5.0,22.321,0.021,-0.012,0.129,319,3.6630000000000003,376,tengkurap
1.0,5.39,14.994,0.013,-0.01,0.149,348.39,3.6630000000000003,376,tengkurap
1.0,5.59,13.183,0.01,-0.01,0.158,363.82,3.6630000000000003,376,tengkurap
1.0,5.79,10.119,0.01,-0.009,0.164,376,3.6630000000000003,376,tengkurap
1.0,5.99,-13.49,0.009,-0.009,0.165,376,3.6630000000000003,376,tengkurap
    
20.0,0.0,69.84754298574232,43.18181818181818,100.0,98.60139860139861,47.794117647058826,49.669,81.366
20.0,20.0,64.02096798539927,6.818181818181817,100.0,100.0,90.07352941176471,41.06,36.646
20.0,40.0,80.30409067830337,51.13636363636363,55.55555555555555,99.65034965034967,45.955882352941174,0.0,36.646
20.0,60.0,90.23232198482292,61.36363636363637,66.66666666666666,98.60139860139861,37.86764705882353,33.113,0.0
20.0,80.0,44.39778793243039,95.45454545454545,-11.111111111111121,80.41958041958043,3.308823529411765,9.934,9.317
20.0,100.0,-18.761406831062263,68.18181818181819,66.66666666666666,84.96503496503497,14.705882352941178,18.543,27.329
    
0.8,0.0,85.803,-0.003,-0.009,0.17,417,10.989,550,tengkurap
0.8,0.49,84.739,-0.029,-0.012,0.174,505.36,10.989,550,tengkurap
0.8,0.74,80.974,-0.042,-0.011,0.168,550,10.989,550,tengkurap
0.8,0.98,79.389,-0.041,-0.011,0.168,550,10.989,550,tengkurap
0.8,1.0,83.227,-0.031,-0.009,0.172,516,9.213000000000001,406,tengkurap
0.8,1.48,84.126,-0.006,-0.011,0.175,442.13,9.213000000000001,406,tengkurap
0.8,1.74,86.251,0.006,-0.013,0.171,406,9.213000000000001,406,tengkurap
0.8,1.99,91.311,0.006,-0.013,0.171,406,9.213000000000001,406,tengkurap
0.8,2.0,95.488,0.005,-0.013,0.172,404,0.666,406,tengkurap
0.8,2.49,91.482,0.008,-0.013,0.171,406,0.666,406,tengkurap
0.8,2.74,93.901,0.008,-0.013,0.171,406,0.666,406,tengkurap
0.8,2.99,90.797,0.009,-0.013,0.171,406,0.666,406,tengkurap
0.8,3.0,99.573,0.017,-0.013,0.166,377,7.548,288,tengkurap
0.8,3.48,109.432,0.038,-0.017,0.139,316.54,7.548,288,tengkurap
0.8,3.74,84.724,0.047,-0.019,0.119,288,7.548,288,tengkurap
0.8,3.99,55.725,0.048,-0.018,0.114,288,7.548,288,tengkurap
0.8,4.0,67.382,0.044,-0.019,0.116,290,2.664,318,tengkurap
0.8,4.49,60.712,0.027,-0.017,0.121,311.47,2.664,318,tengkurap
0.8,4.74,42.41,0.02,-0.014,0.123,318,2.664,318,tengkurap
0.8,4.99,35.185,0.018,-0.012,0.124,318,2.664,318,tengkurap
0.8,5.0,18.712,0.021,-0.012,0.131,323,4.44,376,tengkurap
0.8,5.49,7.651,0.014,-0.011,0.155,358.8,4.44,376,tengkurap
0.8,5.74,2.269,0.011,-0.01,0.164,376,4.44,376,tengkurap
0.8,5.99,-15.461,0.009,-0.009,0.165,376,4.44,376,tengkurap
    
16.0,0.0,68.35179010058596,40.90909090909091,100.0,99.30069930069932,50.73529411764706,62.252,81.366
16.0,20.0,64.81687319034486,9.090909090909092,100.0,100.0,87.13235294117648,51.656,36.646
16.0,40.0,81.64203477282396,50.0,55.55555555555555,100.0,45.955882352941174,0.662,36.646
16.0,60.0,87.24767746627695,63.63636363636365,55.55555555555555,97.90209790209792,36.029411764705884,41.722,0.0
16.0,80.0,43.07356634144334,94.31818181818181,-11.111111111111121,80.41958041958043,4.044117647058823,12.583,9.317
16.0,100.0,-23.713858356318532,68.18181818181819,66.66666666666666,85.66433566433567,16.176470588235293,23.179,27.329
    
0.6,0.0,94.946,-0.006,-0.01,0.173,430,14.541,550,tengkurap
0.6,0.65,83.245,-0.041,-0.011,0.169,546.91,14.541,550,tengkurap
0.6,0.99,69.321,-0.041,-0.011,0.168,550,14.541,550,tengkurap
0.6,1.0,83.281,-0.028,-0.009,0.174,506,12.099,406,tengkurap
0.6,1.65,87.694,0.004,-0.012,0.173,408.44,12.099,406,tengkurap
0.6,1.98,89.836,0.006,-0.013,0.171,406,12.099,406,tengkurap
0.6,2.0,92.301,0.007,-0.013,0.171,404,0.666,406,tengkurap
0.6,2.65,92.677,0.008,-0.013,0.171,406,0.666,406,tengkurap
0.6,2.98,89.368,0.009,-0.013,0.171,406,0.666,406,tengkurap
0.6,3.0,103.851,0.022,-0.013,0.163,367,9.879,288,tengkurap
0.6,3.64,91.552,0.047,-0.018,0.123,288,9.879,288,tengkurap
0.6,3.99,59.672,0.048,-0.018,0.114,288,9.879,288,tengkurap
0.6,4.0,64.767,0.042,-0.019,0.116,292,3.441,318,tengkurap
0.6,4.65,54.013,0.021,-0.015,0.123,318,3.441,318,tengkurap
0.6,4.98,29.143,0.018,-0.012,0.124,318,3.441,318,tengkurap
0.6,5.0,15.908,0.021,-0.012,0.134,326,5.6610000000000005,376,tengkurap
0.6,5.65,1.759,0.013,-0.011,0.162,371.37,5.6610000000000005,376,tengkurap
0.6,5.99,-26.54,0.009,-0.009,0.165,376,5.6610000000000005,376,tengkurap
    
12.0,0.0,80.89827508130584,37.50000000000001,88.88888888888887,100.34965034965036,55.51470588235294,83.444,81.366
12.0,20.0,64.89097470942599,12.5,100.0,100.69930069930071,83.45588235294117,68.874,36.646
12.0,40.0,77.26867289668327,52.27272727272727,55.55555555555555,99.65034965034967,45.955882352941174,0.662,36.646
12.0,60.0,93.11816447792737,69.31818181818183,55.55555555555555,96.85314685314687,32.35294117647059,55.629,0.0
12.0,80.0,39.4851316674214,92.04545454545455,-11.111111111111121,80.41958041958043,4.779411764705882,17.219,9.317
12.0,100.0,-27.561648347124457,68.18181818181819,66.66666666666666,86.71328671328672,17.27941176470588,30.464,27.329
    
0.5,0.0,86.352,-0.007,-0.009,0.172,440,17.316,550,tengkurap
0.5,0.78,79.278,-0.041,-0.011,0.168,550,17.316,550,tengkurap
0.5,1.0,84.766,-0.023,-0.01,0.175,496,14.541,406,tengkurap
0.5,1.78,90.128,0.006,-0.013,0.171,406,14.541,406,tengkurap
0.5,2.0,91.582,0.007,-0.013,0.171,404,0.666,406,tengkurap
0.5,2.7800000000000002,86.825,0.009,-0.013,0.171,406,0.666,406,tengkurap
0.5,3.0,96.865,0.023,-0.013,0.162,360,11.766,288,tengkurap
0.5,3.7800000000000002,79.326,0.047,-0.018,0.115,288,11.766,288,tengkurap
0.5,4.0,58.772,0.041,-0.019,0.116,295,4.107,318,tengkurap
0.5,4.78,50.802,0.02,-0.014,0.124,318,4.107,318,tengkurap
0.5,5.0,13.296,0.022,-0.012,0.136,331,6.66,376,tengkurap
0.5,5.78,2.694,0.009,-0.009,0.165,376,6.66,376,tengkurap
    
10.0,0.0,69.10515554457757,36.36363636363637,100.0,100.0,59.19117647058824,100.0,81.366
10.0,20.0,66.92876648415739,18.181818181818183,88.88888888888887,101.04895104895104,79.77941176470588,83.444,36.646
10.0,40.0,76.28202489262141,52.27272727272727,55.55555555555555,99.65034965034967,45.955882352941174,0.662,36.646
10.0,60.0,83.53162350939304,70.45454545454545,55.55555555555555,96.50349650349652,29.77941176470588,66.887,0.0
10.0,80.0,31.258490799061377,90.90909090909092,-11.111111111111121,80.41958041958043,5.88235294117647,21.192,9.317
10.0,100.0,-31.145966270086323,69.31818181818183,66.66666666666666,87.41258741258741,19.11764705882353,36.424,27.329
    
0.4,0.0,81.777,-0.014,-0.009,0.172,457,21.534,550,tengkurap
0.4,0.97,79.145,-0.041,-0.011,0.168,550,21.534,550,tengkurap
0.4,1.0,88.88,-0.02,-0.009,0.175,484,17.871,406,tengkurap
0.4,1.96,91.911,0.006,-0.013,0.171,406,17.871,406,tengkurap
0.4,2.0,91.963,0.007,-0.013,0.172,405,0.777,406,tengkurap
0.4,2.9699999999999998,89.526,0.009,-0.013,0.171,406,0.777,406,tengkurap
0.4,3.0,97.799,0.027,-0.015,0.159,349,14.652000000000001,288,tengkurap
0.4,3.96,51.426,0.048,-0.018,0.114,288,14.652000000000001,288,tengkurap
0.4,4.0,57.272,0.039,-0.019,0.117,297,4.995,318,tengkurap
0.4,4.96,6.083,0.018,-0.012,0.124,318,4.995,318,tengkurap
0.4,5.0,12.091,0.022,-0.012,0.14,337,8.325,376,tengkurap
0.4,5.97,-25.269,0.009,-0.009,0.165,376,8.325,376,tengkurap
    
8.0,0.0,62.827110177980884,28.40909090909091,100.0,100.0,65.44117647058823,125.166,81.366
8.0,20.0,72.57420443785765,21.59090909090909,100.0,101.04895104895104,75.36764705882352,103.311,36.646
8.0,40.0,76.80485227724945,52.27272727272727,55.55555555555555,100.0,46.32352941176471,1.325,36.646
8.0,60.0,84.81330533942614,75.00000000000001,33.33333333333333,95.45454545454547,25.735294117647058,84.106,0.0
8.0,80.0,29.20011526902968,88.63636363636364,-11.111111111111121,80.76923076923079,6.61764705882353,26.49,9.317
8.0,100.0,-32.79952794587845,69.31818181818183,66.66666666666666,88.81118881118883,21.323529411764707,46.358,27.329
    
