Periode(s),Step,error pitch,error com,Pitch Angle,CoMx(m),CoMy(m),CoMz(m),Left Ankle Angle Now,Omega (theta/s),Left Ankle Speed(rpm),Goal
8.0,0.0,37.12316663721506,49.02745098039216,87.50009211699596,55.0561797752809,91.66666666666667,82.25806451612905,33.587786259541986,74.297,57.157,95.752
8.0,20.0,36.393944748777756,38.98039215686274,77.33184963558516,17.97752808988764,66.66666666666666,93.54838709677419,88.93129770992367,79.905,47.343,54.04
8.0,40.0,36.542380868233494,58.19411764705883,87.89361592371237,37.07865168539326,75.00000000000001,91.93548387096779,53.81679389312977,74.268,24.62,30.956
8.0,60.0,35.041526771514405,35.845098039215685,88.15301738431948,83.14606741573036,41.66666666666667,88.70967741935488,30.53435114503817,74.41,7.779,27.265
8.0,60.0,35.04623902927491,35.845098039215685,88.15891287206054,83.14606741573036,41.66666666666667,88.70967741935488,30.53435114503817,74.407,7.779207779207778,27.263740458015263
8.0,74.6,49.888672910408204,70.72549019607844,98.5032830497358,71.91011235955057,41.66666666666667,61.29032258064516,30.53435114503817,38.98,40.5977405977406,-1.0675572519084067
8.0,80.0,38.032043352771396,63.14705882352941,77.89265790695445,84.26966292134833,8.333333333333341,11.290322580645151,6.870229007633588,68.49,115.806,10.495
8.0,80.0,37.82823820462979,63.14705882352941,77.63767806215317,84.26966292134833,8.333333333333341,11.290322580645151,6.870229007633588,73.273,127.17479384146051,9.724809160305337
8.0,95.8,44.957295164045476,48.14509803921568,61.989579725417656,78.65168539325845,24.999999999999993,14.516129032258057,6.870229007633588,42.182,35.41636874970209,22.17557251908398
8.0,100.0,6.939388584555576,56.67843137254902,6.832870291900335,59.55056179775282,66.66666666666666,17.741935483870964,19.46564885496183,76.195,10.282,37.46
8.0,100.0,38.76538846674914,56.67843137254902,46.65025755912068,59.55056179775282,66.66666666666666,17.741935483870964,19.46564885496183,79.779,16.421183087849755,25.954198473282442
8.0,115.19999999999999,41.23520056547093,47.73529411764706,25.68442927993987,56.17977528089888,83.33333333333334,59.67741935483871,19.46564885496183,18.263,42.42814242814243,43.815267175572515
8.0,120.0,30.622018024385934,42.325490196078434,10.625142781343728,59.55056179775282,66.66666666666666,17.741935483870964,19.46564885496183,109.318,3.79,35.819
8.0,120.0,36.28497378806621,42.325490196078434,17.710045174174816,59.55056179775282,66.66666666666666,17.741935483870964,19.46564885496183,65.688,9.938509938509938,38.56793893129771
8.0,134.60000000000002,23.344524945514518,44.49607843137255,0.5622821433045668,58.42696629213484,83.33333333333334,58.06451612903225,19.46564885496183,70.262,9.867009867009866,40.53129770992367
8.0,0.0,37.20032985804323,49.02745098039216,87.59663072875597,55.0561797752809,91.66666666666667,82.25806451612905,33.587786259541986,74.252,57.148,95.742
8.0,20.0,35.89739058726513,39.61960784313725,76.71061261486989,16.853932584269668,66.66666666666666,93.54838709677419,89.31297709923665,73.096,51.07,41.982
8.0,40.0,37.00359309654238,50.97058823529412,88.47063678636962,49.43820224719102,66.66666666666666,91.93548387096779,46.18320610687023,74.533,17.808,39.274
8.0,60.0,35.47210932438005,45.65882352941177,88.69171757665976,66.29213483146067,50.0,90.32258064516132,39.31297709923664,74.429,76.643,8.706
8.0,60.0,35.40495965129293,45.65882352941177,88.60770687634951,66.29213483146067,50.0,90.32258064516132,39.31297709923664,73.354,78.05901139234473,7.962595419847338
8.0,74.6,52.492195323084175,52.15294117647059,101.76054002667709,98.87640449438202,24.999999999999993,48.38709677419353,39.31297709923664,44.694,31.44096477429811,-2.16450381679389
8.0,80.0,43.96183071213996,45.84313725490196,85.31139229312365,104.49438202247192,8.333333333333341,0.0,-7.251908396946565,83.229,136.694,11.488
8.0,80.0,42.809094657477765,45.84313725490196,83.86920860446435,104.49438202247192,8.333333333333341,0.0,-7.251908396946565,74.223,110.53911053911054,10.512213740458005
8.0,95.60000000000001,46.11592154090829,48.48823529411764,63.798020589990934,78.65168539325845,24.999999999999993,14.516129032258057,-7.251908396946565,35.385,9.166309166309167,11.282824427480907
8.0,100.0,36.73735053307416,49.46666666666667,44.11298702255761,68.53932584269663,58.333333333333336,16.129032258064512,10.305343511450381,88.975,3.99,27.973
8.0,100.0,38.052070448253524,49.46666666666667,45.75782810231619,68.53932584269663,58.333333333333336,16.129032258064512,10.305343511450381,74.194,16.421183087849755,25.954198473282442
8.0,114.60000000000001,48.70589621252282,39.470588235294116,35.46578037834293,68.53932584269663,75.00000000000001,53.2258064516129,10.305343511450381,28.412,28.056628056628057,33.87480916030535
8.0,120.0,47.31519114095541,35.11372549019608,31.509908104084833,68.53932584269663,58.333333333333336,16.129032258064512,10.305343511450381,37.157,10.267,36.083
8.0,120.0,45.37079578252931,35.11372549019608,29.077282474925752,68.53932584269663,58.333333333333336,16.129032258064512,10.305343511450381,54.334,7.922207922207922,33.58931297709925
8.0,135.60000000000002,27.663898215232376,34.6078431372549,5.96623359396302,73.03370786516854,75.00000000000001,53.2258064516129,10.305343511450381,80.23,7.307307307307307,37.553816793893134
8.0,0.0,37.263945337809986,49.02745098039216,87.67621981326042,55.0561797752809,91.66666666666667,82.25806451612905,33.587786259541986,74.368,57.267,95.909
8.0,20.0,36.551216351534435,36.97450980392157,77.52861153894337,21.348314606741578,66.66666666666666,95.16129032258064,87.02290076335878,74.607,47.486,47.047
8.0,40.0,36.93703245567533,53.59411764705882,88.38736302202702,44.943820224719104,66.66666666666666,93.54838709677419,49.23664122137404,74.987,19.987,37.496
8.0,60.0,35.10101902574071,44.35294117647059,88.22744791705048,68.53932584269663,41.66666666666667,90.32258064516132,37.404580152671755,74.4,57.129,11.315
8.0,60.0,35.115155799022205,44.35294117647059,88.2451343802737,68.53932584269663,41.66666666666667,90.32258064516132,37.404580152671755,74.352,57.35259068592402,11.263358778625951
8.0,74.8,49.79266065853802,58.305882352941175,98.17239880026825,91.0112359550562,24.999999999999993,54.83870967741935,37.404580152671755,57.004,52.11401878068544,-1.398854961832069
8.0,80.0,48.02733109501091,45.46862745098039,90.39772434173194,104.49438202247192,8.333333333333341,-1.6129032258064533,-6.870229007633588,82.398,150.756,11.937
8.0,80.0,46.36095894445426,45.46862745098039,88.312932489296,104.49438202247192,8.333333333333341,-1.6129032258064533,-6.870229007633588,74.98,129.50569617236286,11.069465648854965
8.0,94.60000000000001,51.235789597691,51.09607843137255,71.98832693427268,77.52808988764046,24.999999999999993,14.516129032258057,-6.870229007633588,39.65,34.5297678631012,10.541603053435125
8.0,100.0,37.75991046710255,49.46666666666667,45.39230786236984,68.53932584269663,58.333333333333336,16.129032258064512,10.305343511450381,92.164,3.542,27.49
8.0,100.0,39.174176827472465,49.46666666666667,47.161691120658524,68.53932584269663,58.333333333333336,16.129032258064512,10.305343511450381,74.764,16.421183087849755,25.954198473282442
8.0,115.19999999999999,49.92872710137245,39.233333333333334,36.56086722624671,68.53932584269663,75.00000000000001,53.2258064516129,10.305343511450381,33.115,25.95452595452596,32.82442748091603
8.0,120.0,46.06585380220298,35.11372549019608,29.946866916733605,68.53932584269663,58.333333333333336,16.129032258064512,10.305343511450381,25.24,13.804,40.403
8.0,120.0,45.72126995346646,35.11372549019608,29.515759375667848,68.53932584269663,58.333333333333336,16.129032258064512,10.305343511450381,65.733,6.368273034939702,32.64732824427481
8.0,134.39999999999998,29.768510337515465,33.65294117647059,8.599305806318489,74.15730337078652,75.00000000000001,51.61290322580644,10.305343511450381,71.856,7.803041136374469,36.86374045801528
8.0,0.0,37.32284855981622,49.02745098039216,87.7499134100238,55.0561797752809,91.66666666666667,82.25806451612905,33.587786259541986,74.288,57.219,95.848
8.0,20.0,39.601814219237795,38.98039215686274,81.34520291531868,17.97752808988764,66.66666666666666,93.54838709677419,88.54961832061069,74.487,49.364,44.811
8.0,40.0,37.25452082228898,51.63529411764706,88.7845715085816,48.314606741573044,66.66666666666666,93.54838709677419,47.32824427480916,74.204,18.619,38.147
8.0,60.0,35.392589974671615,44.35294117647059,88.59223122102921,68.53932584269663,50.0,90.32258064516132,37.786259541984734,74.317,58.911,11.313
8.0,60.0,35.322495140484186,44.35294117647059,88.50453584088078,68.53932584269663,50.0,90.32258064516132,37.786259541984734,74.381,58.47752514419181,11.379770992366412
8.0,76.0,49.250751016080585,60.652941176470584,96.24531124490593,89.88764044943821,24.999999999999993,51.61290322580644,37.786259541984734,58.128,54.08265408265408,-1.366030534351148
8.0,80.0,43.528302998174,45.84313725490196,84.76900742094519,104.49438202247192,8.333333333333341,0.0,-6.870229007633588,74.677,115.659,10.66
8.0,80.0,42.728986275549275,45.84313725490196,83.76898531286616,104.49438202247192,8.333333333333341,0.0,-6.870229007633588,74.198,109.09004242337576,10.633206106870222
8.0,94.60000000000001,47.811156270247984,50.22941176470589,67.70378121844993,78.65168539325845,24.999999999999993,14.516129032258057,-6.870229007633588,38.983,19.595786262452933,10.30267175572519
8.0,100.0,35.916239618307124,47.54705882352941,43.08569828367613,70.7865168539326,58.333333333333336,14.516129032258057,9.923664122137405,91.761,3.608,27.971
8.0,100.0,37.57142015668257,47.54705882352941,45.156488352727024,70.7865168539326,58.333333333333336,14.516129032258057,9.923664122137405,71.611,16.421183087849755,25.954198473282442
8.0,114.39999999999999,48.818401366554745,38.90980392156863,35.767924125072774,69.66292134831461,75.00000000000001,54.83870967741935,9.923664122137405,35.192,25.95452595452596,32.82442748091603
8.0,120.0,47.48542145255346,33.19411764705883,31.722882598730994,70.7865168539326,58.333333333333336,14.516129032258057,9.923664122137405,30.403,12.87,39.249
8.0,120.0,47.408258231725284,33.19411764705883,31.626343986970966,70.7865168539326,58.333333333333336,14.516129032258057,9.923664122137405,57.281,7.183373850040516,32.89885496183206
8.0,134.60000000000002,24.467220356953526,32.91960784313726,1.9668820976145387,75.2808988764045,75.00000000000001,51.61290322580644,9.923664122137405,59.758,9.013775680442347,36.64503816793893
8.0,0.0,37.24804146786829,49.02745098039216,87.65632254213432,55.0561797752809,91.66666666666667,82.25806451612905,33.587786259541986,74.252,57.162,95.768
8.0,20.0,37.68981563291513,39.61960784313725,78.95310876437946,16.853932584269668,66.66666666666666,93.54838709677419,88.93129770992367,73.921,50.212,43.449
8.0,40.0,37.22978146904636,51.627450980392155,88.75362019794099,48.314606741573044,66.66666666666666,91.93548387096779,46.94656488549619,74.436,18.314,38.595
8.0,60.0,35.17052482770808,45.00588235294117,88.31440636123126,67.41573033707866,50.0,90.32258064516132,38.54961832061068,74.429,69.117,9.975
8.0,60.0,35.23531837191495,45.00588235294117,88.39546931767099,67.41573033707866,50.0,90.32258064516132,38.54961832061068,74.442,69.13103579770247,9.966412213740467
8.0,74.4,51.68934440713907,54.83529411764706,100.96759692550314,94.3820224719101,24.999999999999993,49.999999999999986,38.54961832061068,108.14,37.623337623337626,26.227480916030537
8.0,80.0,51.27407669199506,78.73529411764706,94.4597153953293,65.1685393258427,24.999999999999993,17.741935483870964,23.66412213740458,74.942,87.344,-0.988
8.0,80.0,49.896919361489076,78.73529411764706,92.73675910300153,65.1685393258427,24.999999999999993,17.741935483870964,23.66412213740458,73.914,86.22908622908622,-0.7709923664122068
8.0,95.19999999999999,48.39253107144961,37.89019607843137,67.36184292946787,91.0112359550562,24.999999999999993,3.2258064516129066,23.66412213740458,23.871,18.876018876018875,27.739312977099246
8.0,100.0,38.688814278141024,44.90392156862745,46.5544558833283,74.15730337078652,66.66666666666666,14.516129032258057,6.106870229007633,78.745,3.141,25.851
8.0,100.0,38.050303351593335,44.90392156862745,45.755617294413284,74.15730337078652,66.66666666666666,14.516129032258057,6.106870229007633,55.813,16.421183087849755,25.954198473282442
8.0,115.19999999999999,44.30994875419685,34.75686274509804,29.531235030988157,75.2808988764045,75.00000000000001,53.2258064516129,6.106870229007633,33.131,28.838362171695508,34.14274809160306
8.0,120.0,37.92719561760028,30.550980392156863,19.76462265193777,74.15730337078652,66.66666666666666,14.516129032258057,6.106870229007633,31.114,12.856,38.204
8.0,120.0,37.21328856688461,30.550980392156863,18.87145625916564,74.15730337078652,66.66666666666666,14.516129032258057,6.106870229007633,80.688,4.7857381190714525,32.041984732824424
8.0,134.39999999999998,37.63798079754962,28.46470588235294,18.444770333905687,82.02247191011237,66.66666666666666,51.61290322580644,6.106870229007633,81.116,6.311072977739644,35.782442748091604
8.0,0.0,37.27631501443129,49.02745098039216,87.69169546858072,55.0561797752809,91.66666666666667,82.25806451612905,33.587786259541986,74.285,57.2,95.82
8.0,20.0,36.43164281086175,38.98039215686274,77.37901353751371,17.97752808988764,66.66666666666666,93.54838709677419,88.54961832061069,74.185,49.383,44.151
8.0,40.0,37.10137244507274,52.94117647058824,88.59296815699683,46.06741573033708,66.66666666666666,93.54838709677419,48.854961832061065,74.404,19.758,37.173
8.0,60.0,35.240030629675445,43.05098039215686,88.40136480541206,70.7865168539326,41.66666666666667,90.32258064516132,37.404580152671755,74.394,38.434,14.929
8.0,60.0,35.25652353183719,43.05098039215686,88.4219990125058,70.7865168539326,41.66666666666667,90.32258064516132,37.404580152671755,74.285,38.910338910338915,14.828625954198474
8.0,76.6,52.016846321493794,67.35882352941177,99.08398859223122,80.89887640449439,33.33333333333333,51.61290322580644,37.404580152671755,61.823,55.30768864102198,-2.099236641221374
8.0,80.0,46.342109913412266,45.84313725490196,88.28935053833172,104.49438202247192,8.333333333333341,0.0,-7.251908396946565,76.533,136.599,11.104
8.0,80.0,45.21352417977264,45.84313725490196,86.87738122434541,104.49438202247192,8.333333333333341,0.0,-7.251908396946565,73.492,121.5453548786882,10.669847328244268
8.0,95.0,48.540378158685286,49.32352941176471,67.90349086567869,78.65168539325845,24.999999999999993,12.903225806451605,-7.251908396946565,35.141,16.50698317364984,10.450763358778616
8.0,100.0,37.420038876126526,49.32156862745098,44.967095809045155,68.53932584269663,58.333333333333336,14.516129032258057,9.923664122137405,92.847,3.418,27.302
8.0,100.0,38.91264652176474,49.32156862745098,46.83449155102913,68.53932584269663,58.333333333333336,14.516129032258057,9.923664122137405,70.935,16.421183087849755,25.954198473282442
8.0,114.60000000000001,48.64169170053602,39.470588235294116,35.38545435787084,68.53932584269663,75.00000000000001,53.2258064516129,9.923664122137405,40.017,25.95452595452596,32.82442748091603
8.0,120.0,45.39200094245155,34.96862745098039,29.103812169760566,68.53932584269663,58.333333333333336,14.516129032258057,9.923664122137405,71.785,5.706,32.384
8.0,120.0,45.7424751133887,34.96862745098039,29.542289070502665,68.53932584269663,58.333333333333336,14.516129032258057,9.923664122137405,52.614,8.112874779541446,33.65496183206106
8.0,134.39999999999998,29.676032278965657,34.523529411764706,8.483606859399986,73.03370786516854,75.00000000000001,53.2258064516129,9.923664122137405,70.861,7.950807950807949,36.888549618320624
8.0,0.0,37.16616598927961,49.02745098039216,87.55388844263321,55.0561797752809,83.33333333333334,82.25806451612905,33.587786259541986,74.275,57.152,95.749
8.0,20.0,36.04759380338105,38.98039215686274,76.8985312866165,17.97752808988764,66.66666666666666,93.54838709677419,88.93129770992367,74.346,49.612,44.184
8.0,40.0,36.413971844259876,52.28431372549019,87.73296388276822,47.19101123595506,66.66666666666666,91.93548387096779,47.32824427480916,74.117,18.905,37.342
8.0,60.0,35.18701772986982,43.05098039215686,88.33504056832501,70.7865168539326,41.66666666666667,90.32258064516132,37.404580152671755,74.391,38.281,14.91
8.0,60.0,35.20763385757201,43.05098039215686,88.3608333271922,70.7865168539326,41.66666666666667,90.32258064516132,37.404580152671755,74.413,38.25730492397159,14.938167938931288
8.0,76.4,57.63032337868882,67.81176470588235,106.31406737068616,79.77528089887642,33.33333333333333,51.61290322580644,37.404580152671755,70.532,64.15939749273083,-2.564503816793891
8.0,80.0,44.59445131648702,45.08823529411765,86.10286152236232,104.49438202247192,8.333333333333341,-3.2258064516129066,-8.396946564885496,70.493,105.277,10.386
8.0,80.0,43.913530070094836,45.08823529411765,85.25096354377767,104.49438202247192,8.333333333333341,-3.2258064516129066,-8.396946564885496,72.626,108.44177510844177,10.343893129770992
8.0,94.60000000000001,46.87930729810921,50.22941176470589,66.53794851765329,78.65168539325845,24.999999999999993,14.516129032258057,-8.396946564885496,41.07,18.856952190285526,10.169465648854963
8.0,100.0,36.12652412086941,49.32156862745098,43.34878442412138,68.53932584269663,66.66666666666666,14.516129032258057,9.923664122137405,90.846,3.794,27.716
8.0,100.0,38.27236849855687,49.32156862745098,46.033442154211215,68.53932584269663,66.66666666666666,14.516129032258057,9.923664122137405,71.724,16.421183087849755,25.954198473282442
8.0,115.60000000000001,49.46280261530306,39.1843137254902,35.725918774917645,68.53932584269663,75.00000000000001,54.83870967741935,9.923664122137405,29.823,27.818294484961154,33.770610687022895
8.0,120.0,46.39688990987808,34.96862745098039,30.361024930543785,68.53932584269663,66.66666666666666,14.516129032258057,9.923664122137405,25.906,13.494,39.992
8.0,120.0,46.825705366083525,34.96862745098039,30.897514314981173,68.53932584269663,66.66666666666666,14.516129032258057,9.923664122137405,64.081,6.496973163639831,32.665267175572524
8.0,134.39999999999998,27.720445308358364,33.65294117647059,6.036979446855863,74.15730337078652,75.00000000000001,51.61290322580644,9.923664122137405,72.3,7.803041136374469,36.91412213740457
8.0,0.0,37.363491783000526,49.02745098039216,87.80076199179054,55.0561797752809,91.66666666666667,82.25806451612905,33.587786259541986,74.204,57.167,95.775
8.0,20.0,35.65588737703953,39.61960784313725,76.40846886814005,16.853932584269668,66.66666666666666,93.54838709677419,88.93129770992367,73.125,50.698,42.208
8.0,40.0,36.415738940920065,51.627450980392155,87.73517469067113,48.314606741573044,66.66666666666666,91.93548387096779,46.94656488549619,74.613,18.576,38.679
8.0,60.0,34.86894033103611,45.07843137254902,87.93709514580277,67.41573033707866,50.0,91.93548387096779,38.54961832061068,74.391,69.798,9.859
8.0,60.0,34.920775166401604,45.07843137254902,88.00194551095456,67.41573033707866,50.0,91.93548387096779,38.54961832061068,74.313,70.2369035702369,9.7824427480916
8.0,74.8,47.87477175001472,54.154901960784315,95.7729352896527,96.62921348314606,24.999999999999993,49.999999999999986,38.54961832061068,62.203,58.730158730158735,-0.15038167938931507
8.0,80.0,55.777817046592446,47.48627450980392,100.09432780385711,102.24719101123596,8.333333333333341,0.0,-4.961832061068702,74.165,169.446,12.324
8.0,80.0,52.93043529481063,47.48627450980392,96.53197933631547,102.24719101123596,8.333333333333341,0.0,-4.961832061068702,74.436,161.06106106106108,11.680534351145042
8.0,94.60000000000001,55.67473640808153,51.09607843137255,77.54187638636078,77.52808988764046,24.999999999999993,14.516129032258057,-4.961832061068702,33.981,46.9040469040469,12.072519083969464
8.0,100.0,35.54514931966779,48.58431372549019,42.62142862406685,69.66292134831461,66.66666666666666,16.129032258064512,10.305343511450381,70.503,7.426,30.781
8.0,100.0,38.35247688048536,48.58431372549019,46.13366544580941,69.66292134831461,66.66666666666666,16.129032258064512,10.305343511450381,87.387,16.421183087849755,25.954198473282442
8.0,114.99999999999999,48.74595040348708,39.30980392156863,35.218169893217976,68.53932584269663,75.00000000000001,53.2258064516129,10.305343511450381,17.712,29.805996472663143,35.48702290076336
8.0,120.0,39.59062260705661,34.2313725490196,21.845729824535546,69.66292134831461,66.66666666666666,16.129032258064512,10.305343511450381,15.625,13.647,39.008
8.0,120.0,38.57513105966896,34.2313725490196,20.57525221633492,69.66292134831461,66.66666666666666,16.129032258064512,10.305343511450381,71.814,5.963105963105963,32.96145038167938
8.0,135.2,26.555928609294927,32.962745098039214,4.580057038843894,75.2808988764045,75.00000000000001,51.61290322580644,10.305343511450381,71.833,7.90314123647457,37.07862595419848
8.0,0.0,37.335807268657604,49.02745098039216,87.76612600131173,55.0561797752809,91.66666666666667,82.25806451612905,33.587786259541986,74.339,57.272,95.915
8.0,20.0,36.17600282735466,38.98039215686274,77.05918332756066,17.97752808988764,66.66666666666666,93.54838709677419,87.40458015267176,74.214,48.386,44.806
8.0,40.0,37.21741179242505,54.254901960784316,88.73814454262069,43.82022471910113,66.66666666666666,91.93548387096779,49.61832061068702,73.94,20.382,35.145
8.0,60.0,35.20881192201213,41.10588235294117,88.36230719912747,74.15730337078652,41.66666666666667,90.32258064516132,35.11450381679389,74.268,14.405,18.295
8.0,60.0,35.19349708429051,41.10588235294117,88.34314686396898,74.15730337078652,41.66666666666667,90.32258064516132,35.11450381679389,74.323,14.309547642880977,18.340076335877857
8.0,74.6,46.91759439241327,71.44705882352942,94.78617802899107,70.7865168539326,41.66666666666667,61.29032258064516,35.11450381679389,54.012,49.04904904904905,-2.0099236641221445
8.0,80.0,41.90905342522237,57.20392156862745,82.74317044591996,91.0112359550562,8.333333333333341,6.451612903225791,1.1450381679389312,75.814,156.89,12.79
8.0,80.0,41.57153796312658,57.20392156862745,82.3209061364658,91.0112359550562,8.333333333333341,6.451612903225791,1.1450381679389312,76.571,157.23342390009057,12.819847328244283
8.0,94.39999999999999,47.56611886670201,54.06666666666666,67.75241899231375,74.15730337078652,33.33333333333333,14.516129032258057,1.1450381679389312,33.195,33.39530006196673,16.39694656488549
8.0,100.0,45.677681569181836,53.12941176470588,55.298201139303,64.04494382022472,66.66666666666666,17.741935483870964,13.358778625954198,64.467,55.05,31.034
8.0,100.0,38.6575955704777,53.12941176470588,46.515398277043715,64.04494382022472,66.66666666666666,17.741935483870964,13.358778625954198,13.712,16.421183087849755,25.954198473282442
8.0,115.19999999999999,41.470813453495914,44.64705882352941,25.97920366699337,60.67415730337079,83.33333333333334,56.4516129032258,13.358778625954198,31.04,32.613565946899286,39.78167938931298
8.0,120.0,36.97944277551982,38.7764705882353,18.578892680015034,64.04494382022472,66.66666666666666,17.741935483870964,13.358778625954198,49.1,10.816,37.278
8.0,120.0,39.85981033162515,38.7764705882353,22.18250956174418,64.04494382022472,66.66666666666666,17.741935483870964,13.358778625954198,85.986,4.31383764717098,32.43396946564884
8.0,134.8,25.116922895682393,37.64313725490196,2.7797224699145877,68.53932584269663,75.00000000000001,54.83870967741935,13.358778625954198,74.636,8.022308022308023,37.90801526717558
8.0,0.0,37.265123402250104,49.02745098039216,87.67769368519569,55.0561797752809,91.66666666666667,82.25806451612905,33.587786259541986,74.313,57.224,95.847
8.0,20.0,37.93662013312129,39.61960784313725,79.261884934818,16.853932584269668,66.66666666666666,93.54838709677419,88.93129770992367,73.608,50.417,42.989
8.0,40.0,36.807445367261586,51.627450980392155,88.22523710914759,48.314606741573044,66.66666666666666,91.93548387096779,46.94656488549619,74.181,18.49,38.088
8.0,60.0,35.18642869764976,44.429411764705875,88.33430363235738,68.53932584269663,41.66666666666667,91.93548387096779,37.786259541984734,74.394,59.159,11.169
8.0,60.0,35.139306120044765,44.429411764705875,88.27534875494666,68.53932584269663,41.66666666666667,91.93548387096779,37.786259541984734,74.304,59.41179274512608,11.09847328244274
8.0,75.8,49.168286505271844,58.501960784313724,96.34921921634229,92.13483146067416,24.999999999999993,48.38709677419353,37.786259541984734,62.38,60.469993803327135,-0.7622137404580206
8.0,80.0,42.65830240914178,46.662745098039224,83.6805529967501,103.37078651685394,8.333333333333341,0.0,-5.7251908396946565,75.206,114.848,10.89
8.0,80.0,42.10048889674265,46.662745098039224,82.98267463540093,103.37078651685394,8.333333333333341,0.0,-5.7251908396946565,74.417,108.61814195147528,10.82977099236642
8.0,94.80000000000001,47.501914354715204,49.87843137254902,66.96094976307508,78.65168539325845,24.999999999999993,14.516129032258057,-5.7251908396946565,37.843,17.13618380285047,10.695038167938938
8.0,100.0,37.32814984979678,49.32156862745098,44.852133798094286,68.53932584269663,66.66666666666666,14.516129032258057,10.305343511450381,92.731,3.608,27.615
8.0,100.0,38.88849620074218,49.32156862745098,46.804277176356145,68.53932584269663,66.66666666666666,14.516129032258057,10.305343511450381,82.652,19.028552361885694,27.4442748091603
8.0,115.60000000000001,50.584908994522,39.73725490196078,37.12978179325998,67.41573033707866,75.00000000000001,51.61290322580644,10.305343511450381,26.364,28.00896134229468,33.887022900763355
8.0,120.0,44.16740295694174,34.96862745098039,27.571722293049955,68.53932584269663,66.66666666666666,14.516129032258057,10.305343511450381,19.307,13.652,39.655
8.0,120.0,43.34629204217471,34.96862745098039,26.544433554168474,68.53932584269663,66.66666666666666,14.516129032258057,10.305343511450381,55.877,7.788741122074455,33.497709923664125
8.0,134.39999999999998,30.45414384166814,33.780392156862746,9.457099272644198,74.15730337078652,75.00000000000001,53.2258064516129,10.305343511450381,85.023,6.706706706706707,37.18091603053434
8.0,0.0,37.19974082582318,49.02745098039216,87.59589379278833,55.0561797752809,91.66666666666667,82.25806451612905,33.587786259541986,74.294,57.181,95.789
8.0,20.0,36.61247570242093,38.25098039215686,77.6052528795773,19.10112359550562,66.66666666666666,95.16129032258064,87.78625954198473,74.349,48.396,45.081
8.0,40.0,36.58007893031749,52.28431372549019,87.94077982564094,47.19101123595506,66.66666666666666,91.93548387096779,48.091603053435115,74.407,19.324,37.697
8.0,60.0,35.29952288390175,43.70196078431373,88.47579533814307,69.66292134831461,41.66666666666667,90.32258064516132,37.404580152671755,74.449,47.934,13.186
8.0,60.0,35.39082287801143,43.70196078431373,88.5900204131263,69.66292134831461,41.66666666666667,90.32258064516132,37.404580152671755,74.375,48.46751513418181,13.109923664122142
8.0,74.2,43.66967073098898,62.19607843137255,91.1471882208155,83.14606741573036,33.33333333333333,54.83870967741935,37.404580152671755,32.632,28.85266218599552,-0.9774809160305262
8.0,80.0,44.61683454084939,49.5,86.1308650891324,100.0,8.333333333333341,1.6129032258064533,-3.816793893129771,77.306,144.621,11.682
8.0,80.0,44.37592036284384,49.5,85.82945827837018,100.0,8.333333333333341,1.6129032258064533,-3.816793893129771,73.863,133.7051337051337,11.335114503816786
8.0,94.39999999999999,49.75319549979384,51.44705882352941,70.48866224013794,77.52808988764046,24.999999999999993,14.516129032258057,-3.816793893129771,36.323,26.52175985509319,11.275954198473286
8.0,100.0,37.84944336455204,49.46666666666667,45.50432212945017,68.53932584269663,66.66666666666666,16.129032258064512,11.068702290076336,97.794,3.227,27.623
8.0,100.0,39.91989161807151,49.46666666666667,48.094652055682886,68.53932584269663,66.66666666666666,16.129032258064512,11.068702290076336,74.359,16.421183087849755,25.954198473282442
8.0,114.19999999999999,50.073629027507806,40.39019607843137,37.50856688062374,67.41573033707866,75.00000000000001,53.2258064516129,11.068702290076336,30.145,27.39406072739406,32.887404580152676
8.0,120.0,47.79760852918654,35.11372549019608,32.11345866157689,68.53932584269663,66.66666666666666,16.129032258064512,11.068702290076336,21.841,13.39,39.802
8.0,120.0,46.2207692760794,35.11372549019608,30.140681076221288,68.53932584269663,66.66666666666666,16.129032258064512,11.068702290076336,64.593,6.563706563706563,32.885114503816794
8.0,135.0,25.891500265064497,34.56470588235294,3.748793267353,73.03370786516854,75.00000000000001,53.2258064516129,11.068702290076336,79.557,7.345440678774012,37.494656488549616
8.0,0.0,37.353478235259466,49.02745098039216,87.78823408034076,55.0561797752809,91.66666666666667,82.25806451612905,33.587786259541986,74.346,57.281,95.932
8.0,20.0,34.22748424338812,35.69607843137255,74.62139914662815,23.59550561797753,66.66666666666666,95.16129032258064,86.64122137404581,73.402,47.543,45.848
8.0,40.0,36.40160216763857,54.89999999999999,87.71748822744792,42.69662921348314,75.00000000000001,93.54838709677419,50.76335877862596,74.504,21.293,35.097
8.0,60.0,35.218236437533136,41.10588235294117,88.3740981746096,74.15730337078652,41.66666666666667,90.32258064516132,34.73282442748092,74.355,14.19,18.323
8.0,60.0,35.242386758555696,41.10588235294117,88.40431254928258,74.15730337078652,41.66666666666667,90.32258064516132,34.73282442748092,74.297,14.300014300014299,18.27786259541984
8.0,74.8,43.57483654355893,71.7078431372549,90.39330272592613,70.7865168539326,41.66666666666667,59.67741935483871,34.73282442748092,42.214,38.20487153820488,-0.9667938931297769
8.0,80.0,39.37209165341344,60.91764705882352,79.56918723332129,86.51685393258427,8.333333333333341,8.064516129032246,4.961832061068702,71.289,133.596,11.531
8.0,80.0,38.768922660069514,60.91764705882352,78.81456480246432,86.51685393258427,8.333333333333341,8.064516129032246,4.961832061068702,75.676,141.01244101244103,11.322519083969473
8.0,94.60000000000001,46.504093773929434,51.09607843137255,66.0685203062706,77.52808988764046,33.33333333333333,14.516129032258057,4.961832061068702,43.557,41.52724152724153,18.761832061068702
8.0,100.0,40.42587029510515,54.01372549019609,48.72768005188029,62.92134831460675,66.66666666666666,17.741935483870964,14.50381679389313,44.481,49.259,33.382
8.0,100.0,31.398362490428227,54.01372549019609,37.433399411925095,62.92134831460675,66.66666666666666,17.741935483870964,14.50381679389313,71.498,16.421183087849755,25.954198473282442
8.0,115.60000000000001,39.40743358661719,45.36666666666667,23.14568487144152,59.55056179775282,75.00000000000001,59.67741935483871,14.50381679389313,5.412,31.660231660231663,36.916793893129764
8.0,120.0,23.927666843376336,39.660784313725486,2.2498655091859074,62.92134831460675,66.66666666666666,17.741935483870964,14.50381679389313,101.704,4.404,34.885
8.0,120.0,34.77822936914649,39.660784313725486,15.824962968967625,62.92134831460675,66.66666666666666,17.741935483870964,14.50381679389313,106.255,2.874302874302874,33.57290076335878
8.0,135.60000000000002,37.268657595570474,39.099999999999994,17.982711482199313,66.29213483146067,75.00000000000001,53.2258064516129,14.50381679389313,78.043,7.707707707707708,38.188167938931294
8.0,0.0,37.405902102845026,49.02745098039216,87.85382138146015,55.0561797752809,91.66666666666667,82.25806451612905,33.587786259541986,74.288,57.252,95.894
8.0,20.0,36.2349060493609,39.61960784313725,77.13287692432405,16.853932584269668,66.66666666666666,93.54838709677419,89.31297709923665,74.098,50.417,43.478
8.0,40.0,36.871649879248395,52.28431372549019,88.30556312961966,47.19101123595506,66.66666666666666,91.93548387096779,47.32824427480916,74.381,18.719,37.886
8.0,60.0,35.20704482535194,44.429411764705875,88.36009639122456,68.53932584269663,50.0,91.93548387096779,37.786259541984734,74.626,58.363,11.429
8.0,60.0,35.247688048536254,44.429411764705875,88.41094497299129,68.53932584269663,50.0,91.93548387096779,37.786259541984734,74.339,59.535726202392866,11.112213740458007
8.0,74.8,44.976733227307534,58.82745098039216,92.14721032889452,89.88764044943821,24.999999999999993,53.2258064516129,37.786259541984734,27.865,22.522522522522525,-0.7416030534351082
8.0,80.0,48.48736525887966,50.33333333333334,90.97327133245392,98.87640449438202,8.333333333333341,1.6129032258064533,-3.435114503816794,74.259,156.394,11.877
8.0,80.0,47.19090534252224,50.33333333333334,89.35127526769199,98.87640449438202,8.333333333333341,1.6129032258064533,-3.435114503816794,74.136,151.02721769388435,11.75419847328244
8.0,94.60000000000001,51.6669611827767,51.96666666666667,72.52776406258059,76.40449438202248,33.33333333333333,14.516129032258057,-3.435114503816794,39.698,36.65093665093666,11.309541984732814
8.0,100.0,40.40525416740295,48.73137254901961,48.701887293013115,69.66292134831461,58.333333333333336,17.741935483870964,8.778625954198473,97.852,2.121,25.608
8.0,100.0,41.189256052306064,48.73137254901961,49.682749065933656,69.66292134831461,58.333333333333336,17.741935483870964,8.778625954198473,99.224,16.168549501882833,25.330916030534357
8.0,114.99999999999999,53.20551334157979,39.411764705882355,40.79751210417327,68.53932584269663,75.00000000000001,54.83870967741935,8.778625954198473,22.811,25.95452595452596,32.82442748091603
8.0,120.0,42.30370501266419,34.378431372549024,25.240056891456703,69.66292134831461,58.333333333333336,17.741935483870964,8.778625954198473,24.206,14.667,41.008
8.0,120.0,42.35082759026919,34.378431372549024,25.299011768867402,69.66292134831461,58.333333333333336,17.741935483870964,8.778625954198473,57.394,7.397874064540731,32.937404580152666
8.0,134.8,33.44466042292514,33.680392156862744,13.198523180320858,74.15730337078652,75.00000000000001,51.61290322580644,8.778625954198473,76.91,7.32637399304066,36.900381679389305
8.0,0.0,37.4047240384049,49.02745098039216,87.85234750952489,55.0561797752809,91.66666666666667,82.25806451612905,33.587786259541986,74.268,57.233,95.871
8.0,20.0,36.58184602697768,40.358823529411765,77.56693220926033,15.730337078651688,66.66666666666666,91.93548387096779,90.07633587786259,74.072,51.48,42.9
8.0,40.0,37.17323437592036,51.627450980392155,88.68287434504815,48.314606741573044,66.66666666666666,91.93548387096779,46.56488549618321,74.352,18.023,38.514
8.0,60.0,35.07686870471815,45.07843137254902,88.19723354237749,67.41573033707866,50.0,91.93548387096779,38.16793893129771,74.983,66.643,10.169
8.0,60.0,35.0650880603169,45.07843137254902,88.18249482302483,67.41573033707866,50.0,91.93548387096779,38.16793893129771,74.388,69.40750274083608,9.666412213740466
8.0,75.2,45.550450609648344,56.280392156862746,92.44640633175383,94.3820224719101,24.999999999999993,49.999999999999986,38.16793893129771,61.465,62.19552886219552,-0.1622137404580196
8.0,80.0,43.621959121163925,47.48627450980392,84.88618023979896,102.24719101123596,8.333333333333341,0.0,-5.7251908396946565,73.492,120.606,10.779
8.0,80.0,43.29327914236909,47.48627450980392,84.47496996985932,102.24719101123596,8.333333333333341,0.0,-5.7251908396946565,73.589,118.99518566185232,10.752671755725201
8.0,94.39999999999999,47.883607233315665,50.58039215686274,68.14962747886835,78.65168539325845,24.999999999999993,14.516129032258057,-5.7251908396946565,41.808,22.775156108489444,10.496564885496174
8.0,100.0,38.11509689580021,48.43333333333334,45.836680250853,69.66292134831461,66.66666666666666,14.516129032258057,10.305343511450381,93.182,3.546,27.616
8.0,100.0,39.545856158331866,48.43333333333334,47.626697716235434,69.66292134831461,66.66666666666666,14.516129032258057,10.305343511450381,79.022,16.421183087849755,25.954198473282442
8.0,114.60000000000001,51.23696766213113,39.470588235294116,38.632394231265245,68.53932584269663,75.00000000000001,53.2258064516129,10.305343511450381,36.606,25.95452595452596,32.82442748091603
8.0,120.0,42.59115273605466,34.08039215686274,25.59968164366198,69.66292134831461,66.66666666666666,14.516129032258057,10.305343511450381,20.701,14.167,40.218
8.0,120.0,43.72386169523473,34.08039215686274,27.016809509421723,69.66292134831461,66.66666666666666,14.516129032258057,10.305343511450381,53.948,7.907907907907907,33.421755725190835
8.0,134.60000000000002,26.9311421334747,34.65882352941177,5.049485250226608,73.03370786516854,75.00000000000001,54.83870967741935,10.305343511450381,76.658,7.540874207540874,37.29312977099238
8.0,0.0,37.491311774754074,49.02745098039216,87.96067709676706,55.0561797752809,91.66666666666667,82.25806451612905,33.587786259541986,74.294,57.291,95.947
8.0,20.0,36.25198798374271,38.98039215686274,77.15424806738542,17.97752808988764,66.66666666666666,93.54838709677419,88.54961832061069,74.272,49.326,44.277
8.0,40.0,36.60540731578018,53.59803921568628,87.97246807224919,44.943820224719104,66.66666666666666,91.93548387096779,49.23664122137404,74.294,20.206,36.239
8.0,60.0,35.376686104729934,41.752941176470586,88.5723339499031,73.03370786516854,41.66666666666667,90.32258064516132,35.87786259541985,74.391,19.539,17.259
8.0,60.0,35.36961771808918,41.752941176470586,88.56349071829148,73.03370786516854,41.66666666666667,90.32258064516132,35.87786259541985,74.32,19.667286333953,17.202671755725202
8.0,75.6,48.164575602285446,72.24901960784314,95.30129627036706,71.91011235955057,41.66666666666667,58.06451612903225,35.87786259541985,64.158,58.41079174412508,-1.821755725190849
8.0,80.0,37.12552276609531,48.67058823529412,76.75851345276608,101.12359550561798,8.333333333333341,1.6129032258064533,-4.580152671755725,74.797,80.581,10.877
8.0,80.0,37.546091771219885,48.67058823529412,77.28468573365659,101.12359550561798,8.333333333333341,1.6129032258064533,-4.580152671755725,74.449,83.24991658324991,10.829007633587793
8.0,94.60000000000001,45.01266419273134,51.09607843137255,64.20259843622188,77.52808988764046,24.999999999999993,14.516129032258057,-4.580152671755725,38.007,17.350684017350684,12.087786259541991
8.0,100.0,35.840254461919066,49.32156862745098,42.990633543851374,68.53932584269663,58.333333333333336,14.516129032258057,11.068702290076336,96.077,3.47,28.044
8.0,100.0,38.59280202627083,49.32156862745098,46.434335320604,68.53932584269663,58.333333333333336,14.516129032258057,11.068702290076336,74.665,16.421183087849755,25.954198473282442
8.0,115.19999999999999,50.1631619249573,39.233333333333334,36.854167741364954,68.53932584269663,75.00000000000001,53.2258064516129,11.068702290076336,35.363,25.95452595452596,32.82442748091603
8.0,120.0,42.341992106968256,34.96862745098039,25.287957729352893,68.53932584269663,58.333333333333336,14.516129032258057,11.068702290076336,12.842,12.503,37.507
8.0,120.0,42.427401778877304,34.96862745098039,25.394813444659793,68.53932584269663,58.333333333333336,14.516129032258057,11.068702290076336,67.353,6.568473235139903,33.238931297709925
8.0,135.0,32.02273664369441,33.82156862745098,11.419559754452935,74.15730337078652,75.00000000000001,53.2258064516129,11.068702290076336,75.911,7.445540778874111,37.085496183206104
8.0,0.0,37.333451139777345,49.02745098039216,87.76317825744121,55.0561797752809,91.66666666666667,82.25806451612905,33.587786259541986,74.31,57.243,95.88
8.0,20.0,38.52918654650409,38.98039215686274,80.0032425182576,17.97752808988764,66.66666666666666,93.54838709677419,87.78625954198473,74.913,48.491,45.898
8.0,40.0,37.279260175531604,52.94117647058824,88.81552281922224,46.06741573033708,66.66666666666666,95.16129032258064,49.23664122137404,74.252,20.039,36.859
8.0,60.0,35.10455321906109,42.40196078431372,88.2318695328563,71.91011235955057,41.66666666666667,90.32258064516132,37.02290076335878,74.468,27.594,16.477
8.0,60.0,35.08040289803853,42.40196078431372,88.2016551581833,71.91011235955057,41.66666666666667,90.32258064516132,37.02290076335878,74.313,28.05186138519472,16.366412213740457
8.0,75.6,50.25210579018672,69.46274509803922,97.91299733966116,76.40449438202248,41.66666666666667,59.67741935483871,37.02290076335878,72.391,67.5961675961676,-1.8209923664122194
8.0,80.0,37.94781174530247,45.46862745098039,77.78727606358284,104.49438202247192,8.333333333333341,-1.6129032258064533,-7.633587786259542,74.198,66.743,10.234
8.0,80.0,38.21110914767038,45.46862745098039,78.11668644111512,104.49438202247192,8.333333333333341,-1.6129032258064533,-7.633587786259542,73.702,67.78683445350111,10.195419847328239
8.0,94.60000000000001,43.89232491017259,50.22941176470589,62.80094622578244,78.65168539325845,24.999999999999993,14.516129032258057,-7.633587786259542,36.287,10.968110968110967,11.636259541984742
8.0,100.0,33.65612298992755,48.43333333333334,40.25807497586534,69.66292134831461,66.66666666666666,14.516129032258057,10.687022900763358,91.391,4.061,28.811
8.0,100.0,37.47069564705189,48.43333333333334,45.03047230226166,69.66292134831461,66.66666666666666,14.516129032258057,10.687022900763358,75.885,16.421183087849755,25.954198473282442
8.0,114.80000000000001,49.082876833362796,39.38823529411765,35.78487365232835,68.53932584269663,75.00000000000001,53.2258064516129,10.687022900763358,28.312,28.09476142809476,33.98587786259542
8.0,120.0,44.02014490192613,34.08039215686274,27.387488301141516,69.66292134831461,66.66666666666666,14.516129032258057,10.687022900763358,15.113,12.713,38.005
8.0,120.0,43.77216233727985,34.08039215686274,27.077238258767693,69.66292134831461,66.66666666666666,14.516129032258057,10.687022900763358,56.389,7.588540921874253,33.24541984732825
8.0,134.39999999999998,28.36072333156624,34.523529411764706,6.838028843673773,73.03370786516854,75.00000000000001,53.2258064516129,10.687022900763358,84.443,6.8830735497402165,37.38282442748091
8.0,0.0,37.29457501325323,49.02745098039216,87.71454048357738,55.0561797752809,91.66666666666667,82.25806451612905,33.587786259541986,74.285,57.21,95.83
8.0,20.0,35.62407963715616,39.61960784313725,76.36867432588782,16.853932584269668,66.66666666666666,93.54838709677419,88.93129770992367,74.513,49.788,44.268
8.0,40.0,36.26671378924427,52.28431372549019,87.54872989085978,47.19101123595506,66.66666666666666,91.93548387096779,47.70992366412214,74.452,19.119,37.777
8.0,60.0,34.89367968427873,43.70196078431373,87.96804645644339,69.66292134831461,41.66666666666667,90.32258064516132,37.404580152671755,74.313,47.276,13.001
8.0,60.0,34.97025387288685,43.70196078431373,88.06384813223579,69.66292134831461,41.66666666666667,90.32258064516132,37.404580152671755,74.249,47.74774774774775,12.947709923664123
8.0,75.0,54.48312422689522,63.672549019607835,103.83133009572798,83.14606741573036,33.33333333333333,54.83870967741935,37.404580152671755,59.755,50.64111730778398,-2.1526717557251858
8.0,80.0,46.09236025210579,45.46862745098039,87.976889688055,104.49438202247192,8.333333333333341,-1.6129032258064533,-7.633587786259542,78.043,136.537,11.109
8.0,80.0,44.93785710078342,45.46862745098039,86.53249519149281,104.49438202247192,8.333333333333341,-1.6129032258064533,-7.633587786259542,74.861,122.78945612278946,10.614503816793894
8.0,94.39999999999999,48.64699299051659,50.58039215686274,69.10469649292172,78.65168539325845,24.999999999999993,14.516129032258057,-7.633587786259542,38.957,24.04309070975738,10.216793893129761
8.0,100.0,35.43735642339636,47.54705882352941,42.48656934198987,70.7865168539326,66.66666666666666,14.516129032258057,8.778625954198473,80.246,4.147,27.62
8.0,100.0,38.17458915002651,47.54705882352941,45.911110783584014,70.7865168539326,66.66666666666666,14.516129032258057,8.778625954198473,62.039,16.421183087849755,25.954198473282442
8.0,115.19999999999999,50.12840902397361,37.84509803921569,36.81068851927456,70.7865168539326,75.00000000000001,54.83870967741935,8.778625954198473,33.031,25.95452595452596,32.82442748091603
8.0,120.0,42.78612240089533,33.19411764705883,25.843607448948763,70.7865168539326,66.66666666666666,14.516129032258057,8.778625954198473,25.871,14.538,40.81
8.0,120.0,43.391058490899454,33.19411764705883,26.600440687708648,70.7865168539326,66.66666666666666,14.516129032258057,8.778625954198473,66.545,5.977405977405978,32.18778625954199
8.0,135.39999999999998,28.984508452612356,33.1078431372549,7.618444033397938,75.2808988764045,66.66666666666666,53.2258064516129,8.778625954198473,70.519,7.87454120787454,36.727862595419836
8.0,0.0,37.27042469223066,49.02745098039216,87.6843261089044,55.0561797752809,91.66666666666667,82.25806451612905,33.587786259541986,74.317,57.229,95.853
8.0,20.0,36.187194439535844,39.61960784313725,77.0731851109457,16.853932584269668,66.66666666666666,93.54838709677419,88.93129770992367,74.294,49.936,43.958
8.0,40.0,36.81451375390234,51.63529411764706,88.23408034075919,48.314606741573044,66.66666666666666,93.54838709677419,46.94656488549619,74.053,18.514,37.872
8.0,60.0,35.30953643164281,44.429411764705875,88.48832324959284,68.53932584269663,41.66666666666667,91.93548387096779,37.786259541984734,74.365,59.617,11.145
8.0,60.0,35.36667255698887,44.429411764705875,88.55980603845332,68.53932584269663,41.66666666666667,91.93548387096779,37.786259541984734,74.397,59.65965965965966,11.185114503816797
8.0,75.4,51.17688637568475,59.6843137254902,99.27780275171891,89.88764044943821,24.999999999999993,51.61290322580644,37.786259541984734,30.918,22.45578912245579,-1.8083969465648855
8.0,80.0,43.39635978088001,52.670588235294126,84.60393376419523,96.62921348314606,8.333333333333341,4.83870967741936,-1.5267175572519083,71.18,135.006,11.441
8.0,80.0,43.0735701242858,52.670588235294126,84.20009285393192,96.62921348314606,8.333333333333341,4.83870967741936,-1.5267175572519083,73.383,138.5957385957386,11.580152671755716
8.0,95.19999999999999,49.306709076986515,50.049019607843135,68.50556755123547,77.52808988764046,24.999999999999993,14.516129032258057,-1.5267175572519083,43.779,26.75532675532676,11.722900763358778
8.0,100.0,35.24827708075632,49.32156862745098,42.25001289637944,68.53932584269663,66.66666666666666,14.516129032258057,10.687022900763358,85.149,4.633,28.779
8.0,100.0,38.588678800730406,49.32156862745098,46.42917676883055,68.53932584269663,66.66666666666666,14.516129032258057,10.687022900763358,89.384,16.421183087849755,25.954198473282442
8.0,115.19999999999999,50.36284384755846,38.588235294117645,37.103989034392804,69.66292134831461,75.00000000000001,54.83870967741935,10.687022900763358,30.908,27.556127556127556,33.42061068702291
8.0,120.0,46.13064734640985,34.96862745098039,30.02792987317332,68.53932584269663,66.66666666666666,14.516129032258057,10.687022900763358,18.914,13.185,39.135
8.0,120.0,44.224539082287805,34.96862745098039,27.643205081910427,68.53932584269663,66.66666666666666,14.516129032258057,10.687022900763358,64.29,6.678106678106678,32.966030534351134
8.0,134.60000000000002,38.56040525416741,33.91960784313726,19.598812059220172,74.15730337078652,75.00000000000001,54.83870967741935,10.687022900763358,79.048,6.806806806806807,36.60725190839695
8.0,0.0,37.4000117806444,49.02745098039216,87.84645202178383,55.0561797752809,91.66666666666667,82.25806451612905,33.587786259541986,74.362,57.314,95.975
8.0,20.0,36.24374153266183,38.98039215686274,77.14393096383854,17.97752808988764,66.66666666666666,93.54838709677419,88.93129770992367,74.384,49.592,44.249
8.0,40.0,36.821582140543086,52.94117647058824,88.24292357237078,46.06741573033708,66.66666666666666,93.54838709677419,48.473282442748086,74.249,19.601,36.935
8.0,60.0,34.83183130117217,42.40196078431372,87.89066817984185,71.91011235955057,41.66666666666667,90.32258064516132,37.02290076335878,74.362,27.17,16.275
8.0,60.0,34.89309065205867,42.40196078431372,87.96730952047577,71.91011235955057,41.66666666666667,90.32258064516132,37.02290076335878,74.333,27.44649411316078,16.286259541984737
8.0,74.6,56.73676150085411,69.04313725490196,107.07090060944604,74.15730337078652,41.66666666666667,58.06451612903225,37.02290076335878,96.357,83.81238381238383,-0.7648854961832134
8.0,80.0,49.10938328326559,46.2921568627451,91.75147571427517,103.37078651685394,8.333333333333341,-1.6129032258064533,-7.633587786259542,73.74,142.319,10.942
8.0,80.0,47.472462743712086,46.2921568627451,89.70353066022093,103.37078651685394,8.333333333333341,-1.6129032258064533,-7.633587786259542,73.663,135.8310691644025,10.84694656488549
8.0,95.0,51.18277669788538,50.39607843137255,71.20938561648377,77.52808988764046,33.33333333333333,14.516129032258057,-7.633587786259542,45.786,37.53753753753754,10.605725190839687
8.0,100.0,34.32290746303823,47.70392156862745,41.09228649122677,70.7865168539326,58.333333333333336,16.129032258064512,9.16030534351145,67.769,7.331,30.971
8.0,100.0,36.600695058019674,47.70392156862745,43.94201787806657,70.7865168539326,58.333333333333336,16.129032258064512,9.16030534351145,106.252,15.134181800848467,25.058396946564894
8.0,114.60000000000001,48.528008482063974,37.34117647058824,35.24322571611753,71.91011235955057,75.00000000000001,54.83870967741935,9.16030534351145,24.64,29.014729014729014,34.66870229007633
8.0,120.0,39.987041291158626,33.35098039215686,22.341687730753073,70.7865168539326,58.333333333333336,16.129032258064512,9.16030534351145,24.634,14.567,40.596
8.0,120.0,41.13094186251989,33.35098039215686,23.77281737989786,70.7865168539326,58.333333333333336,16.129032258064512,9.16030534351145,62.206,6.792506792506792,32.664122137404576
8.0,134.60000000000002,26.23549508158096,33.05294117647058,4.179163872451122,75.2808988764045,66.66666666666666,53.2258064516129,9.16030534351145,61.842,8.618141951475284,36.36221374045802
6.0,0.0,37.46068209931083,49.06078431372549,87.9223564264501,55.0561797752809,91.66666666666667,83.87096774193552,33.587786259541986,74.278,62.267,95.329
6.0,20.0,39.776167756376275,31.14313725490196,81.56333596173828,31.460674157303377,58.333333333333336,96.77419354838709,82.82442748091603,74.03,42.676,52.69
6.0,40.0,37.81115627024798,66.02156862745097,89.48097599799554,23.59550561797753,83.33333333333334,91.93548387096779,59.541984732824424,74.526,27.28,25.684
6.0,60.0,34.98439064616834,33.015686274509804,88.081534595459,87.64044943820225,33.33333333333333,85.48387096774196,28.62595419847328,74.301,7.455,30.01
6.0,60.0,35.06273193143665,33.015686274509804,88.17954707915429,87.64044943820225,33.33333333333333,85.48387096774196,28.62595419847328,74.5,7.507507507507507,30.166412213740458
6.0,73.2,50.86116510573129,67.90392156862745,101.2306830659484,73.03370786516854,24.999999999999993,70.96774193548389,28.62595419847328,95.469,88.5885885885886,-1.4564885496183106
6.0,80.0,41.972079872769044,46.2921568627451,82.82202259445677,103.37078651685394,16.666666666666682,-1.6129032258064533,-7.251908396946565,80.691,127.237,10.368
6.0,80.0,41.93143664958473,46.2921568627451,82.77117401269003,103.37078651685394,16.666666666666682,-1.6129032258064533,-7.251908396946565,78.816,123.39482339482339,10.298091603053432
6.0,92.8,52.452141132119934,52.11568627450981,76.6803982401969,79.77528089887642,33.33333333333333,11.290322580645151,-7.251908396946565,49.77,69.41703608370275,11.189312977099226
6.0,100.0,40.996642516345645,48.73137254901961,49.441771004517406,69.66292134831461,58.333333333333336,17.741935483870964,9.923664122137405,-0.608,18.199,33.39
6.0,100.0,35.65883253813984,48.73137254901961,42.76365726582017,69.66292134831461,58.333333333333336,17.741935483870964,9.923664122137405,35.943,42.99060965727632,36.95419847328244
6.0,113.00000000000001,46.962360841138015,44.34313725490197,34.824646086501545,61.79775280898877,75.00000000000001,45.161290322580626,9.923664122137405,56.466,25.592258925592258,31.033587786259538
6.0,120.0,38.78836072333157,34.378431372549024,20.842023036618347,69.66292134831461,58.333333333333336,17.741935483870964,9.923664122137405,-2.937,9.252,31.381
6.0,120.0,29.25899746716145,34.378431372549024,8.919872952239178,69.66292134831461,58.333333333333336,17.741935483870964,9.923664122137405,65.917,7.083273749940417,33.30992366412213
6.0,134.20000000000002,32.08163986570066,34.39803921568627,11.493253351216312,71.91011235955057,75.00000000000001,41.935483870967765,9.923664122137405,61.501,8.255874922541588,35.649618320610685
6.0,0.0,37.378217588502096,49.02745098039216,87.81918539098137,55.0561797752809,91.66666666666667,82.25806451612905,33.587786259541986,74.336,62.353,95.37
6.0,20.0,35.94156800376981,30.5,76.76588281244243,32.58426966292135,58.333333333333336,96.77419354838709,83.20610687022901,71.482,44.025,47.544
6.0,40.0,36.96707309889851,65.9470588235294,88.42494675637633,23.59550561797753,83.33333333333334,93.54838709677419,58.778625954198475,74.893,26.517,26.228
6.0,60.0,34.549095835542204,29.668627450980395,87.53693891537763,93.25842696629213,24.999999999999993,83.87096774193552,25.572519083969464,74.346,8.313,33.926
6.0,60.0,34.631560346350945,29.668627450980395,87.64010995084637,93.25842696629213,24.999999999999993,83.87096774193552,25.572519083969464,74.359,8.332141665474998,33.96221374045801
6.0,73.2,46.88343052364964,66.51764705882353,96.25415447651754,75.2808988764045,24.999999999999993,70.96774193548389,25.572519083969464,91.5,91.5296248629582,-1.3377862595419832
6.0,80.0,40.13429934617424,46.2921568627451,80.52278237543939,103.37078651685394,0.0,-1.6129032258064533,-7.633587786259542,61.256,60.808,11.071
6.0,80.0,40.762207692760796,46.2921568627451,81.30835611693699,103.37078651685394,0.0,-1.6129032258064533,-7.633587786259542,89.838,139.76833976833979,10.881679389312973
6.0,93.6,50.481828356011086,51.57647058823529,72.8136952180225,78.65168539325845,33.33333333333333,11.290322580645151,-7.633587786259542,24.673,25.125125125125123,12.74656488549619
6.0,100.0,46.471697001826,50.617647058823536,56.29159082367333,67.41573033707866,58.333333333333336,19.35483870967742,11.83206106870229,32.854,34.835,30.473
6.0,100.0,42.29486952936326,50.617647058823536,51.065977877182256,67.41573033707866,58.333333333333336,19.35483870967742,11.83206106870229,60.457,58.25349158682492,33.957633587786255
6.0,113.6,48.829003946515876,47.254901960784316,36.51591413222105,57.30337078651686,75.00000000000001,46.77419354838708,11.83206106870229,33.118,32.251298917965585,33.24580152671755
6.0,120.0,43.55480944807682,36.26470588235294,26.805308886710826,67.41573033707866,58.333333333333336,19.35483870967742,11.83206106870229,2.297,9.409,32.436
6.0,120.0,10.046533545384932,36.26470588235294,-15.116767504071571,67.41573033707866,58.333333333333336,19.35483870967742,11.83206106870229,107.167,3.856237189570523,32.44732824427481
6.0,133.4,37.83236143017023,35.911764705882355,18.68795920322483,69.66292134831461,75.00000000000001,41.935483870967765,11.83206106870229,94.615,4.909671576338242,35.74961832061068
6.0,0.0,37.50839370913589,49.02745098039216,87.98204823982843,55.0561797752809,91.66666666666667,82.25806451612905,33.587786259541986,74.371,62.405,95.487
6.0,20.0,38.730046533545384,32.42549019607843,80.25453768322069,29.21348314606742,58.333333333333336,96.77419354838709,84.35114503816794,74.642,44.597,51.371
6.0,40.0,37.58791305884432,65.30196078431374,89.20167726626234,24.71910112359551,83.33333333333334,93.54838709677419,58.01526717557252,72.877,25.959,24.279
6.0,60.0,34.9254874241621,32.872549019607845,88.00784099869561,87.64044943820225,33.33333333333333,83.87096774193552,27.099236641221374,74.297,7.393,29.957
6.0,60.0,34.908994522000356,32.872549019607845,87.98720679160188,87.64044943820225,33.33333333333333,83.87096774193552,27.099236641221374,74.384,7.40264073597407,30.014885496183208
6.0,72.8,46.557106673735056,66.36666666666667,96.29321208280213,74.15730337078652,24.999999999999993,70.96774193548389,27.099236641221374,100.751,97.78349778349778,-1.2637404580152591
6.0,80.0,39.63067679802085,45.91764705882353,79.89270212311251,103.37078651685394,8.333333333333341,-3.2258064516129066,-7.251908396946565,79.251,103.527,10.006
6.0,80.0,40.10602579961124,45.91764705882353,80.48740944899298,103.37078651685394,8.333333333333341,-3.2258064516129066,-7.251908396946565,87.149,126.68859335526001,10.812595419847332
6.0,93.8,50.444719326147144,51.2235294117647,72.41501285953264,78.65168539325845,16.666666666666682,11.290322580645151,-7.251908396946565,43.032,38.52423852423853,11.211450381679398
6.0,100.0,45.34664546150675,49.6078431372549,54.88404312549282,68.53932584269663,58.333333333333336,17.741935483870964,9.923664122137405,36.1,31.288,28.976
6.0,100.0,41.70348118042057,49.6078431372549,50.32609416567794,68.53932584269663,58.333333333333336,17.741935483870964,9.923664122137405,35.34,43.91057724391057,32.09580152671756
6.0,113.00000000000001,48.664074924898394,44.41960784313726,36.95365409699551,61.79775280898877,75.00000000000001,46.77419354838708,9.923664122137405,46.61,28.71442871442872,29.62862595419848
6.0,120.0,38.26117688637568,35.25490196078431,20.182465345586124,68.53932584269663,58.333333333333336,17.741935483870964,9.923664122137405,-1.729,9.581,31.961
6.0,120.0,30.851740590210287,35.25490196078431,10.9125478087209,68.53932584269663,58.333333333333336,17.741935483870964,9.923664122137405,101.55,3.112636445969779,32.341221374045794
6.0,134.60000000000002,37.603816928786,33.51176470588236,18.402028047782927,73.03370786516854,66.66666666666666,40.32258064516132,9.923664122137405,70.783,7.321607321607322,35.88587786259543
6.0,0.0,37.567885963362194,49.02745098039216,88.05647877255944,55.0561797752809,91.66666666666667,82.25806451612905,33.587786259541986,74.217,62.148,95.3
6.0,20.0,36.775637627378224,32.42549019607843,77.80938414261183,29.21348314606742,58.333333333333336,96.77419354838709,83.58778625954199,74.771,43.524,51.735
6.0,40.0,37.10490663839312,66.6686274509804,88.59738977280264,22.471910112359552,83.33333333333334,91.93548387096779,59.541984732824424,72.848,27.613,24.751
6.0,60.0,34.96966484066679,32.227450980392156,88.06311119626815,88.76404494382022,33.33333333333333,83.87096774193552,25.954198473282442,74.439,7.589,30.842
6.0,60.0,35.095128703540084,32.227450980392156,88.22007855737414,88.76404494382022,33.33333333333333,83.87096774193552,25.954198473282442,74.417,7.607607607607607,30.85496183206106
6.0,74.4,48.93915297166756,69.59411764705882,97.52684289262106,74.15730337078652,24.999999999999993,70.96774193548389,25.954198473282442,72.432,76.69574336241003,-1.2877862595419938
6.0,80.0,37.49248983919421,49.14901960784314,77.21762456060193,100.0,0.0,0.0,-6.106870229007633,76.539,103.299,9.727
6.0,80.0,38.35601107380573,49.14901960784314,78.29797268915303,100.0,0.0,0.0,-6.106870229007633,74.652,104.29477096143762,10.00687022900764
6.0,92.8,48.51681686988278,51.01764705882352,71.75692904043568,80.89887640449439,24.999999999999993,9.677419354838698,-6.106870229007633,42.288,32.57543257543258,11.133206106870222
6.0,100.0,40.917712198857274,48.58431372549019,49.34302158485448,69.66292134831461,66.66666666666666,16.129032258064512,9.923664122137405,48.614,41.775,33.811
6.0,100.0,38.52506332096366,48.58431372549019,46.3495876843261,69.66292134831461,66.66666666666666,16.129032258064512,9.923664122137405,38.664,45.11654511654512,34.86984732824427
6.0,112.79999999999998,43.550097190316315,43.576470588235296,30.786973919836107,62.92134831460675,75.00000000000001,43.54838709677418,9.923664122137405,54.221,25.792459125792462,32.188931297709914
6.0,120.0,39.47870648524475,34.2313725490196,21.705711990685128,69.66292134831461,66.66666666666666,16.129032258064512,9.923664122137405,8.916,11.678,35.658
6.0,120.0,27.618542734287566,34.2313725490196,6.867506282379124,69.66292134831461,66.66666666666666,16.129032258064512,9.923664122137405,54.833,8.0318413651747,32.971755725190846
6.0,133.20000000000002,28.056782706014015,33.41764705882353,6.457769884374745,73.03370786516854,75.00000000000001,40.32258064516132,9.923664122137405,75.85,7.188140521473856,36.33282442748092
6.0,0.0,37.68215821405431,49.02745098039216,88.1994443502804,55.0561797752809,91.66666666666667,82.25806451612905,33.587786259541986,74.285,62.253,95.455
6.0,20.0,35.55810802850916,32.42549019607843,76.28613749751284,29.21348314606742,58.333333333333336,96.77419354838709,83.20610687022901,73.66,44.03,49.623
6.0,40.0,37.20798727690405,66.6686274509804,88.72635356713855,22.471910112359552,83.33333333333334,91.93548387096779,59.541984732824424,74.529,27.261,26.047
6.0,60.0,35.25593449961713,30.14705882352941,88.42126207653817,92.13483146067416,33.33333333333333,82.25806451612905,25.954198473282442,74.291,8.313,33.588
6.0,60.0,35.26771514401838,30.14705882352941,88.43600079589083,92.13483146067416,33.33333333333333,82.25806451612905,25.954198473282442,74.23,8.30354163687497,33.551908396946565
6.0,73.0,45.83082994639807,66.09803921568627,95.15980456458138,75.2808988764045,24.999999999999993,70.96774193548389,25.954198473282442,88.064,88.6886886886887,-1.1709923664122075
6.0,80.0,41.65930376391589,46.2921568627451,82.43070959564322,103.37078651685394,16.666666666666682,-1.6129032258064533,-7.633587786259542,89.062,142.633,11.192
6.0,80.0,41.9868056782706,46.2921568627451,82.8404459936476,103.37078651685394,16.666666666666682,-1.6129032258064533,-7.633587786259542,75.399,113.56118022784692,9.955343511450392
6.0,92.8,51.89491665194087,52.11568627450981,75.98325681481536,79.77528089887642,33.33333333333333,11.290322580645151,-7.633587786259542,46.581,58.711092044425385,11.042366412213735
6.0,100.0,49.88631678152795,47.70392156862745,60.5636086280463,70.7865168539326,58.333333333333336,16.129032258064512,9.923664122137405,29.726,26.584,26.879
6.0,100.0,41.61159215409083,47.70392156862745,50.21113215472708,70.7865168539326,58.333333333333336,16.129032258064512,9.923664122137405,53.03,53.053053053053056,33.535877862595406
6.0,113.00000000000001,55.02856806267303,45.12745098039216,44.91624722727842,60.67415730337079,75.00000000000001,45.161290322580626,9.923664122137405,69.134,23.99065732399066,26.62519083969465
6.0,120.0,47.79937562584674,33.35098039215686,32.1156694694798,70.7865168539326,58.333333333333336,16.129032258064512,9.923664122137405,6.397,9.862,33.321
6.0,120.0,30.355775460917712,33.35098039215686,10.292047723973264,70.7865168539326,58.333333333333336,16.129032258064512,9.923664122137405,68.506,6.639973306639972,33.096183206106865
6.0,133.4,36.02933380455911,33.43137254901961,16.432198206297855,73.03370786516854,75.00000000000001,40.32258064516132,9.923664122137405,69.485,7.3931073931073925,35.645419847328256
6.0,0.0,37.465983389291395,49.02745098039216,87.9289888501588,55.0561797752809,91.66666666666667,82.25806451612905,33.587786259541986,74.307,62.3,95.375
6.0,20.0,37.1302350238558,31.14313725490196,78.25301959512737,31.460674157303377,58.333333333333336,96.77419354838709,82.82442748091603,73.379,42.728,51.004
6.0,40.0,36.61011957354068,66.6686274509804,87.97836355999027,22.471910112359552,83.33333333333334,91.93548387096779,60.30534351145038,73.975,28.452,25.639
6.0,60.0,35.10101902574071,31.586274509803925,88.22744791705048,89.88764044943821,33.33333333333333,83.87096774193552,25.954198473282442,74.455,7.841,31.809
6.0,60.0,35.12634741120339,31.586274509803925,88.25913616365874,89.88764044943821,33.33333333333333,83.87096774193552,25.954198473282442,74.285,7.822107822107823,31.708015267175565
6.0,72.8,47.76815691818342,66.25686274509803,97.80835243225717,74.15730337078652,24.999999999999993,69.35483870967742,25.954198473282442,93.691,92.64979264979266,-1.3729007633587709
6.0,80.0,43.142486894033105,45.91764705882353,84.28631436214506,103.37078651685394,16.666666666666682,-3.2258064516129066,-7.251908396946565,81.744,133.958,10.7
6.0,80.0,44.06608941509101,45.91764705882353,85.44182995939482,103.37078651685394,16.666666666666682,-3.2258064516129066,-7.251908396946565,77.464,128.4903951570618,10.462977099236644
6.0,92.8,53.11892560523061,51.24313725490196,77.51460975555834,80.89887640449439,33.33333333333333,11.290322580645151,-7.251908396946565,41.892,55.069355069355076,10.836641221374045
6.0,100.0,41.17217411792426,47.70392156862745,49.661377922872276,70.7865168539326,58.333333333333336,16.129032258064512,9.923664122137405,34.78,25.754,32.0
6.0,100.0,37.11374212169406,47.70392156862745,44.583889105875585,70.7865168539326,58.333333333333336,16.129032258064512,9.923664122137405,45.235,49.06334906334906,36.850763358778615
6.0,113.00000000000001,45.669435118100964,44.41960784313726,33.20707163754542,61.79775280898877,75.00000000000001,46.77419354838708,9.923664122137405,86.63,23.69035702369036,30.478244274809164
6.0,120.0,39.2660658538022,33.35098039215686,21.439678106369335,70.7865168539326,58.333333333333336,16.129032258064512,9.923664122137405,5.669,10.992,34.402
6.0,120.0,35.93567768156918,33.35098039215686,17.273042145367988,70.7865168539326,58.333333333333336,16.129032258064512,9.923664122137405,48.836,8.398875065541734,32.88282442748092
6.0,132.79999999999998,34.54850680332214,33.39411764705882,14.57954118366655,73.03370786516854,66.66666666666666,40.32258064516132,9.923664122137405,66.026,7.660040993374325,35.406870229007644
6.0,0.0,36.99357954880132,49.02745098039216,87.33796620411653,55.0561797752809,91.66666666666667,82.25806451612905,33.587786259541986,74.243,62.219,95.04
6.0,20.0,39.63480002356129,30.5,81.38647132950616,32.58426966292135,58.333333333333336,96.77419354838709,82.82442748091603,75.318,42.133,55.39
6.0,40.0,36.865759557047774,66.02156862745097,88.29819376994332,23.59550561797753,83.33333333333334,91.93548387096779,59.541984732824424,74.504,27.451,25.781
6.0,60.0,34.919008069741416,37.772549019607844,87.99973470305164,79.77528089887642,41.66666666666667,88.70967741935488,30.15267175572519,75.016,6.945,23.278
6.0,60.0,34.93903516522354,37.772549019607844,88.0247905259512,79.77528089887642,41.66666666666667,88.70967741935488,30.15267175572519,74.313,6.806806806806807,22.767938931297703
6.0,72.8,49.07580844672204,67.85882352941177,99.44435028040415,71.91011235955057,24.999999999999993,72.58064516129033,30.15267175572519,104.152,97.96939796939797,-1.2095419847328177
6.0,80.0,39.583554220415856,46.2921568627451,79.83374724570182,103.37078651685394,16.666666666666682,-1.6129032258064533,-7.251908396946565,76.565,100.338,9.927
6.0,80.0,40.4093773929434,46.2921568627451,80.86693147232437,103.37078651685394,16.666666666666682,-1.6129032258064533,-7.251908396946565,86.218,128.27589494256162,10.691603053435115
6.0,92.8,50.60316899334394,52.11568627450981,74.36715623779449,79.77528089887642,33.33333333333333,11.290322580645151,-7.251908396946565,34.397,37.408837408837414,11.667938931297707
6.0,100.0,44.89367968427873,49.6078431372549,54.31733936638244,68.53932584269663,58.333333333333336,17.741935483870964,10.305343511450381,65.765,36.913,30.358
6.0,100.0,40.54838899687813,49.6078431372549,48.88096273314812,68.53932584269663,58.333333333333336,17.741935483870964,10.305343511450381,47.129,56.29915629915631,34.163740458015276
6.0,114.39999999999999,52.1264063144254,46.90196078431373,39.90655651930404,57.30337078651686,75.00000000000001,46.77419354838708,10.305343511450381,44.468,33.93870060536727,28.063740458015264
6.0,120.0,10.740413500618482,35.25490196078431,-14.248656934198985,68.53932584269663,58.333333333333336,17.741935483870964,10.305343511450381,-13.75,11.807,33.413
6.0,120.0,30.65735995758968,35.25490196078431,10.669358939401755,68.53932584269663,58.333333333333336,17.741935483870964,10.305343511450381,109.786,3.0745030745030744,32.32404580152672
6.0,132.79999999999998,38.41609236025211,33.39411764705882,19.418262747149896,73.03370786516854,66.66666666666666,40.32258064516132,10.305343511450381,81.055,6.1585394918728245,35.54694656488549
