Periode(s),Step,Pitch Angle,CoMx(m),CoMy(m),CoMz(m),Left Ankle Angle Now,Omega (theta/s),Left Ankle Speed(rpm),Goal,Pola
1.0,0.0,88.833,-0.002,-0.009,0.17,411,-17.839,8.991,550,tengkurap
1.0,0.1,86.833,-0.007,-0.009,0.172,429.6,-13.304,8.991,550,tengkurap
1.0,0.3,84.538,-0.019,-0.012,0.174,466.25,-12.426,8.991,550,tengkurap
1.0,0.5,80.301,-0.03,-0.011,0.173,503.63,-11.907,8.991,550,tengkurap
1.0,0.71,77.253,-0.041,-0.011,0.17,542.59,1.703,8.991,550,tengkurap
1.0,0.91,77.72,-0.041,-0.011,0.168,550,-0.075,8.991,550,tengkurap
1.0,1.0,84.117,-0.033,-0.01,0.172,521,19.726,7.548,406,tengkurap
1.0,1.1,86.652,-0.028,-0.009,0.174,505.38,12.146,7.548,406,tengkurap
1.0,1.31,88.047,-0.017,-0.009,0.175,472.82,16.329,7.548,406,tengkurap
1.0,1.5,90.887,-0.007,-0.011,0.176,442.5,15.223,7.548,406,tengkurap
1.0,1.7,93.671,0.003,-0.013,0.173,412.35,16.062,7.548,406,tengkurap
1.0,1.8900000000000001,95.101,0.006,-0.013,0.171,406,-0.022,7.548,406,tengkurap
1.0,2.0,94.84,0.006,-0.013,0.172,404,2.703,0.555,406,tengkurap
1.0,2.1,94.826,0.006,-0.013,0.171,405.15,0.238,0.555,406,tengkurap
1.0,2.29,94.098,0.007,-0.013,0.171,406,-2.839,0.555,406,tengkurap
1.0,2.48,94.353,0.008,-0.013,0.171,406,-2.671,0.555,406,tengkurap
1.0,2.68,93.089,0.008,-0.013,0.171,406,-3.113,0.555,406,tengkurap
1.0,2.87,93.223,0.008,-0.013,0.171,406,0.131,0.555,406,tengkurap
1.0,3.0,105.548,0.015,-0.013,0.167,382,36.474,6.105,288,tengkurap
1.0,3.1,104.501,0.022,-0.014,0.164,369.37,-37.419,6.105,288,tengkurap
1.0,3.3,94.954,0.03,-0.016,0.153,344.0,-58.541,6.105,288,tengkurap
1.0,3.51,81.395,0.04,-0.017,0.138,317.49,-44.396,6.105,288,tengkurap
1.0,3.7199999999999998,73.721,0.048,-0.019,0.122,290.96,53.619,6.105,288,tengkurap
1.0,3.91,80.711,0.048,-0.018,0.114,288,1.871,6.105,288,tengkurap
1.0,4.0,70.122,0.045,-0.019,0.116,288,-44.037,2.22,318,tengkurap
1.0,4.1,64.628,0.041,-0.019,0.117,292.59,-45.701,2.22,318,tengkurap
1.0,4.3,51.138,0.034,-0.018,0.119,301.91,-79.487,2.22,318,tengkurap
1.0,4.5,42.703,0.027,-0.017,0.121,311.06,-13.503,2.22,318,tengkurap
1.0,4.6899999999999995,37.28,0.021,-0.015,0.123,318,-11.098,2.22,318,tengkurap
1.0,4.88,39.275,0.018,-0.013,0.124,318,1.444,2.22,318,tengkurap
1.0,5.0,24.557,0.02,-0.012,0.13,320,-84.816,3.6630000000000003,376,tengkurap
1.0,5.1,16.309,0.018,-0.012,0.136,327.59,-43.579,3.6630000000000003,376,tengkurap
1.0,5.3,9.064,0.016,-0.01,0.145,342.84,-36.159,3.6630000000000003,376,tengkurap
1.0,5.51,1.151,0.012,-0.011,0.155,358.74,-59.403,3.6630000000000003,376,tengkurap
1.0,5.71,-11.677,0.01,-0.01,0.162,374.1,10.36,3.6630000000000003,376,tengkurap
1.0,5.91,-5.011,0.009,-0.009,0.165,376,15.795,3.6630000000000003,376,tengkurap
1.0,6,-3.642,0.009,-0.009,0.165,320,9.024,3.6630000000000003,376,tengkurap
1.0,6,-1.343,0.009,-0.009,0.165,320,-5.846,3.6630000000000003,376,tengkurap
1.0,6,-1.663,0.009,-0.009,0.165,320,-7.839,3.6630000000000003,376,tengkurap
1.0,6,-2.5,0.009,-0.009,0.165,320,-9.701,3.6630000000000003,376,tengkurap
1.0,6,-3.703,0.009,-0.009,0.165,320,1.772,3.6630000000000003,376,tengkurap
1.0,6,-3.285,0.009,-0.009,0.165,320,7.207,3.6630000000000003,376,tengkurap
1.0,6,-2.316,0.009,-0.009,0.165,320,1.009,3.6630000000000003,376,tengkurap
1.0,6,-2.288,0.009,-0.009,0.165,320,-3.671,3.6630000000000003,376,tengkurap
1.0,6,-2.923,0.009,-0.009,0.165,320,-0.678,3.6630000000000003,376,tengkurap
1.0,6,-3.029,0.009,-0.009,0.165,320,2.139,3.6630000000000003,376,tengkurap
1.0,6,-2.752,0.009,-0.009,0.165,320,0.1,3.6630000000000003,376,tengkurap
1.0,6,-2.857,0.009,-0.009,0.165,320,-1.403,3.6630000000000003,376,tengkurap
1.0,6,-3.068,0.009,-0.009,0.165,320,0.566,3.6630000000000003,376,tengkurap
1.0,6,-2.973,0.009,-0.009,0.165,320,0.223,3.6630000000000003,376,tengkurap
1.0,6,-2.989,0.009,-0.009,0.165,320,-0.892,3.6630000000000003,376,tengkurap
1.0,6,-3.192,0.009,-0.009,0.165,320,0.345,3.6630000000000003,376,tengkurap
1.0,6,-3.257,0.009,-0.009,0.165,320,0.665,3.6630000000000003,376,tengkurap
1.0,6,-3.21,0.009,-0.009,0.165,320,-0.533,3.6630000000000003,376,tengkurap
1.0,6,-3.37,0.009,-0.009,0.165,320,-0.129,3.6630000000000003,376,tengkurap
1.0,6,-3.412,0.009,-0.009,0.165,320,0.757,3.6630000000000003,376,tengkurap
1.0,6,-3.299,0.009,-0.009,0.165,320,-0.319,3.6630000000000003,376,tengkurap
1.0,6,-3.455,0.009,-0.009,0.165,320,-0.266,3.6630000000000003,376,tengkurap
1.0,6,-3.536,0.009,-0.009,0.165,320,0.177,3.6630000000000003,376,tengkurap
1.0,6,-3.555,0.009,-0.009,0.165,320,-0.136,3.6630000000000003,376,tengkurap
1.0,6,-3.601,0.009,-0.009,0.165,320,-0.121,3.6630000000000003,376,tengkurap
1.0,6,-3.683,0.009,-0.009,0.165,320,0.161,3.6630000000000003,376,tengkurap
1.0,6,-3.693,0.009,-0.009,0.165,320,-0.197,3.6630000000000003,376,tengkurap
1.0,6,-3.735,0.009,-0.009,0.165,320,1.749,3.6630000000000003,376,tengkurap
1.0,6,-3.789,0.009,-0.009,0.165,320,0.245,3.6630000000000003,376,tengkurap
1.0,6,-3.785,0.009,-0.009,0.165,320,-0.152,3.6630000000000003,376,tengkurap
    
20.0,0.0,85.9562112648032,43.82022471910113,91.66666666666667,90.32258064516132,46.94656488549619,67.975,40.212,100.0
20.0,20.0,80.8698792161949,8.98876404494382,83.33333333333334,93.54838709677419,88.93129770992367,82.611,33.333,45.038
20.0,40.0,89.12872060546658,52.80898876404495,58.333333333333336,93.54838709677419,44.274809160305345,73.47,0.0,45.038
20.0,60.0,95.5422743317833,62.92134831460675,58.333333333333336,85.48387096774196,35.87786259541985,93.481,26.455,0.0
20.0,80.0,71.14527218729964,96.62921348314606,8.333333333333341,3.2258064516129066,0.0,56.985,7.937,11.45
20.0,100.0,41.367900543121806,68.53932584269663,66.66666666666666,25.80645161290323,12.213740458015266,36.87,14.815,33.588
    
0.7,0.0,85.727,-0.005,-0.01,0.171,425,-24.381,12.543000000000001,550,tengkurap
0.7,0.14,81.405,-0.012,-0.011,0.173,450.95,-20.548,12.543000000000001,550,tengkurap
0.7,0.44,79.605,-0.029,-0.012,0.174,504.63,3.627,12.543000000000001,550,tengkurap
0.7,0.73,79.47,-0.041,-0.011,0.168,550,-0.075,12.543000000000001,550,tengkurap
0.7,1.0,85.638,-0.028,-0.009,0.173,509,14.284,10.545,406,tengkurap
0.7,1.1400000000000001,89.67,-0.022,-0.01,0.174,487.18,22.543,10.545,406,tengkurap
0.7,1.42,92.201,-0.008,-0.011,0.175,444.57,20.223,10.545,406,tengkurap
0.7,1.71,94.355,0.005,-0.013,0.17,406,0.337,10.545,406,tengkurap
0.7,2.0,95.734,0.006,-0.013,0.172,404,3.406,0.666,406,tengkurap
0.7,2.14,94.544,0.007,-0.013,0.171,405.38,-5.327,0.666,406,tengkurap
0.7,2.43,93.552,0.007,-0.013,0.171,406,-4.235,0.666,406,tengkurap
0.7,2.7199999999999998,92.916,0.008,-0.013,0.171,406,-0.159,0.666,406,tengkurap
0.7,3.0,92.936,0.009,-0.013,0.171,406,-0.106,0.666,406,tengkurap
0.7,3.0,101.804,0.019,-0.012,0.165,374,-36.289,8.547,288,tengkurap
0.7,3.14,97.789,0.026,-0.015,0.159,356.32,-28.48,8.547,288,tengkurap
0.7,3.41,86.665,0.037,-0.016,0.142,322.89,6.719,8.547,288,tengkurap
0.7,3.69,81.065,0.047,-0.019,0.122,289.04,-0.999,8.547,288,tengkurap
0.7,3.9699999999999998,82.401,0.048,-0.018,0.114,288,-0.06,8.547,288,tengkurap
0.7,4.0,64.342,0.045,-0.019,0.116,292,-65.663,3.108,318,tengkurap
0.7,4.14,58.589,0.039,-0.019,0.117,298.43,-73.022,3.108,318,tengkurap
0.7,4.41,40.939,0.03,-0.017,0.121,310.57,-65.442,3.108,318,tengkurap
0.7,4.6899999999999995,37.518,0.021,-0.015,0.123,318,-1.548,3.108,318,tengkurap
0.7,4.96,38.896,0.018,-0.012,0.124,318,-3.213,3.108,318,tengkurap
0.7,5.0,20.77,0.021,-0.012,0.133,325,-111.197,4.884,376,tengkurap
0.7,5.14,7.875,0.019,-0.011,0.14,335.11,-82.709,4.884,376,tengkurap
0.7,5.43,-3.802,0.015,-0.011,0.153,355.38,-42.548,4.884,376,tengkurap
0.7,5.71,-1.006,0.011,-0.01,0.163,374.88,12.306,4.884,376,tengkurap
0.7,6.0,0.948,0.009,-0.009,0.165,376,2.062,4.884,376,tengkurap
0.7,6,0.894,0.009,-0.009,0.165,325,-3.335,4.884,376,tengkurap
0.7,6,-0.62,0.009,-0.009,0.165,325,-5.06,4.884,376,tengkurap
0.7,6,-1.644,0.009,-0.009,0.165,325,-3.831,4.884,376,tengkurap
0.7,6,-2.465,0.009,-0.009,0.165,325,-2.457,4.884,376,tengkurap
0.7,6,-2.804,0.009,-0.009,0.165,325,3.024,4.884,376,tengkurap
0.7,6,-2.433,0.009,-0.009,0.165,325,0.513,4.884,376,tengkurap
0.7,6,-2.411,0.009,-0.009,0.165,325,-1.602,4.884,376,tengkurap
0.7,6,-2.732,0.009,-0.009,0.165,325,0.093,4.884,376,tengkurap
0.7,6,-2.775,0.009,-0.009,0.165,325,1.032,4.884,376,tengkurap
0.7,6,-2.683,0.009,-0.009,0.165,325,-1.037,4.884,376,tengkurap
0.7,6,-2.845,0.009,-0.009,0.165,325,-0.243,4.884,376,tengkurap
0.7,6,-2.865,0.009,-0.009,0.165,325,0.818,4.884,376,tengkurap
0.7,6,-2.793,0.009,-0.009,0.165,325,-0.503,4.884,376,tengkurap
0.7,6,-2.843,0.009,-0.009,0.165,325,-0.411,4.884,376,tengkurap
0.7,6,-2.919,0.009,-0.009,0.165,325,0.474,4.884,376,tengkurap
0.7,6,-2.819,0.009,-0.009,0.165,325,-0.358,4.884,376,tengkurap
0.7,6,-2.871,0.009,-0.009,0.165,325,-0.51,4.884,376,tengkurap
0.7,6,-2.903,0.009,-0.009,0.165,325,0.681,4.884,376,tengkurap
0.7,6,-2.852,0.009,-0.009,0.165,325,-0.197,4.884,376,tengkurap
0.7,6,-2.872,0.009,-0.009,0.165,325,-0.152,4.884,376,tengkurap
0.7,6,-2.942,0.009,-0.009,0.165,325,0.253,4.884,376,tengkurap
0.7,6,-2.847,0.009,-0.009,0.165,325,-0.075,4.884,376,tengkurap
0.7,6,-2.846,0.009,-0.009,0.165,325,-0.121,4.884,376,tengkurap
0.7,6,-2.904,0.009,-0.009,0.165,325,0.345,4.884,376,tengkurap
0.7,6,-2.881,0.009,-0.009,0.165,325,0.016,4.884,376,tengkurap
0.7,6,-2.927,0.009,-0.009,0.165,325,0.1,4.884,376,tengkurap
0.7,6,-2.928,0.009,-0.009,0.165,325,0.23,4.884,376,tengkurap
0.7,6,-2.899,0.009,-0.009,0.165,325,0.116,4.884,376,tengkurap
0.7,6,-2.895,0.009,-0.009,0.165,325,1.642,4.884,376,tengkurap
0.7,6,-2.938,0.009,-0.009,0.165,325,0.009,4.884,376,tengkurap
    
13.999999999999998,0.0,84.1735631590971,40.449438202247194,83.33333333333334,91.93548387096779,52.29007633587786,64.042,57.143,100.0
13.999999999999998,20.0,81.8301067820217,14.60674157303371,91.66666666666667,95.16129032258064,84.35114503816794,85.638,47.619,45.038
13.999999999999998,40.0,89.57972541765847,52.80898876404495,58.333333333333336,93.54838709677419,44.274809160305345,75.525,0.529,45.038
13.999999999999998,60.0,96.65946925871613,67.41573033707866,66.66666666666666,82.25806451612905,32.82442748091603,92.75,38.095,0.0
13.999999999999998,80.0,71.32876924324046,96.62921348314606,8.333333333333341,3.2258064516129066,1.5267175572519083,48.218,12.169,11.45
13.999999999999998,100.0,42.125470717849325,69.66292134831461,66.66666666666666,30.64516129032259,14.122137404580155,29.176,20.635,33.588
    
0.5,0.0,83.876,-0.01,-0.009,0.171,441,-32.167,17.316,550,tengkurap
0.5,0.2,81.304,-0.02,-0.011,0.174,476.83,-12.304,17.316,550,tengkurap
0.5,0.59,81.39,-0.041,-0.011,0.169,545.87,-0.182,17.316,550,tengkurap
0.5,0.98,80.88,-0.041,-0.011,0.168,550,-0.174,17.316,550,tengkurap
0.5,1.0,87.917,-0.023,-0.01,0.175,494,22.871,14.43,406,tengkurap
0.5,1.2,91.964,-0.012,-0.009,0.176,464.14,20.192,14.43,406,tengkurap
0.5,1.6,93.471,0.006,-0.012,0.172,406,0.039,14.43,406,tengkurap
0.5,2.0,94.856,0.007,-0.013,0.171,404,-4.472,0.666,406,tengkurap
0.5,2.2,94.353,0.007,-0.013,0.17,405.38,-7.228,0.666,406,tengkurap
0.5,2.58,93.995,0.008,-0.013,0.171,406,-1.121,0.666,406,tengkurap
0.5,2.9699999999999998,94.148,0.009,-0.013,0.171,406,-2.037,0.666,406,tengkurap
0.5,3.0,103.391,0.023,-0.013,0.162,359,-52.777,11.766,288,tengkurap
0.5,3.2,92.903,0.031,-0.016,0.151,334.65,24.001,11.766,288,tengkurap
0.5,3.62,87.602,0.046,-0.018,0.122,288,-12.93,11.766,288,tengkurap
0.5,4.0,57.742,0.041,-0.019,0.116,296,-99.625,3.996,318,tengkurap
0.5,4.2,46.177,0.035,-0.019,0.119,304.27,-100.587,3.996,318,tengkurap
0.5,4.58,39.576,0.022,-0.016,0.122,318,23.459,3.996,318,tengkurap
0.5,4.96,39.956,0.018,-0.012,0.124,318,6.848,3.996,318,tengkurap
0.5,5.0,13.279,0.022,-0.012,0.137,332,-147.213,6.66,376,tengkurap
0.5,5.2,-1.016,0.019,-0.011,0.146,345.78,-135.358,6.66,376,tengkurap
0.5,5.59,-18.94,0.016,-0.011,0.161,372.68,24.009,6.66,376,tengkurap
0.5,6,1.044,0.016,-0.011,0.161,332,44.772,6.66,376,tengkurap
0.5,6,6.928,0.016,-0.011,0.161,332,23.192,6.66,376,tengkurap
0.5,6,7.833,0.016,-0.011,0.161,332,-21.785,6.66,376,tengkurap
0.5,6,3.99,0.016,-0.011,0.161,332,-27.182,6.66,376,tengkurap
0.5,6,0.157,0.016,-0.011,0.161,332,-24.701,6.66,376,tengkurap
0.5,6,-3.317,0.016,-0.011,0.161,332,2.436,6.66,376,tengkurap
0.5,6,-3.265,0.016,-0.011,0.161,332,9.757,6.66,376,tengkurap
0.5,6,-2.135,0.016,-0.011,0.161,332,5.497,6.66,376,tengkurap
0.5,6,-1.532,0.016,-0.011,0.161,332,0.971,6.66,376,tengkurap
0.5,6,-1.609,0.016,-0.011,0.161,332,-2.602,6.66,376,tengkurap
0.5,6,-2.037,0.016,-0.011,0.161,332,-0.846,6.66,376,tengkurap
0.5,6,-2.217,0.016,-0.011,0.161,332,0.871,6.66,376,tengkurap
0.5,6,-2.16,0.016,-0.011,0.161,332,-0.182,6.66,376,tengkurap
0.5,6,-2.209,0.016,-0.011,0.161,332,-0.655,6.66,376,tengkurap
0.5,6,-2.326,0.016,-0.011,0.161,332,0.497,6.66,376,tengkurap
0.5,6,-2.265,0.016,-0.011,0.161,332,0.184,6.66,376,tengkurap
0.5,6,-2.315,0.016,-0.011,0.161,332,-0.472,6.66,376,tengkurap
0.5,6,-2.403,0.016,-0.011,0.161,332,0.009,6.66,376,tengkurap
0.5,6,-2.345,0.016,-0.011,0.161,332,0.337,6.66,376,tengkurap
0.5,6,-2.333,0.016,-0.011,0.161,332,-0.487,6.66,376,tengkurap
0.5,6,-2.37,0.016,-0.011,0.161,332,0.238,6.66,376,tengkurap
0.5,6,-2.335,0.016,-0.011,0.161,332,0.055,6.66,376,tengkurap
0.5,6,-2.246,0.016,-0.011,0.161,332,-0.205,6.66,376,tengkurap
0.5,6,-2.282,0.016,-0.011,0.161,332,0.077,6.66,376,tengkurap
0.5,6,-2.26,0.016,-0.011,0.161,332,0.001,6.66,376,tengkurap
0.5,6,-2.259,0.016,-0.011,0.161,332,-0.373,6.66,376,tengkurap
0.5,6,-2.284,0.016,-0.011,0.161,332,0.276,6.66,376,tengkurap
0.5,6,-2.267,0.016,-0.011,0.161,332,0.116,6.66,376,tengkurap
0.5,6,-2.271,0.016,-0.011,0.161,332,0.016,6.66,376,tengkurap
0.5,6,-2.256,0.016,-0.011,0.161,332,0.024,6.66,376,tengkurap
    
10.0,0.0,82.569990493526,34.831460674157306,91.66666666666667,91.93548387096779,58.396946564885496,63.765,79.894,100.0
10.0,20.0,82.63041924287198,20.224719101123597,83.33333333333334,98.38709677419355,78.62595419847328,85.088,66.138,45.038
10.0,40.0,89.4979255252511,53.93258426966292,58.333333333333336,91.93548387096779,44.274809160305345,74.984,0.529,45.038
10.0,60.0,95.92769184285577,71.91011235955057,58.333333333333336,77.4193548387097,27.099236641221374,49.11,53.439,0.0
10.0,80.0,65.34558612202186,92.13483146067416,8.333333333333341,3.2258064516129066,3.0534351145038165,39.402,16.402,11.45
10.0,100.0,38.41352424887801,70.7865168539326,66.66666666666666,37.096774193548406,16.793893129770993,21.526,29.101,33.588
    
0.3,0.0,83.195,-0.02,-0.01,0.174,481,-1.197,28.527,550,tengkurap
0.3,0.33,82.985,-0.038,-0.011,0.171,540.02,-0.029,28.527,550,tengkurap
0.3,0.98,82.233,-0.041,-0.011,0.168,550,0.077,28.527,550,tengkurap
0.3,1.0,95.052,-0.014,-0.01,0.175,463,53.91,23.754,406,tengkurap
0.3,1.33,96.021,0.002,-0.01,0.172,413.85,10.444,23.754,406,tengkurap
0.3,1.96,95.157,0.006,-0.013,0.171,406,1.841,23.754,406,tengkurap
0.3,2.0,94.543,0.007,-0.013,0.17,405,-4.457,0.666,406,tengkurap
0.3,2.33,94.043,0.007,-0.013,0.171,406,-0.327,0.666,406,tengkurap
0.3,2.99,93.786,0.009,-0.013,0.171,406,-0.136,0.666,406,tengkurap
0.3,3.0,90.431,0.028,-0.014,0.155,331,-130.121,19.314,288,tengkurap
0.3,3.33,87.34,0.041,-0.017,0.135,291.04,0.726,19.314,288,tengkurap
0.3,3.99,86.884,0.048,-0.018,0.114,288,7.619,19.314,288,tengkurap
0.3,4.0,41.808,0.036,-0.019,0.119,306,-134.923,6.771,318,tengkurap
0.3,4.35,30.446,0.024,-0.018,0.121,318,19.39,6.771,318,tengkurap
0.3,4.99,39.948,0.018,-0.012,0.124,318,-5.923,6.771,318,tengkurap
0.3,5.0,3.447,0.023,-0.012,0.145,352,-125.35,10.989,376,tengkurap
0.3,5.33,-12.297,0.02,-0.011,0.159,374.74,-87.571,10.989,376,tengkurap
0.3,5.98,-18.468,0.009,-0.009,0.165,376,0.238,10.989,376,tengkurap
0.3,6,-18.468,0.009,-0.009,0.165,352,0.238,10.989,376,tengkurap
0.3,6,-15.571,0.009,-0.009,0.165,352,45.268,10.989,376,tengkurap
0.3,6,-3.439,0.009,-0.009,0.165,352,85.39,10.989,376,tengkurap
0.3,6,7.231,0.009,-0.009,0.165,352,64.864,10.989,376,tengkurap
0.3,6,12.916,0.009,-0.009,0.165,352,-12.396,10.989,376,tengkurap
0.3,6,10.225,0.009,-0.009,0.165,352,-53.747,10.989,376,tengkurap
0.3,6,3.031,0.009,-0.009,0.165,352,-50.884,10.989,376,tengkurap
0.3,6,-17.316,0.009,-0.009,0.165,352,-16.892,10.989,376,tengkurap
0.3,6,-11.018,0.009,-0.009,0.165,352,20.635,10.989,376,tengkurap
0.3,6,-6.432,0.009,-0.009,0.165,352,24.062,10.989,376,tengkurap
0.3,6,-2.389,0.009,-0.009,0.165,352,15.497,10.989,376,tengkurap
0.3,6,0.386,0.009,-0.009,0.165,352,-5.381,10.989,376,tengkurap
0.3,6,0.363,0.009,-0.009,0.165,352,-11.976,10.989,376,tengkurap
0.3,6,-0.667,0.009,-0.009,0.165,352,-13.701,10.989,376,tengkurap
0.3,6,-2.205,0.009,-0.009,0.165,352,-0.861,10.989,376,tengkurap
0.3,6,-2.08,0.009,-0.009,0.165,352,7.688,10.989,376,tengkurap
0.3,6,-1.023,0.009,-0.009,0.165,352,3.345,10.989,376,tengkurap
0.3,6,-0.572,0.009,-0.009,0.165,352,-2.777,10.989,376,tengkurap
0.3,6,-1.038,0.009,-0.009,0.165,352,-2.006,10.989,376,tengkurap
0.3,6,-1.417,0.009,-0.009,0.165,352,1.093,10.989,376,tengkurap
0.3,6,-1.345,0.009,-0.009,0.165,352,0.52,10.989,376,tengkurap
0.3,6,-1.404,0.009,-0.009,0.165,352,-1.136,10.989,376,tengkurap
0.3,6,-1.769,0.009,-0.009,0.165,352,0.291,10.989,376,tengkurap
0.3,6,-1.882,0.009,-0.009,0.165,352,0.917,10.989,376,tengkurap
0.3,6,-1.951,0.009,-0.009,0.165,352,-0.396,10.989,376,tengkurap
0.3,6,-2.198,0.009,-0.009,0.165,352,0.085,10.989,376,tengkurap
0.3,6,-2.263,0.009,-0.009,0.165,352,0.619,10.989,376,tengkurap
0.3,6,-2.363,0.009,-0.009,0.165,352,-0.716,10.989,376,tengkurap
0.3,6,-2.557,0.009,-0.009,0.165,352,-0.006,10.989,376,tengkurap
0.3,6,-2.633,0.009,-0.009,0.165,352,0.459,10.989,376,tengkurap
    
6.0,0.0,80.40708342852089,23.59550561797753,83.33333333333334,96.77419354838709,73.66412213740458,57.008,133.333,100.0
6.0,20.0,86.03211566946948,30.337078651685403,83.33333333333334,98.38709677419355,66.79389312977099,90.019,110.582,45.038
6.0,40.0,89.2643168235112,53.93258426966292,58.333333333333336,90.32258064516132,44.656488549618324,71.676,0.529,45.038
6.0,60.0,95.36540969955122,77.52808988764046,50.0,66.12903225806453,16.412213740458014,8.323,89.418,0.0
6.0,80.0,59.41398851853763,86.51685393258427,8.333333333333341,8.064516129032246,6.870229007633588,13.908,29.63,11.45
6.0,100.0,22.70278635489362,71.91011235955057,66.66666666666666,49.999999999999986,24.427480916030532,11.986,49.735,33.588
    
