    
Periode per step: 5.0 s Pola: tengkurap
Elapsed,Step,Pitch Angle,CoMx(m),CoMy(m),CoMz(m),Left Ankle Speed(rpm),Right Ankle Speed(rpm),Left Ankle Angle,Right Ankle Angle
0.1,0.02,91.561,0.007,-0.01,0.165,2.22,2.109,380.59,641.64
0.3,0.06,90.791,0.004,-0.011,0.167,2.22,2.109,389.75,632.94
0.5,0.1,91.449,-0.0,-0.013,0.169,2.22,2.109,398.87,624.27
0.7,0.14,88.301,-0.002,-0.013,0.169,2.22,2.109,407.96,615.63
0.89,0.18,88.198,-0.004,-0.015,0.171,2.22,2.109,417.08,606.98
1.09,0.22,87.408,-0.008,-0.016,0.173,2.22,2.109,426.16,598.34
1.29,0.26,86.76,-0.01,-0.016,0.173,2.22,2.109,435.15,589.8
1.48,0.3,85.992,-0.013,-0.017,0.174,2.22,2.109,444.14,581.27
1.68,0.34,84.763,-0.017,-0.019,0.175,2.22,2.109,453.14,572.72
1.87,0.37,85.634,-0.02,-0.021,0.174,2.22,2.109,462.12,564.19
2.07,0.41,84.191,-0.021,-0.022,0.175,2.22,2.109,471.14,555.62
2.27,0.45,85.465,-0.025,-0.023,0.175,2.22,2.109,480.2,547.01
2.47,0.49,84.761,-0.028,-0.024,0.175,2.22,2.109,489.22,538.44
2.66,0.53,81.617,-0.032,-0.025,0.174,2.22,2.109,498.18,529.93
2.86,0.57,81.153,-0.036,-0.026,0.173,2.22,2.109,507.21,521.35
3.05,0.61,80.571,-0.04,-0.027,0.172,2.22,2.109,516.22,512.79
3.25,0.65,81.724,-0.042,-0.028,0.171,2.22,2.109,525.2,504.26
3.44,0.69,78.573,-0.045,-0.029,0.169,2.22,2.109,534.2,495.71
3.64,0.73,78.07,-0.047,-0.03,0.169,2.22,2.109,543.19,487.17
3.84,0.77,77.592,-0.051,-0.031,0.167,2.22,2.109,552.18,478.63
4.03,0.81,76.169,-0.056,-0.032,0.165,2.22,2.109,561.17,470.09
4.23,0.85,76.933,-0.057,-0.032,0.164,2.22,2.109,570.14,461.56
4.42,0.88,75.711,-0.06,-0.033,0.163,2.22,2.109,579.19,452.97
4.62,0.92,75.904,-0.064,-0.034,0.16,2.22,2.109,588.25,444.37
4.82,0.96,76.816,-0.067,-0.033,0.157,2.22,2.109,597.3,435.76
0.1,1.02,75.482,-0.036,-0.01,0.171,1.887,1.776,544.09,485.68
0.3,1.06,77.293,-0.034,-0.008,0.172,1.887,1.776,536.39,492.93
0.49,1.1,78.172,-0.03,-0.006,0.173,1.887,1.776,528.79,500.08
0.69,1.1400000000000001,79.349,-0.029,-0.006,0.173,1.887,1.776,521.2,507.23
0.88,1.18,79.753,-0.026,-0.004,0.175,1.887,1.776,513.59,514.38
1.08,1.22,79.424,-0.023,-0.002,0.176,1.887,1.776,505.99,521.54
1.27,1.25,81.239,-0.022,-0.0,0.177,1.887,1.776,498.39,528.69
1.47,1.29,81.936,-0.018,0.002,0.177,1.887,1.776,490.78,535.85
1.66,1.33,81.696,-0.015,0.003,0.177,1.887,1.776,483.19,543.0
1.85,1.37,83.606,-0.014,0.005,0.18,1.887,1.776,475.6,550.14
2.05,1.41,83.746,-0.01,0.007,0.179,1.887,1.776,468.01,557.29
2.24,1.45,83.669,-0.007,0.009,0.18,1.887,1.776,460.41,564.44
2.44,1.49,84.466,-0.005,0.01,0.179,1.887,1.776,452.8,571.6
2.63,1.53,86.275,-0.003,0.013,0.18,1.887,1.776,445.17,578.78
2.83,1.5699999999999998,87.037,-0.0,0.014,0.18,1.887,1.776,437.57,585.94
3.02,1.6,86.301,0.003,0.015,0.179,1.887,1.776,429.95,593.1
3.22,1.6400000000000001,88.643,0.006,0.017,0.178,1.887,1.776,422.34,600.27
3.41,1.6800000000000002,89.166,0.008,0.019,0.177,1.887,1.776,414.75,607.41
3.61,1.72,89.826,0.01,0.022,0.178,1.887,1.776,407.15,614.56
3.8,1.76,90.96,0.012,0.024,0.176,1.887,1.776,399.54,621.72
4.0,1.8,90.499,0.017,0.025,0.176,1.887,1.776,391.94,628.88
4.19,1.8399999999999999,91.395,0.018,0.026,0.175,1.887,1.776,384.35,636.02
4.39,1.88,92.117,0.02,0.028,0.173,1.887,1.776,376.77,643.16
4.58,1.92,92.7,0.023,0.031,0.173,1.887,1.776,369.18,650.3
4.77,1.95,90.997,0.026,0.032,0.171,1.887,1.776,361.58,657.45
4.97,1.99,91.661,0.028,0.034,0.169,1.887,1.776,353.95,664.64
0.1,2.02,91.442,0.006,-0.013,0.171,0.555,0.555,405.85,615.15
0.3,2.06,91.135,0.006,-0.014,0.172,0.555,0.555,403.58,617.42
0.5,2.1,91.791,0.008,-0.015,0.171,0.555,0.555,401.28,619.72
0.69,2.14,92.486,0.01,-0.017,0.17,0.555,0.555,399.04,621.96
0.89,2.18,91.5,0.011,-0.018,0.17,0.555,0.555,396.81,624.19
1.08,2.22,91.538,0.012,-0.02,0.17,0.555,0.555,394.57,626.43
1.28,2.26,92.038,0.013,-0.021,0.17,0.555,0.555,392.34,628.66
1.47,2.29,92.417,0.013,-0.021,0.169,0.555,0.555,390.1,630.9
1.67,2.33,92.051,0.015,-0.024,0.169,0.555,0.555,387.86,633.14
1.86,2.37,91.452,0.016,-0.025,0.169,0.555,0.555,385.62,635.38
2.06,2.41,92.082,0.017,-0.026,0.169,0.555,0.555,383.39,637.61
2.25,2.45,91.793,0.019,-0.028,0.168,0.555,0.555,381.15,639.85
2.45,2.49,91.458,0.02,-0.028,0.168,0.555,0.555,378.92,642.08
2.64,2.5300000000000002,92.46,0.021,-0.03,0.168,0.555,0.555,376.68,644.32
2.83,2.57,91.588,0.023,-0.032,0.167,0.555,0.555,374.45,646.55
3.03,2.61,92.63,0.025,-0.033,0.166,0.555,0.555,372.22,648.78
3.22,2.64,91.519,0.024,-0.033,0.165,0.555,0.555,369.99,651.01
3.42,2.68,91.217,0.026,-0.034,0.165,0.555,0.555,367.75,653.25
3.61,2.7199999999999998,90.742,0.027,-0.035,0.164,0.555,0.555,365.52,655.48
3.81,2.76,91.326,0.028,-0.036,0.164,0.555,0.555,363.28,657.72
4.0,2.8,91.377,0.028,-0.037,0.161,0.555,0.555,361.04,659.96
4.2,2.84,90.491,0.029,-0.039,0.161,0.555,0.555,358.79,662.21
4.39,2.88,90.24,0.031,-0.04,0.159,0.555,0.555,356.56,664.44
4.59,2.92,90.672,0.033,-0.04,0.159,0.555,0.555,354.32,666.68
4.78,2.96,90.877,0.033,-0.041,0.159,0.555,0.555,352.09,668.91
4.98,3.0,89.179,0.036,-0.042,0.158,0.555,0.555,349.86,671.14
0.1,3.02,90.972,0.009,-0.013,0.171,1.665,1.665,403.55,617.45
0.3,3.06,92.526,0.011,-0.013,0.169,1.665,1.665,396.84,624.16
0.49,3.1,94.906,0.014,-0.013,0.168,1.665,1.665,389.97,631.03
0.69,3.14,97.857,0.018,-0.012,0.166,1.665,1.665,383.14,637.86
0.89,3.18,99.121,0.021,-0.012,0.164,1.665,1.665,376.31,644.69
1.09,3.22,98.563,0.023,-0.01,0.161,1.665,1.665,369.41,651.59
1.29,3.26,102.247,0.025,-0.009,0.159,1.665,1.665,362.58,658.42
1.49,3.3,101.1,0.027,-0.009,0.156,1.665,1.665,355.67,665.33
1.69,3.34,98.655,0.029,-0.009,0.154,1.665,1.665,348.86,672.14
1.89,3.38,94.794,0.032,-0.009,0.152,1.665,1.665,342.0,679.0
2.08,3.42,96.829,0.032,-0.008,0.148,1.665,1.665,335.21,685.79
2.28,3.46,96.166,0.036,-0.009,0.147,1.665,1.665,328.49,692.51
2.48,3.5,92.247,0.037,-0.008,0.144,1.665,1.665,321.73,699.27
2.79,3.56,88.058,0.04,-0.008,0.14,1.665,1.665,311.01,709.99
2.98,3.6,85.91,0.041,-0.007,0.135,1.665,1.665,304.19,716.81
3.18,3.64,85.455,0.042,-0.008,0.133,1.665,1.665,297.46,723.54
3.38,3.68,85.903,0.044,-0.008,0.132,1.665,1.665,290.73,730.27
3.57,3.71,83.738,0.045,-0.008,0.127,1.665,1.665,284.02,736.98
3.77,3.75,78.632,0.047,-0.007,0.124,1.665,1.665,277.3,743.7
3.96,3.79,83.567,0.048,-0.007,0.121,1.665,1.665,270.58,750.42
4.16,3.83,82.748,0.047,-0.008,0.118,1.665,1.665,263.86,757.14
4.35,3.87,77.391,0.048,-0.008,0.114,1.665,1.665,257.14,763.86
4.55,3.91,79.908,0.05,-0.008,0.111,1.665,1.665,250.43,770.57
4.74,3.95,82.462,0.05,-0.009,0.107,1.665,1.665,243.72,777.28
4.93,3.99,82.849,0.05,-0.009,0.104,1.665,1.665,237.02,783.98
0.1,4.02,82.581,0.047,-0.018,0.116,0.777,0.777,285.61,736.39
0.3,4.06,79.563,0.045,-0.018,0.117,0.777,0.777,288.75,733.25
0.49,4.1,76.442,0.042,-0.019,0.118,0.777,0.777,291.88,730.12
0.69,4.14,75.332,0.04,-0.019,0.118,0.777,0.777,295.02,726.98
0.88,4.18,73.672,0.039,-0.019,0.12,0.777,0.777,298.21,723.79
1.08,4.22,67.699,0.036,-0.019,0.12,0.777,0.777,301.36,720.64
1.28,4.26,70.54,0.035,-0.019,0.122,0.777,0.777,304.51,717.49
1.47,4.29,64.731,0.032,-0.018,0.123,0.777,0.777,307.66,714.34
1.67,4.33,65.762,0.03,-0.019,0.123,0.777,0.777,310.79,711.21
1.86,4.37,62.997,0.027,-0.019,0.123,0.777,0.777,313.93,708.07
2.06,4.41,62.603,0.024,-0.02,0.122,0.777,0.777,317.07,704.93
2.25,4.45,60.141,0.022,-0.021,0.124,0.777,0.777,320.21,701.79
2.45,4.49,56.697,0.018,-0.021,0.125,0.777,0.777,323.34,698.66
2.64,4.53,57.684,0.016,-0.021,0.123,0.777,0.777,326.47,695.53
2.84,4.57,53.952,0.012,-0.02,0.123,0.777,0.777,329.6,692.4
3.03,4.61,54.054,0.01,-0.021,0.123,0.777,0.777,332.74,689.26
3.23,4.65,52.748,0.008,-0.021,0.123,0.777,0.777,335.87,686.13
3.42,4.68,51.423,0.004,-0.022,0.123,0.777,0.777,338.99,683.01
3.62,4.72,49.17,-0.001,-0.022,0.123,0.777,0.777,342.13,679.87
3.81,4.76,47.304,-0.004,-0.022,0.122,0.777,0.777,345.27,676.73
4.01,4.8,45.771,-0.006,-0.022,0.121,0.777,0.777,348.4,673.6
4.2,4.84,4.153,-0.01,-0.021,0.12,0.777,0.777,351.54,670.46
4.4,4.88,43.996,-0.014,-0.02,0.12,0.777,0.777,354.67,667.33
4.59,4.92,30.669,-0.017,-0.02,0.119,0.777,0.777,357.81,664.19
4.79,4.96,36.708,-0.021,-0.02,0.117,0.777,0.777,361.06,660.94
4.99,5.0,38.162,-0.024,-0.02,0.115,0.777,0.777,364.24,657.76
0.1,5.02,37.847,0.02,-0.012,0.124,1.11,1.11,314.3,708.7
0.3,5.06,34.677,0.018,-0.012,0.127,1.11,1.11,318.85,704.15
0.5,5.1,30.483,0.017,-0.01,0.13,1.11,1.11,323.44,699.56
0.7,5.14,31.104,0.014,-0.01,0.132,1.11,1.11,327.97,695.03
0.89,5.18,26.258,0.013,-0.008,0.135,1.11,1.11,332.5,690.5
1.09,5.22,22.109,0.011,-0.007,0.136,1.11,1.11,337.02,685.98
1.29,5.26,21.15,0.009,-0.007,0.139,1.11,1.11,341.55,681.45
1.49,5.3,18.018,0.008,-0.005,0.141,1.11,1.11,346.11,676.89
1.68,5.34,17.537,0.006,-0.005,0.143,1.11,1.11,350.68,672.32
1.88,5.38,18.02,0.005,-0.003,0.145,1.11,1.11,355.25,667.75
2.08,5.42,10.268,0.004,-0.002,0.147,1.11,1.11,359.76,663.24
2.28,5.46,10.878,0.002,-0.002,0.148,1.11,1.11,364.27,658.73
2.47,5.49,6.902,0.0,0.001,0.15,1.11,1.11,368.77,654.23
2.67,5.53,4.454,-0.001,0.003,0.152,1.11,1.11,373.27,649.73
2.86,5.57,3.943,-0.003,0.004,0.153,1.11,1.11,377.77,645.23
3.06,5.61,4.64,-0.004,0.006,0.154,1.11,1.11,382.26,640.74
3.26,5.65,0.791,-0.006,0.007,0.156,1.11,1.11,386.78,636.22
3.45,5.6899999999999995,1.496,-0.006,0.009,0.157,1.11,1.11,391.3,631.7
3.65,5.73,1.554,-0.008,0.011,0.158,1.11,1.11,395.84,627.16
3.85,5.77,1.516,-0.008,0.012,0.159,1.11,1.11,400.37,622.63
4.05,5.8100000000000005,-1.698,-0.01,0.014,0.16,1.11,1.11,404.91,618.09
4.24,5.85,2.13,-0.01,0.016,0.16,1.11,1.11,409.38,613.62
4.43,5.89,-0.1,-0.012,0.017,0.161,1.11,1.11,413.85,609.15
4.63,5.93,-3.189,-0.012,0.019,0.161,1.11,1.11,418.33,604.67
4.82,5.96,-0.801,-0.014,0.021,0.161,1.11,1.11,422.8,600.2
    
Periode per step: 4.0 s Pola: tengkurap
Elapsed,Step,Pitch Angle,CoMx(m),CoMy(m),CoMz(m),Left Ankle Speed(rpm),Right Ankle Speed(rpm),Left Ankle Angle,Right Ankle Angle
0.1,0.03,91.115,0.006,-0.01,0.165,2.553,2.553,381.28,640.72
0.3,0.07,89.902,0.002,-0.011,0.167,2.553,2.553,391.79,630.21
0.5,0.12,88.915,-0.0,-0.013,0.169,2.553,2.553,402.28,619.72
0.7,0.17,89.08,-0.004,-0.014,0.171,2.553,2.553,412.85,609.15
0.9,0.22,86.936,-0.008,-0.015,0.172,2.553,2.553,423.28,598.72
1.09,0.27,86.542,-0.011,-0.016,0.172,2.553,2.553,433.71,588.29
1.29,0.32,85.977,-0.015,-0.016,0.174,2.553,2.553,444.15,577.85
1.49,0.37,85.75,-0.02,-0.017,0.175,2.553,2.553,454.52,567.48
1.68,0.42,83.117,-0.021,-0.019,0.175,2.553,2.553,465.0,557.0
1.88,0.47,83.697,-0.026,-0.02,0.176,2.553,2.553,475.26,546.74
2.07,0.52,82.877,-0.029,-0.022,0.174,2.553,2.553,485.55,536.45
2.27,0.57,81.522,-0.034,-0.023,0.174,2.553,2.553,495.85,526.15
2.46,0.62,80.642,-0.038,-0.024,0.173,2.553,2.553,506.14,515.86
2.66,0.66,80.778,-0.042,-0.024,0.171,2.553,2.553,516.45,505.55
2.85,0.71,77.484,-0.045,-0.025,0.17,2.553,2.553,526.76,495.24
3.05,0.76,78.666,-0.049,-0.026,0.168,2.553,2.553,537.05,484.95
3.24,0.81,78.273,-0.051,-0.027,0.166,2.553,2.553,547.35,474.65
3.44,0.86,77.446,-0.056,-0.027,0.164,2.553,2.553,557.64,464.36
3.63,0.91,76.45,-0.061,-0.028,0.163,2.553,2.553,567.91,454.09
3.83,0.96,77.728,-0.065,-0.029,0.161,2.553,2.553,578.18,443.82
0.1,1.03,75.681,-0.036,-0.009,0.17,2.22,2.109,543.41,485.36
0.3,1.07,76.249,-0.034,-0.007,0.172,2.22,2.109,534.28,494.04
0.5,1.12,78.298,-0.03,-0.007,0.173,2.22,2.109,525.16,502.7
0.69,1.17,79.339,-0.028,-0.005,0.174,2.22,2.109,516.14,511.27
0.89,1.22,79.328,-0.025,-0.003,0.177,2.22,2.109,507.14,519.81
1.08,1.27,81.065,-0.022,-0.001,0.177,2.22,2.109,498.18,528.33
1.28,1.32,82.527,-0.019,0.0,0.177,2.22,2.109,489.02,537.03
1.48,1.37,82.346,-0.015,0.002,0.178,2.22,2.109,480.09,545.52
1.67,1.42,83.935,-0.012,0.003,0.179,2.22,2.109,471.16,554.0
1.87,1.47,83.902,-0.01,0.005,0.18,2.22,2.109,462.19,562.52
2.06,1.52,85.377,-0.007,0.006,0.178,2.22,2.109,453.24,571.02
2.26,1.56,85.354,-0.005,0.008,0.178,2.22,2.109,444.27,579.55
2.45,1.6099999999999999,86.828,-0.003,0.011,0.179,2.22,2.109,435.27,588.09
2.65,1.6600000000000001,86.754,0.001,0.013,0.178,2.22,2.109,426.33,596.59
2.84,1.71,87.451,0.005,0.014,0.177,2.22,2.109,417.37,605.1
3.04,1.76,90.336,0.007,0.015,0.177,2.22,2.109,408.27,613.74
3.24,1.81,89.852,0.01,0.017,0.176,2.22,2.109,399.17,622.39
3.44,1.8599999999999999,91.522,0.012,0.02,0.175,2.22,2.109,390.02,631.08
3.64,1.9100000000000001,90.698,0.015,0.023,0.175,2.22,2.109,380.94,639.71
3.84,1.96,92.341,0.02,0.024,0.173,2.22,2.109,371.85,648.34
0.1,2.03,91.546,0.006,-0.013,0.171,0.555,0.555,406.15,615.15
0.3,2.08,92.408,0.011,-0.015,0.171,0.555,0.555,408.45,617.45
0.5,2.12,92.446,0.014,-0.016,0.171,0.555,0.555,410.7,619.7
0.69,2.17,91.193,0.017,-0.018,0.171,0.555,0.555,412.95,621.95
0.89,2.22,93.324,0.02,-0.019,0.171,0.555,0.555,415.22,624.22
1.08,2.27,91.262,0.021,-0.021,0.171,0.555,0.555,417.46,626.46
1.28,2.32,95.284,0.026,-0.022,0.171,0.555,0.555,419.69,628.69
1.47,2.37,91.934,0.028,-0.024,0.169,0.555,0.555,421.92,630.92
1.67,2.42,92.527,0.031,-0.025,0.169,0.555,0.555,424.16,633.16
1.86,2.4699999999999998,91.754,0.034,-0.027,0.169,0.555,0.555,426.4,635.4
2.06,2.51,91.858,0.038,-0.028,0.169,0.555,0.555,428.64,637.64
2.25,2.56,91.759,0.04,-0.03,0.166,0.555,0.555,430.88,639.88
2.45,2.61,91.63,0.045,-0.031,0.165,0.555,0.555,433.11,642.11
2.64,2.66,90.506,0.046,-0.032,0.164,0.555,0.555,435.35,644.35
2.84,2.71,91.832,0.051,-0.033,0.163,0.555,0.555,437.59,646.59
3.03,2.76,90.968,0.055,-0.034,0.161,0.555,0.555,439.82,648.82
3.23,2.81,90.05,0.056,-0.034,0.161,0.555,0.555,442.06,651.06
3.42,2.86,90.325,0.06,-0.036,0.159,0.555,0.555,444.3,653.3
3.62,2.9,90.556,0.063,-0.037,0.157,0.555,0.555,446.54,655.54
3.81,2.95,90.439,0.065,-0.038,0.157,0.555,0.555,448.78,657.78
0.1,3.03,90.451,0.009,-0.013,0.171,1.887,1.998,401.1,618.13
0.29,3.07,93.596,0.012,-0.013,0.168,1.887,1.998,393.49,626.18
0.49,3.12,96.661,0.017,-0.013,0.167,1.887,1.998,385.9,634.23
0.69,3.17,95.409,0.021,-0.012,0.165,1.887,1.998,378.17,642.4
0.89,3.22,98.897,0.023,-0.012,0.162,1.887,1.998,370.37,650.67
1.08,3.27,99.919,0.026,-0.011,0.158,1.887,1.998,362.67,658.82
1.28,3.32,98.474,0.028,-0.011,0.156,1.887,1.998,355.0,666.94
1.48,3.37,97.73,0.031,-0.011,0.153,1.887,1.998,347.31,675.09
1.68,3.42,97.893,0.034,-0.01,0.15,1.887,1.998,339.59,683.25
1.87,3.4699999999999998,94.064,0.037,-0.01,0.147,1.887,1.998,331.89,691.41
2.07,3.52,92.578,0.039,-0.01,0.144,1.887,1.998,324.19,699.56
2.27,3.57,87.87,0.041,-0.011,0.139,1.887,1.998,316.45,707.76
2.46,3.62,89.616,0.044,-0.01,0.137,1.887,1.998,308.78,715.88
2.66,3.67,88.737,0.046,-0.01,0.132,1.887,1.998,301.12,724.0
2.86,3.71,87.658,0.047,-0.011,0.128,1.887,1.998,293.44,732.12
3.05,3.76,75.98,0.048,-0.009,0.123,1.887,1.998,285.78,740.23
3.25,3.81,82.991,0.05,-0.008,0.12,1.887,1.998,278.11,748.36
3.45,3.86,78.518,0.05,-0.01,0.116,1.887,1.998,270.43,756.48
3.65,3.91,83.432,0.052,-0.01,0.111,1.887,1.998,262.69,764.68
3.85,3.96,86.719,0.053,-0.01,0.107,1.887,1.998,254.85,772.98
0.1,4.03,80.183,0.048,-0.018,0.116,0.888,0.888,285.84,736.16
0.3,4.07,78.143,0.045,-0.019,0.117,0.888,0.888,289.48,732.52
0.5,4.12,76.735,0.042,-0.019,0.117,0.888,0.888,293.14,728.86
0.69,4.17,71.136,0.04,-0.019,0.118,0.888,0.888,296.72,725.28
0.89,4.22,72.6,0.037,-0.019,0.12,0.888,0.888,300.3,721.7
1.08,4.27,67.774,0.035,-0.019,0.121,0.888,0.888,303.89,718.11
1.28,4.32,65.282,0.033,-0.018,0.122,0.888,0.888,307.48,714.52
1.47,4.37,65.343,0.029,-0.018,0.123,0.888,0.888,311.06,710.94
1.67,4.42,61.384,0.026,-0.02,0.123,0.888,0.888,314.64,707.36
1.86,4.47,60.531,0.024,-0.02,0.124,0.888,0.888,318.21,703.79
2.06,4.51,57.102,0.02,-0.021,0.123,0.888,0.888,321.79,700.21
2.25,4.5600000000000005,55.176,0.016,-0.021,0.124,0.888,0.888,325.37,696.63
2.45,4.61,52.472,0.013,-0.02,0.123,0.888,0.888,328.94,693.06
2.64,4.66,50.762,0.01,-0.02,0.123,0.888,0.888,332.53,689.47
2.84,4.71,49.077,0.008,-0.02,0.123,0.888,0.888,336.1,685.9
3.03,4.76,48.178,0.003,-0.021,0.123,0.888,0.888,339.7,682.3
3.23,4.8100000000000005,49.661,-0.001,-0.02,0.122,0.888,0.888,343.29,678.71
3.42,4.86,32.497,-0.004,-0.02,0.122,0.888,0.888,346.87,675.13
3.62,4.9,39.377,-0.006,-0.019,0.122,0.888,0.888,350.46,671.54
3.81,4.95,40.228,-0.013,-0.019,0.121,0.888,0.888,354.04,667.96
0.1,5.03,38.365,0.019,-0.012,0.124,1.332,1.221,313.76,707.47
0.3,5.07,33.912,0.017,-0.011,0.127,1.332,1.221,319.24,702.45
0.5,5.12,30.204,0.016,-0.011,0.13,1.332,1.221,324.68,697.46
0.7,5.17,27.438,0.014,-0.01,0.134,1.332,1.221,330.19,692.41
0.9,5.22,25.728,0.012,-0.009,0.136,1.332,1.221,335.7,687.36
1.09,5.27,22.275,0.011,-0.008,0.14,1.332,1.221,341.16,682.36
1.29,5.32,20.316,0.009,-0.007,0.141,1.332,1.221,346.6,677.37
1.49,5.37,16.068,0.008,-0.005,0.145,1.332,1.221,352.02,672.4
1.68,5.42,13.848,0.007,-0.005,0.148,1.332,1.221,357.39,667.48
1.88,5.47,13.998,0.006,-0.003,0.15,1.332,1.221,362.76,662.55
2.07,5.52,10.911,0.002,-0.002,0.151,1.332,1.221,368.13,657.63
2.27,5.57,3.518,0.002,0.0,0.153,1.332,1.221,373.51,652.7
2.46,5.62,5.09,0.001,0.001,0.154,1.332,1.221,378.87,647.79
2.66,5.66,2.901,0.001,0.003,0.157,1.332,1.221,384.22,642.88
2.85,5.71,1.676,-0.0,0.005,0.159,1.332,1.221,389.59,637.96
3.05,5.76,3.138,-0.003,0.007,0.16,1.332,1.221,394.96,633.03
3.24,5.8100000000000005,-0.439,-0.003,0.008,0.162,1.332,1.221,400.34,628.1
3.44,5.86,-1.22,-0.004,0.01,0.162,1.332,1.221,405.71,623.18
3.63,5.91,-0.434,-0.005,0.012,0.163,1.332,1.221,411.08,618.26
3.83,5.96,-3.661,-0.005,0.013,0.164,1.332,1.221,416.45,613.34
    
Periode per step: 3.0 s Pola: tengkurap
Elapsed,Step,Pitch Angle,CoMx(m),CoMy(m),CoMz(m),Left Ankle Speed(rpm),Right Ankle Speed(rpm),Left Ankle Angle,Right Ankle Angle
0.1,0.03,91.839,0.006,-0.01,0.165,3.33,3.219,382.89,639.34
0.3,0.1,88.231,0.001,-0.011,0.168,3.33,3.219,396.58,626.1
0.5,0.17,89.015,-0.001,-0.013,0.171,3.33,3.219,410.32,612.83
0.7,0.23,87.598,-0.007,-0.014,0.173,3.33,3.219,424.13,599.47
0.9,0.3,86.652,-0.01,-0.016,0.174,3.33,3.219,437.85,586.21
1.1,0.37,86.51,-0.015,-0.017,0.174,3.33,3.219,451.55,572.97
1.3,0.43,84.613,-0.02,-0.019,0.175,3.33,3.219,465.31,559.67
1.49,0.5,83.597,-0.024,-0.02,0.175,3.33,3.219,478.91,546.52
1.69,0.56,82.804,-0.028,-0.021,0.173,3.33,3.219,492.46,533.43
1.89,0.63,81.492,-0.032,-0.023,0.173,3.33,3.219,505.96,520.37
2.08,0.69,79.656,-0.038,-0.025,0.171,3.33,3.219,519.52,507.27
2.28,0.76,79.428,-0.044,-0.025,0.17,3.33,3.219,532.91,494.32
2.47,0.82,78.121,-0.047,-0.026,0.168,3.33,3.219,546.32,481.36
2.67,0.89,78.147,-0.051,-0.028,0.165,3.33,3.219,559.7,468.42
2.86,0.95,78.112,-0.055,-0.028,0.163,3.33,3.219,573.12,455.45
0.1,1.03,76.692,-0.036,-0.01,0.17,2.775,2.664,542.26,486.51
0.29,1.1,77.586,-0.032,-0.008,0.173,2.775,2.664,531.1,497.22
0.49,1.16,78.929,-0.028,-0.007,0.173,2.775,2.664,519.91,507.97
0.68,1.23,80.086,-0.025,-0.006,0.176,2.775,2.664,508.72,518.71
0.88,1.29,80.897,-0.021,-0.004,0.179,2.775,2.664,497.54,529.44
1.07,1.3599999999999999,81.19,-0.018,-0.003,0.177,2.775,2.664,486.38,540.16
1.27,1.42,81.667,-0.013,-0.001,0.178,2.775,2.664,475.13,550.96
1.46,1.49,84.576,-0.01,0.001,0.179,2.775,2.664,463.96,561.68
1.66,1.55,85.225,-0.006,0.003,0.179,2.775,2.664,452.79,572.4
1.85,1.62,85.888,-0.003,0.004,0.178,2.775,2.664,441.6,583.14
2.05,1.6800000000000002,91.073,-0.001,0.006,0.178,2.775,2.664,430.22,594.07
2.25,1.75,87.754,0.005,0.006,0.176,2.775,2.664,418.8,605.03
2.45,1.8199999999999998,89.636,0.009,0.009,0.176,2.775,2.664,407.41,615.97
2.65,1.88,91.888,0.012,0.011,0.175,2.775,2.664,396.02,626.9
2.85,1.95,91.483,0.015,0.012,0.174,2.775,2.664,384.63,637.83
0.1,2.03,91.788,0.007,-0.013,0.171,0.555,0.555,406.15,615.15
0.3,2.1,91.149,0.01,-0.015,0.172,0.555,0.555,408.39,617.39
0.49,2.16,92.952,0.014,-0.016,0.172,0.555,0.555,410.63,619.63
0.69,2.23,92.781,0.017,-0.018,0.171,0.555,0.555,412.87,621.87
0.88,2.29,92.366,0.02,-0.019,0.171,0.555,0.555,415.11,624.11
1.08,2.36,92.402,0.021,-0.021,0.171,0.555,0.555,417.35,626.35
1.27,2.42,92.786,0.026,-0.022,0.171,0.555,0.555,419.58,628.58
1.46,2.49,92.458,0.028,-0.023,0.17,0.555,0.555,421.82,630.82
1.66,2.55,92.23,0.03,-0.025,0.169,0.555,0.555,424.06,633.06
1.85,2.62,91.595,0.035,-0.027,0.168,0.555,0.555,426.29,635.29
2.05,2.68,92.14,0.038,-0.028,0.169,0.555,0.555,428.53,637.53
2.24,2.75,91.531,0.041,-0.03,0.168,0.555,0.555,430.77,639.77
2.44,2.81,90.877,0.045,-0.03,0.166,0.555,0.555,433.0,642.0
2.63,2.88,90.08,0.047,-0.032,0.164,0.555,0.555,435.24,644.24
2.83,2.94,90.523,0.051,-0.033,0.163,0.555,0.555,437.48,646.48
0.1,3.03,91.935,0.01,-0.013,0.171,2.331,2.442,400.18,619.05
0.29,3.1,91.473,0.014,-0.014,0.169,2.331,2.442,390.8,628.87
0.49,3.16,95.158,0.019,-0.014,0.165,2.331,2.442,381.39,638.74
0.69,3.23,93.393,0.021,-0.013,0.162,2.331,2.442,371.74,648.84
0.89,3.3,96.702,0.026,-0.012,0.158,2.331,2.442,362.06,658.99
1.09,3.36,101.436,0.028,-0.012,0.155,2.331,2.442,352.43,669.08
1.29,3.43,95.377,0.032,-0.012,0.151,2.331,2.442,342.91,679.05
1.48,3.49,98.541,0.035,-0.012,0.146,2.331,2.442,333.45,688.96
1.68,3.56,91.96,0.036,-0.013,0.141,2.331,2.442,323.94,698.92
1.88,3.63,90.746,0.04,-0.012,0.137,2.331,2.442,314.45,708.86
2.07,3.69,86.617,0.042,-0.013,0.132,2.331,2.442,304.97,718.79
2.27,3.76,88.003,0.044,-0.012,0.126,2.331,2.442,295.57,728.65
2.46,3.82,76.455,0.046,-0.013,0.121,2.331,2.442,286.19,738.47
2.66,3.89,76.871,0.047,-0.012,0.116,2.331,2.442,276.78,748.33
2.85,3.95,86.203,0.049,-0.013,0.111,2.331,2.442,267.38,758.17
0.1,4.03,81.304,0.048,-0.018,0.116,0.999,0.999,286.07,735.93
0.3,4.1,77.24,0.044,-0.019,0.117,0.999,0.999,290.17,731.83
0.5,4.17,74.971,0.041,-0.019,0.118,0.999,0.999,294.28,727.72
0.7,4.23,70.985,0.038,-0.018,0.118,0.999,0.999,298.43,723.57
0.9,4.3,69.861,0.035,-0.019,0.119,0.999,0.999,302.57,719.43
1.1,4.37,64.098,0.032,-0.019,0.121,0.999,0.999,306.68,715.32
1.29,4.43,64.928,0.028,-0.02,0.122,0.999,0.999,310.76,711.24
1.49,4.5,60.546,0.024,-0.021,0.122,0.999,0.999,314.88,707.12
1.69,4.5600000000000005,55.379,0.021,-0.021,0.123,0.999,0.999,319.03,702.97
1.89,4.63,53.301,0.016,-0.02,0.123,0.999,0.999,323.16,698.84
2.09,4.7,50.591,0.014,-0.02,0.123,0.999,0.999,327.28,694.72
2.29,4.76,48.643,0.01,-0.021,0.122,0.999,0.999,331.39,690.61
2.49,4.83,45.75,0.005,-0.021,0.122,0.999,0.999,335.49,686.51
2.69,4.9,44.486,-0.0,-0.019,0.121,0.999,0.999,339.61,682.39
2.89,4.96,26.331,-0.004,-0.019,0.121,0.999,0.999,343.72,678.28
0.1,5.03,39.499,0.019,-0.012,0.124,1.554,1.554,315.22,707.78
0.3,5.1,33.156,0.017,-0.012,0.127,1.554,1.554,321.51,701.49
0.49,5.16,26.331,0.014,-0.011,0.132,1.554,1.554,327.83,695.17
0.69,5.23,29.483,0.012,-0.011,0.135,1.554,1.554,334.1,688.9
0.9,5.3,19.848,0.01,-0.01,0.14,1.554,1.554,340.78,682.22
1.1,5.37,14.884,0.008,-0.009,0.143,1.554,1.554,347.25,675.75
1.29,5.43,21.801,0.007,-0.006,0.147,1.554,1.554,353.59,669.41
1.49,5.5,9.335,0.005,-0.006,0.149,1.554,1.554,359.87,663.13
1.68,5.5600000000000005,8.408,0.002,-0.004,0.151,1.554,1.554,366.13,656.87
1.88,5.63,8.909,0.001,-0.002,0.154,1.554,1.554,372.4,650.6
2.07,5.6899999999999995,-1.918,-0.0,-0.001,0.157,1.554,1.554,378.67,644.33
2.27,5.76,5.165,-0.0,0.0,0.16,1.554,1.554,384.93,638.07
2.46,5.82,4.135,-0.003,0.002,0.161,1.554,1.554,391.18,631.82
2.66,5.89,-3.197,-0.004,0.003,0.162,1.554,1.554,397.44,625.56
2.85,5.95,0.499,-0.006,0.006,0.165,1.554,1.554,403.7,619.3
    
Periode per step: 2.0 s Pola: tengkurap
Elapsed,Step,Pitch Angle,CoMx(m),CoMy(m),CoMz(m),Left Ankle Speed(rpm),Right Ankle Speed(rpm),Left Ankle Angle,Right Ankle Angle
0.1,0.05,90.052,0.004,-0.009,0.166,4.662,4.551,385.65,636.58
0.3,0.15,89.02,-0.001,-0.011,0.17,4.662,4.551,404.95,617.74
0.5,0.25,89.102,-0.007,-0.012,0.172,4.662,4.551,423.94,599.2
0.7,0.35,84.722,-0.011,-0.013,0.174,4.662,4.551,443.18,580.42
0.89,0.45,81.621,-0.018,-0.015,0.174,4.662,4.551,462.15,561.9
1.09,0.54,81.427,-0.024,-0.015,0.175,4.662,4.551,481.13,543.37
1.29,0.64,79.637,-0.03,-0.017,0.174,4.662,4.551,500.06,524.89
1.48,0.74,78.811,-0.035,-0.018,0.171,4.662,4.551,518.96,506.44
1.68,0.84,77.769,-0.043,-0.02,0.17,4.662,4.551,537.84,488.01
1.87,0.94,77.027,-0.049,-0.021,0.167,4.662,4.551,556.75,469.55
0.1,1.05,76.111,-0.036,-0.01,0.171,3.996,3.774,540.73,487.81
0.3,1.15,79.636,-0.03,-0.009,0.173,3.996,3.774,524.34,503.29
0.5,1.25,78.931,-0.025,-0.007,0.175,3.996,3.774,507.79,518.92
0.7,1.35,81.366,-0.021,-0.006,0.177,3.996,3.774,491.23,534.56
0.9,1.45,85.603,-0.015,-0.003,0.178,3.996,3.774,474.78,550.1
1.09,1.55,84.689,-0.009,-0.001,0.178,3.996,3.774,458.5,565.47
1.29,1.65,86.087,-0.003,-0.0,0.179,3.996,3.774,442.17,580.89
1.49,1.74,89.773,0.001,0.003,0.176,3.996,3.774,425.84,596.32
1.69,1.8399999999999999,85.415,0.008,0.004,0.175,3.996,3.774,409.5,611.75
1.88,1.94,90.574,0.012,0.005,0.175,3.996,3.774,393.26,627.09
0.1,2.05,96.398,0.006,-0.013,0.17,0.555,0.555,406.15,615.15
0.3,2.15,91.004,0.007,-0.015,0.171,0.555,0.555,408.4,617.4
0.49,2.25,94.338,0.009,-0.016,0.171,0.555,0.555,410.65,619.65
0.69,2.35,93.534,0.01,-0.018,0.171,0.555,0.555,412.92,621.92
0.89,2.45,93.402,0.011,-0.019,0.171,0.555,0.555,415.24,624.24
1.09,2.54,92.624,0.012,-0.02,0.17,0.555,0.555,417.47,626.47
1.28,2.64,92.24,0.014,-0.022,0.17,0.555,0.555,419.71,628.71
1.48,2.74,94.618,0.013,-0.023,0.169,0.555,0.555,421.94,630.94
1.67,2.84,91.439,0.015,-0.024,0.169,0.555,0.555,424.18,633.18
1.87,2.93,90.474,0.018,-0.025,0.169,0.555,0.555,426.42,635.42
0.1,3.05,92.078,0.01,-0.014,0.169,3.33,3.441,398.11,621.12
0.3,3.15,100.849,0.017,-0.014,0.166,3.33,3.441,384.67,635.01
0.49,3.25,97.692,0.023,-0.015,0.162,3.33,3.441,371.22,648.9
0.69,3.34,100.239,0.027,-0.014,0.156,3.33,3.441,357.5,663.08
0.89,3.44,94.374,0.032,-0.014,0.15,3.33,3.441,343.94,677.09
1.08,3.54,102.541,0.036,-0.015,0.144,3.33,3.441,330.46,691.03
1.28,3.64,91.928,0.041,-0.014,0.138,3.33,3.441,316.92,705.01
1.47,3.74,78.483,0.044,-0.015,0.131,3.33,3.441,303.53,718.86
1.67,3.83,83.126,0.048,-0.014,0.122,3.33,3.441,290.12,732.71
1.86,3.93,72.687,0.051,-0.015,0.116,3.33,3.441,276.71,746.56
0.1,4.05,77.098,0.046,-0.018,0.116,1.332,1.332,286.76,735.24
0.3,4.15,74.89,0.042,-0.019,0.117,1.332,1.332,292.21,729.79
0.5,4.25,73.23,0.039,-0.017,0.118,1.332,1.332,297.69,724.31
0.69,4.35,59.425,0.035,-0.018,0.12,1.332,1.332,303.1,718.9
0.89,4.44,61.713,0.03,-0.018,0.122,1.332,1.332,308.49,713.51
1.08,4.54,58.849,0.025,-0.018,0.124,1.332,1.332,313.87,708.13
1.28,4.64,55.784,0.022,-0.018,0.123,1.332,1.332,319.24,702.76
1.47,4.74,39.06,0.015,-0.017,0.124,1.332,1.332,324.61,697.39
1.67,4.83,43.534,0.011,-0.018,0.123,1.332,1.332,330.0,692.0
1.86,4.93,42.296,0.007,-0.017,0.123,1.332,1.332,335.38,686.62
0.1,5.05,41.598,0.02,-0.013,0.125,2.109,1.998,313.36,706.87
0.29,5.15,24.673,0.017,-0.012,0.131,2.109,1.998,321.86,698.81
0.49,5.24,26.088,0.016,-0.011,0.135,2.109,1.998,330.36,690.76
0.68,5.34,19.514,0.014,-0.009,0.143,2.109,1.998,338.87,682.71
0.88,5.44,14.334,0.011,-0.008,0.145,2.109,1.998,347.36,674.65
1.07,5.54,13.378,0.009,-0.006,0.151,2.109,1.998,355.86,666.61
1.27,5.64,5.06,0.004,-0.004,0.155,2.109,1.998,364.61,658.32
1.47,5.73,2.737,0.005,-0.003,0.158,2.109,1.998,373.11,650.26
1.66,5.83,-1.019,0.002,-0.002,0.161,2.109,1.998,381.63,642.2
1.86,5.93,-5.465,0.0,0.0,0.163,2.109,1.998,390.13,634.14
    
Periode per step: 1.0 s Pola: tengkurap
Elapsed,Step,Pitch Angle,CoMx(m),CoMy(m),CoMz(m),Left Ankle Speed(rpm),Right Ankle Speed(rpm),Left Ankle Angle,Right Ankle Angle
0.1,0.1,88.641,0.002,-0.009,0.167,8.88,8.547,394.38,627.31
0.3,0.3,87.107,-0.008,-0.012,0.172,8.88,8.547,430.95,592.11
0.5,0.5,83.214,-0.019,-0.014,0.174,8.88,8.547,467.09,557.33
0.69,0.69,81.388,-0.029,-0.015,0.174,8.88,8.547,502.96,522.81
0.89,0.89,77.722,-0.04,-0.016,0.17,8.88,8.547,538.8,488.3
0.1,1.1,77.004,-0.033,-0.009,0.173,7.437,7.104,534.61,495.7
0.3,1.3,81.16,-0.023,-0.008,0.175,7.437,7.104,504.19,524.76
0.5,1.5,84.183,-0.012,-0.008,0.177,7.437,7.104,473.12,554.44
0.69,1.69,89.329,-0.003,-0.007,0.176,7.437,7.104,443.11,583.1
0.89,1.8900000000000001,91.68,0.006,-0.005,0.174,7.437,7.104,413.06,611.81
0.1,2.1,92.548,0.006,-0.013,0.17,0.555,0.666,405.15,615.38
0.3,2.3,91.242,0.01,-0.015,0.171,0.555,0.666,407.42,618.11
0.5,2.5,92.597,0.013,-0.017,0.171,0.555,0.666,409.7,620.83
0.69,2.69,92.851,0.017,-0.018,0.172,0.555,0.666,411.95,623.54
0.89,2.89,92.341,0.021,-0.02,0.17,0.555,0.666,414.22,626.27
0.1,3.1,91.742,0.012,-0.014,0.169,6.105,6.327,391.37,627.09
0.3,3.3,101.669,0.024,-0.015,0.16,6.105,6.327,366.46,652.9
0.5,3.5,89.887,0.033,-0.016,0.149,6.105,6.327,341.4,678.88
0.69,3.69,91.893,0.04,-0.016,0.136,6.105,6.327,316.64,704.54
0.89,3.89,70.376,0.047,-0.016,0.12,6.105,6.327,292.07,730.0
0.1,4.1,76.504,0.045,-0.018,0.116,2.22,2.109,286.59,734.64
0.3,4.3,71.275,0.039,-0.017,0.118,2.22,2.109,295.69,725.99
0.5,4.5,60.624,0.032,-0.017,0.122,2.22,2.109,304.79,717.35
0.7,4.7,54.128,0.024,-0.017,0.124,2.22,2.109,313.99,708.61
0.89,4.89,35.898,0.015,-0.015,0.125,2.22,2.109,323.06,699.99
0.1,5.1,44.047,0.019,-0.013,0.128,3.6630000000000003,3.552,318.58,702.65
0.3,5.3,22.302,0.015,-0.012,0.138,3.6630000000000003,3.552,333.46,688.22
0.49,5.49,10.987,0.012,-0.01,0.148,3.6630000000000003,3.552,348.23,673.9
0.69,5.6899999999999995,12.336,0.008,-0.007,0.156,3.6630000000000003,3.552,363.0,659.57
0.88,5.88,-19.636,0.006,-0.006,0.163,3.6630000000000003,3.552,377.75,645.27
    
Periode per step: 0.8 s Pola: tengkurap
Elapsed,Step,Pitch Angle,CoMx(m),CoMy(m),CoMz(m),Left Ankle Speed(rpm),Right Ankle Speed(rpm),Left Ankle Angle,Right Ankle Angle
0.1,0.13,89.716,0.001,-0.009,0.169,10.989,10.545,398.74,623.18
0.3,0.38,84.573,-0.012,-0.012,0.173,10.989,10.545,444.25,579.51
0.5,0.62,81.462,-0.025,-0.013,0.174,10.989,10.545,489.61,535.98
0.7,0.87,77.762,-0.038,-0.015,0.171,10.989,10.545,534.93,492.49
0.1,1.13,81.135,-0.031,-0.009,0.173,9.213000000000001,8.769,530.94,498.14
0.3,1.37,82.187,-0.021,-0.009,0.175,9.213000000000001,8.769,493.54,533.74
0.49,1.62,86.179,-0.007,-0.009,0.176,9.213000000000001,8.769,456.14,569.34
0.69,1.8599999999999999,92.081,0.004,-0.008,0.175,9.213000000000001,8.769,418.99,604.69
0.1,2.13,91.039,0.006,-0.013,0.17,0.666,0.555,405.38,617.15
0.29,2.37,92.946,0.011,-0.015,0.171,0.666,0.555,408.06,619.38
0.49,2.61,94.276,0.013,-0.016,0.17,0.666,0.555,410.74,621.61
0.68,2.86,91.763,0.016,-0.018,0.172,0.666,0.555,413.43,623.86
0.1,3.13,91.261,0.017,-0.014,0.167,7.548,7.659,388.38,631.85
0.3,3.37,107.971,0.028,-0.015,0.155,7.548,7.659,357.89,662.79
0.49,3.61,116.68,0.037,-0.016,0.143,7.548,7.659,327.44,693.69
0.69,3.86,69.011,0.047,-0.015,0.125,7.548,7.659,297.0,724.57
0.1,4.13,77.197,0.045,-0.018,0.116,2.664,2.553,287.51,733.72
0.3,4.37,66.297,0.036,-0.017,0.119,2.664,2.553,298.43,723.25
0.5,4.62,57.119,0.027,-0.016,0.123,2.664,2.553,309.4,712.74
0.7,4.87,35.714,0.016,-0.015,0.125,2.664,2.553,320.32,702.27
0.1,5.13,45.81,0.019,-0.013,0.129,4.44,4.329,320.19,701.04
0.3,5.37,14.282,0.014,-0.011,0.143,4.44,4.329,338.23,683.45
0.49,5.62,1.795,0.01,-0.009,0.153,4.44,4.329,356.37,665.77
0.69,5.86,5.452,0.006,-0.007,0.161,4.44,4.329,374.52,648.07
    
Periode per step: 0.6 s Pola: tengkurap
Elapsed,Step,Pitch Angle,CoMx(m),CoMy(m),CoMz(m),Left Ankle Speed(rpm),Right Ankle Speed(rpm),Left Ankle Angle,Right Ankle Angle
0.1,0.17,86.932,-0.0,-0.01,0.168,14.541,13.986,406.1,616.05
0.3,0.5,82.666,-0.018,-0.012,0.175,14.541,13.986,465.88,558.55
0.5,0.83,74.542,-0.035,-0.014,0.17,14.541,13.986,525.38,501.32
0.1,1.17,76.527,-0.03,-0.009,0.172,12.21,11.655,525.73,503.12
0.3,1.49,81.93,-0.014,-0.01,0.176,12.21,11.655,476.36,550.25
0.49,1.8199999999999998,88.571,0.001,-0.009,0.174,12.21,11.655,427.14,597.23
0.1,2.17,85.357,0.006,-0.013,0.17,0.666,0.555,405.38,617.15
0.29,2.49,89.785,0.011,-0.015,0.172,0.666,0.555,408.06,619.39
0.49,2.82,89.197,0.013,-0.017,0.171,0.666,0.555,410.75,621.62
0.1,3.17,94.075,0.017,-0.015,0.166,9.879,10.101,383.56,636.9
0.3,3.49,85.16,0.033,-0.016,0.149,9.879,10.101,343.68,677.67
0.49,3.82,31.842,0.044,-0.016,0.127,9.879,10.101,303.8,718.45
0.1,4.17,78.069,0.044,-0.018,0.116,3.441,3.33,288.12,733.11
0.3,4.5,59.855,0.033,-0.016,0.121,3.441,3.33,302.23,719.46
0.5,4.83,36.524,0.02,-0.016,0.123,3.441,3.33,316.36,705.78
0.1,5.17,40.181,0.017,-0.013,0.132,5.6610000000000005,5.55,323.72,698.51
0.3,5.49,9.814,0.013,-0.01,0.149,5.6610000000000005,5.55,346.75,675.93
0.49,5.82,-2.986,0.008,-0.008,0.159,5.6610000000000005,5.55,369.86,653.27
    
Periode per step: 0.4 s Pola: tengkurap
Elapsed,Step,Pitch Angle,CoMx(m),CoMy(m),CoMz(m),Left Ankle Speed(rpm),Right Ankle Speed(rpm),Left Ankle Angle,Right Ankle Angle
0.1,0.25,83.35,-0.003,-0.01,0.172,21.534,20.646,420.56,602.28
0.3,0.75,78.648,-0.03,-0.012,0.174,21.534,20.646,509.25,517.24
0.1,1.25,83.279,-0.027,-0.009,0.175,17.871,17.205000000000002,513.02,514.6
0.3,1.75,87.163,-0.003,-0.011,0.177,17.871,17.205000000000002,439.72,585.17
0.1,2.25,96.411,0.008,-0.014,0.17,0.666,0.666,406.38,617.38
0.3,2.75,90.16,0.012,-0.015,0.172,0.666,0.666,409.12,620.12
0.1,3.25,96.328,0.021,-0.016,0.164,14.652000000000001,14.874,374.68,646.78
0.3,3.75,153.116,0.042,-0.018,0.133,14.652000000000001,14.874,314.0,708.38
0.1,4.25,72.207,0.041,-0.018,0.117,5.328,4.662,289.03,729.35
0.3,4.75,53.066,0.024,-0.016,0.122,5.328,4.662,310.93,710.19
0.1,5.25,48.006,0.016,-0.012,0.135,7.881,7.7700000000000005,331.31,690.92
0.3,5.74,6.623,0.008,-0.009,0.157,7.881,7.7700000000000005,363.4,659.28
    
Periode per step: 0.3 s Pola: tengkurap
Elapsed,Step,Pitch Angle,CoMx(m),CoMy(m),CoMz(m),Left Ankle Speed(rpm),Right Ankle Speed(rpm),Left Ankle Angle,Right Ankle Angle
0.1,0.33,68.321,-0.007,-0.01,0.172,28.527,27.528,435.05,589.02
0.3,0.99,60.138,-0.041,-0.013,0.168,28.527,27.528,551.7,476.45
0.1,1.33,78.757,-0.023,-0.01,0.175,23.754,22.755,500.84,526.09
0.3,2.0,89.257,0.008,-0.011,0.173,23.754,22.755,402.99,619.83
0.1,2.33,99.838,0.008,-0.014,0.17,0.666,0.666,406.38,617.38
0.3,2.99,85.585,0.012,-0.015,0.172,0.666,0.666,409.11,620.11
0.1,3.33,104.801,0.025,-0.017,0.157,19.314,19.647000000000002,365.04,656.65
0.3,3.99,-104.592,0.048,-0.018,0.114,19.314,19.647000000000002,286.15,736.9
0.1,4.33,71.65,0.04,-0.018,0.118,6.993,6.327,292.47,727.91
0.3,4.99,40.205,0.015,-0.014,0.125,6.993,6.327,321.01,702.08
0.1,5.33,42.934,0.012,-0.011,0.14,10.767,10.323,334.28,686.64
0.3,5.99,20.368,0.008,-0.008,0.166,10.767,10.323,378.0,644.72
    
Periode per step: 0.2 s Pola: tengkurap
Elapsed,Step,Pitch Angle,CoMx(m),CoMy(m),CoMz(m),Left Ankle Speed(rpm),Right Ankle Speed(rpm),Left Ankle Angle,Right Ankle Angle
0.1,0.5,66.215,-0.016,-0.01,0.174,42.513,40.848,463.98,560.46
0.1,1.5,86.62,-0.016,-0.011,0.176,35.298,34.299,476.96,547.97
0.1,2.5,116.802,0.009,-0.014,0.17,0.777,0.777,406.61,617.61
0.1,3.5,102.706,0.032,-0.017,0.149,28.749,29.304000000000002,345.5,676.64
0.1,4.5,55.328,0.032,-0.016,0.121,9.435,9.435,300.53,722.47
0.1,5.5,33.518,0.015,-0.013,0.148,15.207,14.541,346.47,674.91
    
Periode per step: 5.0 s Pola: telentang
Elapsed,Step,Pitch Angle,CoMx(m),CoMy(m),CoMz(m),Left Ankle Speed(rpm),Right Ankle Speed(rpm),Left Ankle Angle,Right Ankle Angle
0.1,0.02,-79.536,0.006,-0.009,0.166,1.776,1.665,378.68,641.55
0.3,0.06,-79.769,0.004,-0.01,0.167,1.776,1.665,386.01,634.68
0.5,0.1,-80.498,0.001,-0.012,0.168,1.776,1.665,393.29,627.86
0.7,0.14,-81.388,0.0,-0.013,0.169,1.776,1.665,400.59,621.01
0.9,0.18,-79.82,0.0,-0.014,0.172,1.776,1.665,407.91,614.15
1.09,0.22,-77.586,-0.001,-0.015,0.172,1.776,1.665,415.17,607.34
1.29,0.26,-80.052,-0.001,-0.016,0.173,1.776,1.665,422.37,600.59
1.48,0.3,-79.244,-0.003,-0.017,0.175,1.776,1.665,429.55,593.86
1.68,0.34,-78.938,-0.003,-0.019,0.175,1.776,1.665,436.76,587.1
1.88,0.38,-78.986,-0.006,-0.02,0.176,1.776,1.665,443.93,580.38
2.07,0.41,-79.304,-0.007,-0.021,0.177,1.776,1.665,451.08,573.67
2.27,0.45,-79.527,-0.009,-0.023,0.177,1.776,1.665,458.25,566.96
2.46,0.49,-79.351,-0.009,-0.024,0.177,1.776,1.665,465.41,560.24
2.66,0.53,-80.014,-0.011,-0.025,0.177,1.776,1.665,472.56,553.53
2.85,0.57,-81.091,-0.012,-0.026,0.178,1.776,1.665,479.75,546.8
3.05,0.61,-83.093,-0.013,-0.027,0.178,1.776,1.665,486.9,540.09
3.24,0.65,-81.967,-0.015,-0.028,0.176,1.776,1.665,494.06,533.38
3.44,0.69,-81.991,-0.015,-0.03,0.178,1.776,1.665,501.26,526.63
3.63,0.73,-82.14,-0.018,-0.031,0.177,1.776,1.665,508.47,519.87
3.83,0.77,-82.352,-0.018,-0.033,0.176,1.776,1.665,515.67,513.12
4.02,0.8,-83.221,-0.02,-0.034,0.175,1.776,1.665,522.87,506.37
4.22,0.84,-82.269,-0.022,-0.034,0.174,1.776,1.665,530.13,499.57
4.42,0.88,-82.118,-0.024,-0.035,0.174,1.776,1.665,537.39,492.76
4.62,0.92,-81.31,-0.026,-0.036,0.172,1.776,1.665,544.65,485.95
4.81,0.96,-82.224,-0.027,-0.037,0.171,1.776,1.665,551.89,479.16
0.1,1.02,-81.98,-0.002,-0.008,0.174,0.666,0.666,504.62,521.38
0.29,1.06,-83.511,-0.006,-0.008,0.175,0.666,0.666,501.94,524.06
0.49,1.1,-84.697,-0.01,-0.011,0.174,0.666,0.666,499.26,526.74
0.68,1.1400000000000001,-84.737,-0.014,-0.012,0.176,0.666,0.666,496.58,529.42
0.88,1.18,-90.888,-0.017,-0.013,0.173,0.666,0.666,493.89,532.11
1.07,1.21,-92.172,-0.023,-0.016,0.173,0.666,0.666,491.21,534.79
1.27,1.25,-93.557,-0.028,-0.017,0.173,0.666,0.666,488.52,537.48
1.46,1.29,-93.395,-0.033,-0.017,0.171,0.666,0.666,485.84,540.16
1.66,1.33,-92.929,-0.038,-0.019,0.168,0.666,0.666,483.15,542.85
1.85,1.37,-96.687,-0.043,-0.019,0.165,0.666,0.666,480.47,545.53
2.05,1.41,-99.372,-0.048,-0.019,0.163,0.666,0.666,477.78,548.22
2.24,1.45,-102.035,-0.052,-0.018,0.157,0.666,0.666,475.11,550.89
2.44,1.49,-103.293,-0.056,-0.018,0.154,0.666,0.666,472.43,553.57
2.63,1.53,-102.985,-0.06,-0.018,0.149,0.666,0.666,469.74,556.26
2.83,1.5699999999999998,-107.728,-0.065,-0.018,0.142,0.666,0.666,467.05,558.95
3.02,1.6,-107.826,-0.068,-0.018,0.137,0.666,0.666,464.37,561.63
3.22,1.6400000000000001,-111.98,-0.069,-0.017,0.129,0.666,0.666,461.69,564.31
3.41,1.6800000000000002,-111.141,-0.072,-0.015,0.123,0.666,0.666,459.0,567.0
3.61,1.72,-111.513,-0.072,-0.014,0.115,0.666,0.666,456.3,569.7
3.8,1.76,-112.213,-0.073,-0.011,0.108,0.666,0.666,453.62,572.38
4.0,1.8,-110.485,-0.073,-0.011,0.101,0.666,0.666,450.94,575.06
4.19,1.8399999999999999,-112.783,-0.071,-0.009,0.095,0.666,0.666,448.25,577.75
4.39,1.88,-112.775,-0.07,-0.009,0.087,0.666,0.666,445.57,580.43
4.58,1.92,-113.162,-0.067,-0.007,0.08,0.666,0.666,442.88,583.12
4.78,1.96,-111.981,-0.064,-0.005,0.073,0.666,0.666,440.2,585.8
4.97,1.99,-111.896,-0.061,-0.004,0.066,0.666,0.666,437.51,588.49
0.1,2.02,-110.994,-0.082,-0.002,0.081,2.886,2.997,480.03,541.2
0.3,2.06,-110.743,-0.078,-0.002,0.084,2.886,2.997,468.16,553.53
0.5,2.1,-112.112,-0.075,-0.002,0.085,2.886,2.997,456.33,565.82
0.69,2.14,-113.038,-0.071,-0.003,0.086,2.886,2.997,444.63,577.96
0.89,2.18,-108.932,-0.067,-0.004,0.087,2.886,2.997,432.91,590.13
1.09,2.22,-101.821,-0.064,-0.004,0.088,2.886,2.997,421.16,602.33
1.28,2.26,-104.7,-0.061,-0.004,0.09,2.886,2.997,409.35,614.6
1.48,2.3,-102.457,-0.057,-0.005,0.089,2.886,2.997,397.54,626.86
1.68,2.34,-97.677,-0.053,-0.005,0.09,2.886,2.997,385.75,639.11
1.88,2.38,-99.843,-0.051,-0.006,0.09,2.886,2.997,373.95,651.36
2.07,2.41,-95.302,-0.045,-0.007,0.089,2.886,2.997,362.29,663.46
2.27,2.45,-93.66,-0.041,-0.007,0.09,2.886,2.997,350.63,675.57
2.46,2.49,-90.889,-0.038,-0.006,0.088,2.886,2.997,338.99,687.66
2.66,2.5300000000000002,-89.036,-0.035,-0.007,0.088,2.886,2.997,327.36,699.74
2.85,2.57,-84.719,-0.031,-0.006,0.087,2.886,2.997,315.74,711.81
3.05,2.61,-92.211,-0.03,-0.006,0.085,2.886,2.997,304.1,723.9
3.24,2.65,-82.743,-0.025,-0.007,0.084,2.886,2.997,292.46,735.98
3.44,2.69,-81.058,-0.021,-0.005,0.082,2.886,2.997,280.83,748.07
3.63,2.73,-80.269,-0.019,-0.006,0.081,2.886,2.997,269.18,760.16
3.83,2.77,-74.967,-0.017,-0.005,0.08,2.886,2.997,257.5,772.28
4.02,2.8,-78.54,-0.014,-0.004,0.078,2.886,2.997,245.87,784.37
4.22,2.84,-81.256,-0.012,-0.004,0.076,2.886,2.997,234.2,796.49
4.41,2.88,-83.192,-0.011,-0.004,0.073,2.886,2.997,222.54,808.59
4.61,2.92,-77.415,-0.009,-0.004,0.073,2.886,2.997,210.87,820.71
4.8,2.96,-72.207,-0.006,-0.004,0.071,2.886,2.997,199.2,832.83
5.0,3.0,-71.723,-0.006,-0.003,0.07,2.886,2.997,187.55,844.93
0.1,3.02,-73.719,-0.01,-0.003,0.099,0.555,0.666,244.85,784.38
0.3,3.06,-73.511,-0.008,-0.002,0.103,0.555,0.666,242.56,787.13
0.5,3.1,-72.677,-0.005,-0.003,0.105,0.555,0.666,240.26,789.89
0.7,3.14,-74.515,-0.003,-0.004,0.107,0.555,0.666,238.01,792.59
0.89,3.18,-73.461,-0.0,-0.005,0.11,0.555,0.666,235.74,795.31
1.09,3.22,-73.913,0.004,-0.006,0.113,0.555,0.666,233.47,798.03
1.29,3.26,-74.519,0.006,-0.007,0.115,0.555,0.666,231.21,800.74
1.48,3.3,-73.798,0.009,-0.009,0.119,0.555,0.666,228.96,803.45
1.68,3.34,-72.128,0.014,-0.01,0.122,0.555,0.666,226.7,806.16
1.88,3.38,-73.439,0.018,-0.012,0.122,0.555,0.666,224.46,808.85
2.07,3.41,-73.744,0.023,-0.014,0.126,0.555,0.666,222.22,811.53
2.27,3.45,-66.884,0.027,-0.016,0.126,0.555,0.666,219.98,814.22
2.46,3.49,-64.745,0.032,-0.018,0.126,0.555,0.666,217.7,816.96
2.67,3.5300000000000002,-64.68,0.036,-0.019,0.127,0.555,0.666,215.4,819.72
2.87,3.57,-54.294,0.041,-0.021,0.128,0.555,0.666,213.1,822.48
3.06,3.61,-58.171,0.046,-0.022,0.127,0.555,0.666,210.81,825.23
3.26,3.65,-55.79,0.051,-0.025,0.127,0.555,0.666,208.54,827.95
3.46,3.69,-52.248,0.055,-0.027,0.126,0.555,0.666,206.27,830.68
3.66,3.73,-55.923,0.061,-0.028,0.124,0.555,0.666,204.01,833.39
3.85,3.77,-54.095,0.064,-0.029,0.124,0.555,0.666,201.75,836.1
4.05,3.81,-56.108,0.068,-0.03,0.122,0.555,0.666,199.49,838.82
4.25,3.85,-55.044,0.073,-0.031,0.121,0.555,0.666,197.23,841.53
4.44,3.89,-53.623,0.075,-0.032,0.118,0.555,0.666,194.97,844.24
4.64,3.93,-53.308,0.079,-0.031,0.116,0.555,0.666,192.73,846.92
4.83,3.9699999999999998,-54.93,0.083,-0.032,0.114,0.555,0.666,190.5,849.6
0.1,4.02,-51.27,0.02,-0.011,0.128,1.332,1.332,240.76,782.24
0.29,4.06,-52.349,0.02,-0.012,0.13,1.332,1.332,246.12,776.88
0.49,4.1,-55.842,0.02,-0.012,0.133,1.332,1.332,251.48,771.52
0.68,4.14,-44.458,0.018,-0.014,0.136,1.332,1.332,256.85,766.15
0.88,4.18,-52.296,0.018,-0.016,0.138,1.332,1.332,262.23,760.77
1.07,4.21,-47.69,0.018,-0.017,0.14,1.332,1.332,267.59,755.41
1.27,4.25,-49.245,0.019,-0.018,0.141,1.332,1.332,272.97,750.03
1.46,4.29,-45.199,0.018,-0.019,0.142,1.332,1.332,278.33,744.67
2.0,4.4,-41.115,0.015,-0.023,0.147,1.332,1.332,293.11,729.89
2.2,4.44,-42.453,0.016,-0.024,0.148,1.332,1.332,298.65,724.35
2.4,4.48,-42.082,0.016,-0.025,0.151,1.332,1.332,304.03,718.97
2.72,4.54,-39.403,0.015,-0.025,0.152,1.332,1.332,312.92,710.08
2.92,4.58,-39.986,0.013,-0.027,0.153,1.332,1.332,318.39,704.61
3.11,4.62,-34.368,0.013,-0.028,0.156,1.332,1.332,323.76,699.24
3.31,4.66,-39.364,0.012,-0.03,0.156,1.332,1.332,329.14,693.86
3.5,4.7,-34.277,0.011,-0.03,0.156,1.332,1.332,334.51,688.49
3.7,4.74,-33.837,0.012,-0.031,0.159,1.332,1.332,339.87,683.13
3.89,4.78,-31.007,0.011,-0.031,0.16,1.332,1.332,345.24,677.76
4.09,4.82,-29.062,0.011,-0.033,0.161,1.332,1.332,350.61,672.39
4.28,4.86,-21.854,0.011,-0.034,0.162,1.332,1.332,355.99,667.01
4.48,4.9,-20.433,0.01,-0.036,0.162,1.332,1.332,361.36,661.64
4.67,4.93,-20.816,0.009,-0.036,0.163,1.332,1.332,366.71,656.29
4.86,4.97,-19.78,0.007,-0.035,0.162,1.332,1.332,372.07,650.93
0.1,5.02,-17.905,0.001,-0.009,0.153,0.999,0.888,332.07,690.16
0.3,5.06,-24.023,0.001,-0.008,0.154,0.999,0.888,336.1,686.58
0.49,5.1,-15.258,0.001,-0.006,0.155,0.999,0.888,340.22,682.91
0.69,5.14,-13.77,0.002,-0.004,0.156,0.999,0.888,344.36,679.24
0.89,5.18,-17.732,0.002,-0.001,0.156,0.999,0.888,348.49,675.56
1.09,5.22,-14.128,0.001,0.001,0.158,0.999,0.888,352.63,671.88
1.3,5.26,-6.386,0.001,0.004,0.161,0.999,0.888,356.8,668.18
1.49,5.3,-8.593,0.002,0.005,0.162,0.999,0.888,360.84,664.59
1.69,5.34,-3.69,0.002,0.007,0.163,0.999,0.888,364.97,660.92
1.89,5.38,-7.396,0.002,0.008,0.165,0.999,0.888,369.04,657.3
2.08,5.42,-7.155,0.002,0.011,0.165,0.999,0.888,373.09,653.69
2.28,5.46,-6.744,0.002,0.013,0.166,0.999,0.888,377.15,650.08
2.48,5.5,-2.644,0.004,0.015,0.167,0.999,0.888,381.21,646.48
2.67,5.53,-5.666,0.004,0.018,0.166,0.999,0.888,385.25,642.89
2.87,5.57,-5.953,0.004,0.018,0.167,0.999,0.888,389.3,639.29
3.06,5.61,-5.872,0.005,0.021,0.169,0.999,0.888,393.34,635.7
3.26,5.65,-6.018,0.004,0.023,0.168,0.999,0.888,397.37,632.11
3.45,5.6899999999999995,-5.848,0.004,0.026,0.169,0.999,0.888,401.4,628.53
3.65,5.73,-6.064,0.005,0.028,0.17,0.999,0.888,405.42,624.96
3.84,5.77,-5.726,0.004,0.031,0.171,0.999,0.888,409.45,621.38
4.04,5.8100000000000005,-5.823,0.006,0.032,0.171,0.999,0.888,413.48,617.79
4.23,5.85,-5.601,0.006,0.034,0.171,0.999,0.888,417.51,614.21
4.43,5.89,-5.789,0.006,0.037,0.171,0.999,0.888,421.53,610.64
4.62,5.92,-5.533,0.008,0.04,0.171,0.999,0.888,425.57,607.05
4.82,5.96,-5.991,0.008,0.041,0.172,0.999,0.888,429.61,603.46
    
Periode per step: 4.0 s Pola: telentang
Elapsed,Step,Pitch Angle,CoMx(m),CoMy(m),CoMz(m),Left Ankle Speed(rpm),Right Ankle Speed(rpm),Left Ankle Angle,Right Ankle Angle
0.1,0.03,-80.052,0.008,-0.01,0.165,2.109,1.998,378.36,642.87
0.3,0.07,-81.652,0.006,-0.011,0.168,2.109,1.998,387.06,634.63
0.5,0.12,-80.056,0.004,-0.012,0.169,2.109,1.998,395.65,626.49
0.69,0.17,-79.387,0.003,-0.014,0.171,2.109,1.998,404.24,618.35
0.89,0.22,-79.101,0.002,-0.015,0.171,2.109,1.998,412.82,610.22
1.09,0.27,-80.872,0.002,-0.016,0.174,2.109,1.998,421.39,602.1
1.28,0.32,-79.248,0.001,-0.017,0.174,2.109,1.998,429.94,594.0
1.48,0.37,-80.14,-0.001,-0.017,0.176,2.109,1.998,438.48,585.91
1.67,0.42,-80.127,-0.002,-0.019,0.177,2.109,1.998,447.04,577.81
1.87,0.47,-79.685,-0.002,-0.021,0.177,2.109,1.998,455.58,569.72
2.07,0.52,-80.352,-0.004,-0.022,0.177,2.109,1.998,464.13,561.61
2.26,0.57,-80.466,-0.006,-0.023,0.177,2.109,1.998,472.72,553.48
2.46,0.61,-79.151,-0.007,-0.023,0.177,2.109,1.998,481.26,545.38
2.65,0.66,-81.162,-0.008,-0.025,0.178,2.109,1.998,489.74,537.35
2.85,0.71,-80.717,-0.01,-0.025,0.178,2.109,1.998,498.26,529.28
3.04,0.76,-80.748,-0.011,-0.026,0.176,2.109,1.998,506.77,521.22
3.24,0.81,-79.808,-0.013,-0.028,0.175,2.109,1.998,515.26,513.17
3.43,0.86,-81.493,-0.015,-0.03,0.175,2.109,1.998,523.76,505.13
3.63,0.91,-81.391,-0.017,-0.031,0.174,2.109,1.998,532.25,497.08
3.82,0.96,-81.031,-0.018,-0.032,0.172,2.109,1.998,540.74,489.04
0.1,1.03,-70.879,-0.003,-0.009,0.174,0.777,0.777,504.39,521.61
0.3,1.07,-82.971,-0.01,-0.009,0.175,0.777,0.777,501.21,524.79
0.49,1.12,-85.956,-0.013,-0.011,0.175,0.777,0.777,498.08,527.92
0.69,1.17,-87.576,-0.017,-0.012,0.174,0.777,0.777,494.95,531.05
0.88,1.22,-88.589,-0.023,-0.016,0.173,0.777,0.777,491.8,534.2
1.08,1.27,-87.853,-0.029,-0.017,0.171,0.777,0.777,488.64,537.36
1.28,1.32,-95.931,-0.035,-0.017,0.17,0.777,0.777,485.48,540.52
1.47,1.37,-93.695,-0.042,-0.017,0.166,0.777,0.777,482.3,543.7
1.67,1.42,-100.989,-0.048,-0.018,0.163,0.777,0.777,479.13,546.87
1.87,1.47,-98.156,-0.053,-0.017,0.157,0.777,0.777,475.95,550.05
2.07,1.52,-105.457,-0.058,-0.016,0.153,0.777,0.777,472.75,553.25
2.26,1.5699999999999998,-108.849,-0.064,-0.015,0.146,0.777,0.777,469.6,556.4
2.46,1.62,-107.833,-0.067,-0.015,0.139,0.777,0.777,466.43,559.57
2.66,1.6600000000000001,-112.697,-0.071,-0.014,0.128,0.777,0.777,463.27,562.73
2.85,1.71,-110.739,-0.073,-0.014,0.122,0.777,0.777,460.11,565.89
3.05,1.76,-115.678,-0.076,-0.012,0.113,0.777,0.777,456.93,569.07
3.25,1.81,-114.505,-0.073,-0.01,0.104,0.777,0.777,453.78,572.22
3.44,1.8599999999999999,-113.203,-0.071,-0.009,0.096,0.777,0.777,450.63,575.37
3.64,1.9100000000000001,-114.041,-0.07,-0.006,0.085,0.777,0.777,447.47,578.53
3.84,1.96,-112.446,-0.067,-0.005,0.077,0.777,0.777,444.33,581.67
0.1,2.03,-112.973,-0.082,-0.002,0.082,3.441,3.6630000000000003,478.88,542.58
0.3,2.07,-115.34,-0.077,-0.002,0.085,3.441,3.6630000000000003,464.94,557.42
0.49,2.12,-112.022,-0.073,-0.002,0.086,3.441,3.6630000000000003,451.1,572.15
0.68,2.17,-110.952,-0.069,-0.003,0.087,3.441,3.6630000000000003,437.25,586.89
0.88,2.22,-105.41,-0.065,-0.003,0.09,3.441,3.6630000000000003,423.4,601.64
1.07,2.27,-103.285,-0.06,-0.003,0.091,3.441,3.6630000000000003,409.53,616.4
1.27,2.32,-100.387,-0.056,-0.004,0.091,3.441,3.6630000000000003,395.48,631.36
1.47,2.37,-97.374,-0.05,-0.005,0.092,3.441,3.6630000000000003,381.38,646.37
1.67,2.42,-95.797,-0.047,-0.006,0.091,3.441,3.6630000000000003,367.32,661.33
1.86,2.4699999999999998,-91.767,-0.041,-0.006,0.091,3.441,3.6630000000000003,353.29,676.27
2.06,2.52,-87.584,-0.037,-0.006,0.09,3.441,3.6630000000000003,339.28,691.18
2.26,2.56,-84.895,-0.034,-0.006,0.09,3.441,3.6630000000000003,325.28,706.09
2.45,2.61,-81.85,-0.03,-0.005,0.089,3.441,3.6630000000000003,311.29,720.98
2.65,2.66,-79.396,-0.027,-0.006,0.087,3.441,3.6630000000000003,297.26,735.91
2.85,2.71,-77.989,-0.021,-0.006,0.087,3.441,3.6630000000000003,283.18,750.91
3.04,2.76,-78.078,-0.018,-0.006,0.084,3.441,3.6630000000000003,269.27,765.72
3.24,2.81,-74.767,-0.014,-0.006,0.084,3.441,3.6630000000000003,255.38,780.5
3.43,2.86,-78.334,-0.011,-0.005,0.081,3.441,3.6630000000000003,241.51,795.26
3.63,2.91,-73.647,-0.009,-0.004,0.081,3.441,3.6630000000000003,227.63,810.04
3.82,2.96,-72.512,-0.007,-0.004,0.076,3.441,3.6630000000000003,213.69,824.87
0.1,3.03,-72.453,-0.01,-0.003,0.099,0.555,0.666,243.85,783.38
0.3,3.08,-72.242,-0.008,-0.002,0.103,0.555,0.666,241.55,786.15
0.5,3.13,-73.832,-0.005,-0.002,0.106,0.555,0.666,239.26,788.89
0.69,3.17,-74.363,-0.002,-0.004,0.11,0.555,0.666,237.02,791.57
0.89,3.22,-72.905,0.001,-0.004,0.112,0.555,0.666,234.78,794.26
1.08,3.27,-72.935,0.005,-0.006,0.116,0.555,0.666,232.55,796.95
1.28,3.32,-70.292,0.008,-0.008,0.119,0.555,0.666,230.31,799.63
1.48,3.37,-67.925,0.012,-0.01,0.122,0.555,0.666,228.06,802.33
1.67,3.42,-69.388,0.017,-0.012,0.123,0.555,0.666,225.82,805.02
1.87,3.4699999999999998,-68.44,0.022,-0.014,0.126,0.555,0.666,223.58,807.7
2.06,3.52,-65.943,0.028,-0.016,0.127,0.555,0.666,221.34,810.39
2.26,3.56,-63.686,0.032,-0.017,0.126,0.555,0.666,219.1,813.08
2.45,3.61,-59.389,0.038,-0.019,0.128,0.555,0.666,216.87,815.76
2.64,3.66,-58.418,0.042,-0.021,0.129,0.555,0.666,214.63,818.44
2.84,3.71,-57.895,0.047,-0.022,0.129,0.555,0.666,212.35,821.18
3.04,3.76,-51.435,0.053,-0.024,0.126,0.555,0.666,210.06,823.92
3.24,3.81,-52.706,0.057,-0.026,0.126,0.555,0.666,207.79,826.65
3.44,3.86,-55.196,0.061,-0.027,0.126,0.555,0.666,205.54,829.36
3.63,3.91,-52.93,0.067,-0.028,0.121,0.555,0.666,203.26,832.08
3.83,3.96,-52.979,0.071,-0.029,0.12,0.555,0.666,200.99,834.81
0.1,4.03,-53.835,0.019,-0.011,0.128,1.554,1.554,241.22,780.78
0.3,4.07,-55.051,0.019,-0.012,0.131,1.554,1.554,247.57,774.43
0.49,4.12,-54.473,0.019,-0.013,0.134,1.554,1.554,253.88,768.12
0.69,4.17,-48.319,0.017,-0.014,0.138,1.554,1.554,260.26,761.74
0.89,4.22,-49.067,0.017,-0.015,0.139,1.554,1.554,266.63,755.37
1.09,4.27,-47.912,0.017,-0.017,0.142,1.554,1.554,272.93,749.07
1.28,4.32,-45.906,0.016,-0.019,0.142,1.554,1.554,279.28,742.72
1.48,4.37,-46.409,0.016,-0.019,0.144,1.554,1.554,285.63,736.37
1.68,4.42,-43.315,0.014,-0.021,0.147,1.554,1.554,291.97,730.03
1.87,4.47,-39.296,0.014,-0.021,0.148,1.554,1.554,298.26,723.74
2.07,4.52,-39.428,0.012,-0.022,0.149,1.554,1.554,304.53,717.47
2.26,4.57,-37.769,0.013,-0.024,0.152,1.554,1.554,310.81,711.19
2.57,4.64,-34.442,0.011,-0.026,0.154,1.554,1.554,320.54,701.46
2.77,4.6899999999999995,-33.725,0.01,-0.026,0.156,1.554,1.554,327.0,695.0
2.97,4.74,-32.071,0.009,-0.027,0.157,1.554,1.554,333.41,688.59
3.16,4.79,-30.773,0.008,-0.028,0.158,1.554,1.554,339.72,682.28
3.36,4.84,-26.695,0.009,-0.029,0.16,1.554,1.554,346.05,675.95
3.56,4.89,-23.053,0.007,-0.029,0.161,1.554,1.554,352.38,669.62
3.76,4.9399999999999995,-17.294,0.007,-0.03,0.16,1.554,1.554,358.75,663.25
3.95,4.99,-21.16,0.005,-0.03,0.161,1.554,1.554,365.1,656.9
0.1,5.03,-15.24,0.0,-0.009,0.153,1.11,0.999,332.3,689.93
0.3,5.07,-22.839,0.001,-0.01,0.153,1.11,0.999,336.87,685.82
0.5,5.12,-16.866,0.001,-0.011,0.154,1.11,0.999,341.46,681.69
0.7,5.17,-12.608,0.003,-0.012,0.156,1.11,0.999,345.96,677.63
0.89,5.22,-15.424,0.002,-0.013,0.156,1.11,0.999,350.53,673.52
1.09,5.27,-10.089,0.002,-0.015,0.159,1.11,0.999,355.0,669.5
1.28,5.32,-7.018,0.003,-0.016,0.16,1.11,0.999,359.48,665.47
1.48,5.37,-5.357,0.003,-0.017,0.16,1.11,0.999,363.95,661.44
1.67,5.42,-7.774,0.003,-0.019,0.161,1.11,0.999,368.42,657.42
1.87,5.47,-4.078,0.004,-0.02,0.162,1.11,0.999,372.92,653.37
2.06,5.52,0.778,0.005,-0.022,0.164,1.11,0.999,377.39,649.35
2.26,5.5600000000000005,-5.463,0.007,-0.023,0.164,1.11,0.999,381.88,645.31
2.45,5.61,-5.742,0.007,-0.023,0.165,1.11,0.999,386.36,641.28
2.65,5.66,-3.7,0.007,-0.024,0.165,1.11,0.999,390.83,637.25
2.84,5.71,-6.169,0.007,-0.026,0.165,1.11,0.999,395.31,633.22
3.04,5.76,-5.057,0.008,-0.027,0.167,1.11,0.999,399.78,629.2
3.24,5.8100000000000005,-4.883,0.008,-0.029,0.166,1.11,0.999,404.39,625.05
3.44,5.86,-5.496,0.008,-0.029,0.166,1.11,0.999,408.93,620.96
3.63,5.91,-5.223,0.008,-0.032,0.168,1.11,0.999,413.43,616.92
3.83,5.96,-4.786,0.012,-0.032,0.167,1.11,0.999,417.98,612.82
    
Periode per step: 3.0 s Pola: telentang
Elapsed,Step,Pitch Angle,CoMx(m),CoMy(m),CoMz(m),Left Ankle Speed(rpm),Right Ankle Speed(rpm),Left Ankle Angle,Right Ankle Angle
0.1,0.03,-86.533,0.008,-0.009,0.166,2.664,2.553,380.51,641.72
0.3,0.1,-78.569,0.005,-0.011,0.168,2.664,2.553,391.52,631.17
0.5,0.17,-80.415,0.004,-0.012,0.169,2.664,2.553,402.42,620.72
0.7,0.23,-78.953,0.002,-0.014,0.171,2.664,2.553,413.31,610.29
0.9,0.3,-80.069,0.002,-0.015,0.174,2.664,2.553,424.43,599.63
1.1,0.37,-80.366,0.001,-0.016,0.175,2.664,2.553,435.43,589.09
1.3,0.43,-79.103,-0.002,-0.017,0.176,2.664,2.553,446.54,578.44
1.5,0.5,-79.747,-0.004,-0.017,0.177,2.664,2.553,457.48,567.96
1.69,0.56,-78.66,-0.005,-0.019,0.177,2.664,2.553,468.39,557.5
1.9,0.63,-81.933,-0.007,-0.021,0.177,2.664,2.553,479.47,546.88
2.09,0.7,-81.178,-0.01,-0.022,0.177,2.664,2.553,490.43,536.38
2.29,0.76,-81.236,-0.012,-0.023,0.178,2.664,2.553,501.34,525.93
2.49,0.83,-82.019,-0.013,-0.023,0.176,2.664,2.553,512.23,515.49
2.69,0.9,-81.571,-0.015,-0.024,0.176,2.664,2.553,523.46,504.72
2.89,0.96,-81.674,-0.019,-0.025,0.174,2.664,2.553,534.25,494.39
0.1,1.03,-80.257,-0.003,-0.009,0.174,0.888,0.777,504.16,523.61
0.3,1.1,-79.896,-0.009,-0.01,0.175,0.888,0.777,500.54,526.77
0.49,1.16,-87.745,-0.016,-0.011,0.174,0.888,0.777,496.93,529.94
0.69,1.23,-91.146,-0.025,-0.014,0.173,0.888,0.777,493.31,533.11
0.89,1.3,-94.61,-0.032,-0.014,0.17,0.888,0.777,489.7,536.26
1.08,1.3599999999999999,-96.948,-0.041,-0.015,0.166,0.888,0.777,486.08,539.43
1.28,1.43,-100.566,-0.048,-0.015,0.163,0.888,0.777,482.49,542.57
1.48,1.49,-102.53,-0.055,-0.014,0.156,0.888,0.777,478.9,545.71
1.67,1.56,-105.277,-0.064,-0.013,0.149,0.888,0.777,475.28,548.88
1.87,1.62,-108.925,-0.07,-0.012,0.138,0.888,0.777,471.67,552.04
2.07,1.69,-110.603,-0.075,-0.01,0.128,0.888,0.777,468.06,555.2
2.26,1.75,-111.418,-0.075,-0.011,0.116,0.888,0.777,464.45,558.36
2.46,1.8199999999999998,-112.538,-0.078,-0.008,0.105,0.888,0.777,460.83,561.53
2.65,1.88,-113.036,-0.075,-0.006,0.093,0.888,0.777,457.25,564.66
2.85,1.95,-121.153,-0.072,-0.005,0.082,0.888,0.777,453.65,567.8
0.1,2.03,-115.26,-0.082,-0.002,0.083,4.44,4.662,476.81,544.65
0.3,2.1,-113.108,-0.076,-0.002,0.085,4.44,4.662,458.9,563.46
0.49,2.16,-115.112,-0.071,-0.002,0.087,4.44,4.662,440.99,582.27
0.68,2.23,-106.574,-0.064,-0.004,0.089,4.44,4.662,423.11,601.03
0.88,2.29,-103.609,-0.059,-0.003,0.09,4.44,4.662,404.94,620.11
1.08,2.36,-100.931,-0.053,-0.004,0.092,4.44,4.662,386.41,639.57
1.28,2.43,-94.229,-0.047,-0.004,0.091,4.44,4.662,368.17,658.72
1.48,2.49,-90.834,-0.041,-0.006,0.091,4.44,4.662,349.99,677.81
1.68,2.56,-87.281,-0.036,-0.005,0.091,4.44,4.662,331.8,696.91
1.88,2.63,-83.065,-0.03,-0.005,0.089,4.44,4.662,313.58,716.04
2.08,2.69,-81.149,-0.026,-0.005,0.089,4.44,4.662,295.15,735.39
2.28,2.76,-76.664,-0.02,-0.005,0.086,4.44,4.662,276.94,754.51
2.47,2.82,-75.354,-0.016,-0.004,0.084,4.44,4.662,258.88,773.47
2.67,2.89,-74.48,-0.013,-0.005,0.083,4.44,4.662,240.71,792.55
2.87,2.96,-73.26,-0.009,-0.005,0.079,4.44,4.662,222.57,811.6
0.1,3.03,-69.179,-0.01,-0.003,0.099,0.666,0.777,243.62,783.61
0.3,3.1,-73.28,-0.008,-0.002,0.103,0.666,0.777,240.89,786.8
0.5,3.17,-72.408,-0.004,-0.003,0.108,0.666,0.777,238.16,789.98
0.69,3.23,-73.529,-0.001,-0.004,0.111,0.666,0.777,235.44,793.15
0.89,3.3,-75.389,0.004,-0.005,0.115,0.666,0.777,232.73,796.31
1.09,3.36,-70.906,0.009,-0.008,0.12,0.666,0.777,230.04,799.46
1.28,3.43,-71.129,0.015,-0.01,0.122,0.666,0.777,227.32,802.62
1.48,3.49,-73.584,0.02,-0.013,0.125,0.666,0.777,224.62,805.78
1.67,3.56,-62.498,0.027,-0.014,0.127,0.666,0.777,221.92,808.93
1.87,3.62,-61.513,0.032,-0.016,0.127,0.666,0.777,219.22,812.07
2.07,3.69,-60.109,0.038,-0.019,0.129,0.666,0.777,216.52,815.23
2.27,3.76,-64.505,0.044,-0.02,0.128,0.666,0.777,213.78,818.42
2.46,3.82,-40.156,0.05,-0.023,0.129,0.666,0.777,211.09,821.56
2.66,3.89,-55.294,0.055,-0.024,0.126,0.666,0.777,208.4,824.7
2.85,3.95,-48.724,0.061,-0.024,0.123,0.666,0.777,205.71,827.83
0.1,4.03,-49.75,0.023,-0.012,0.128,1.998,1.998,241.13,783.87
0.3,4.1,-52.052,0.022,-0.013,0.133,1.998,1.998,249.5,775.5
0.5,4.17,-50.44,0.02,-0.013,0.136,1.998,1.998,257.85,767.15
0.7,4.23,-45.86,0.02,-0.015,0.14,1.998,1.998,266.11,758.89
0.9,4.3,-45.66,0.02,-0.016,0.142,1.998,1.998,274.25,750.75
1.1,4.37,-40.933,0.017,-0.017,0.143,1.998,1.998,282.46,742.54
1.3,4.43,-44.392,0.017,-0.019,0.145,1.998,1.998,290.69,734.31
1.5,4.5,-38.503,0.016,-0.02,0.148,1.998,1.998,299.01,725.99
1.7,4.57,-39.104,0.013,-0.021,0.151,1.998,1.998,307.18,717.82
1.9,4.63,-35.753,0.013,-0.022,0.151,1.998,1.998,315.41,709.59
2.1,4.7,-31.656,0.012,-0.023,0.154,1.998,1.998,323.61,701.39
2.29,4.76,-33.132,0.01,-0.024,0.156,1.998,1.998,331.78,693.22
2.49,4.83,-29.831,0.008,-0.024,0.158,1.998,1.998,340.02,684.98
2.69,4.9,-24.757,0.008,-0.025,0.16,1.998,1.998,348.22,676.78
2.89,4.96,-18.63,0.005,-0.025,0.16,1.998,1.998,356.51,668.49
0.1,5.03,-15.913,0.001,-0.009,0.153,1.221,1.221,330.53,689.47
0.3,5.1,-19.829,0.002,-0.008,0.155,1.221,1.221,335.58,684.42
0.5,5.17,-18.74,0.003,-0.006,0.157,1.221,1.221,340.61,679.39
0.7,5.23,-15.1,0.003,-0.003,0.157,1.221,1.221,345.66,674.34
0.9,5.3,-9.269,0.003,-0.001,0.16,1.221,1.221,350.65,669.35
1.09,5.36,-6.818,0.002,0.002,0.16,1.221,1.221,355.63,664.37
1.29,5.43,-5.581,0.003,0.004,0.163,1.221,1.221,360.59,659.41
1.49,5.5,-4.946,0.003,0.005,0.164,1.221,1.221,365.58,654.42
1.68,5.5600000000000005,-2.583,0.004,0.007,0.166,1.221,1.221,370.55,649.45
1.88,5.63,0.367,0.005,0.009,0.167,1.221,1.221,375.5,644.5
2.08,5.6899999999999995,-6.331,0.005,0.011,0.169,1.221,1.221,380.45,639.55
2.27,5.76,-5.552,0.005,0.013,0.17,1.221,1.221,385.4,634.6
2.47,5.82,-4.601,0.005,0.016,0.17,1.221,1.221,390.33,629.67
2.67,5.89,-5.446,0.005,0.018,0.172,1.221,1.221,395.34,624.66
2.86,5.95,-5.595,0.006,0.02,0.171,1.221,1.221,400.34,619.66
    
Periode per step: 2.0 s Pola: telentang
Elapsed,Step,Pitch Angle,CoMx(m),CoMy(m),CoMz(m),Left Ankle Speed(rpm),Right Ankle Speed(rpm),Left Ankle Angle,Right Ankle Angle
0.1,0.05,-78.945,0.008,-0.009,0.167,3.774,3.6630000000000003,381.81,640.42
0.3,0.15,-80.165,0.006,-0.009,0.169,3.774,3.6630000000000003,397.35,625.33
0.5,0.25,-80.219,0.004,-0.01,0.172,3.774,3.6630000000000003,412.95,610.2
0.7,0.35,-79.152,0.002,-0.011,0.174,3.774,3.6630000000000003,428.62,594.98
0.9,0.45,-79.804,-0.0,-0.012,0.176,3.774,3.6630000000000003,444.14,579.92
1.1,0.55,-79.429,-0.003,-0.014,0.177,3.774,3.6630000000000003,459.55,564.97
1.3,0.65,-83.378,-0.005,-0.014,0.176,3.774,3.6630000000000003,475.12,549.85
1.49,0.75,-81.626,-0.006,-0.015,0.177,3.774,3.6630000000000003,490.55,534.88
1.69,0.84,-78.733,-0.011,-0.016,0.176,3.774,3.6630000000000003,505.76,520.12
1.88,0.94,-82.032,-0.012,-0.017,0.176,3.774,3.6630000000000003,520.94,505.38
0.1,1.05,-80.982,-0.004,-0.008,0.175,0.999,0.888,502.93,523.84
0.29,1.15,-86.639,-0.015,-0.009,0.175,0.999,0.888,498.9,527.42
0.49,1.25,-92.865,-0.027,-0.012,0.174,0.999,0.888,494.87,531.0
0.69,1.34,-95.597,-0.04,-0.011,0.167,0.999,0.888,490.84,534.59
0.88,1.44,-98.981,-0.051,-0.011,0.162,0.999,0.888,486.82,538.16
1.07,1.54,-103.735,-0.063,-0.01,0.152,0.999,0.888,482.8,541.74
1.27,1.63,-111.518,-0.071,-0.009,0.139,0.999,0.888,478.78,545.31
1.46,1.73,-114.987,-0.078,-0.007,0.12,0.999,0.888,474.72,548.91
1.66,1.83,-119.656,-0.08,-0.006,0.104,0.999,0.888,470.7,552.49
1.85,1.9300000000000002,-116.04,-0.077,-0.005,0.086,0.999,0.888,466.67,556.07
0.1,2.05,-114.74,-0.081,-0.002,0.083,6.438,6.771,472.68,549.01
0.29,2.15,-112.645,-0.072,-0.002,0.088,6.438,6.771,446.75,576.28
0.49,2.24,-112.378,-0.063,-0.002,0.091,6.438,6.771,420.75,603.62
0.69,2.34,-97.362,-0.055,-0.003,0.094,6.438,6.771,394.34,631.4
0.89,2.44,-95.586,-0.047,-0.004,0.096,6.438,6.771,367.88,659.23
1.08,2.54,-88.861,-0.037,-0.004,0.096,6.438,6.771,341.67,686.79
1.28,2.64,-85.865,-0.032,-0.004,0.094,6.438,6.771,315.34,714.49
1.48,2.74,-79.946,-0.024,-0.004,0.093,6.438,6.771,289.0,742.19
1.68,2.84,-74.812,-0.016,-0.004,0.09,6.438,6.771,262.69,769.86
1.87,2.94,-74.799,-0.009,-0.004,0.087,6.438,6.771,236.34,797.58
0.1,3.05,-70.63,-0.009,-0.002,0.1,0.555,0.777,239.85,784.61
0.3,3.15,-73.124,-0.006,-0.003,0.105,0.555,0.777,237.59,787.77
0.49,3.25,-72.495,-0.001,-0.003,0.111,0.555,0.777,235.34,790.93
0.69,3.34,-71.19,0.003,-0.006,0.116,0.555,0.777,233.08,794.09
0.89,3.44,-70.323,0.011,-0.009,0.121,0.555,0.777,230.83,797.24
1.08,3.54,-63.726,0.018,-0.011,0.125,0.555,0.777,228.58,800.39
1.28,3.64,-63.329,0.024,-0.013,0.127,0.555,0.777,226.34,803.52
1.47,3.74,-62.622,0.032,-0.016,0.128,0.555,0.777,224.11,806.65
1.67,3.83,-58.308,0.039,-0.018,0.128,0.555,0.777,221.87,809.78
1.86,3.93,-49.443,0.046,-0.02,0.127,0.555,0.777,219.63,812.92
0.1,4.05,-53.517,0.019,-0.011,0.13,2.664,2.664,242.51,779.49
0.3,4.15,-52.476,0.019,-0.013,0.134,2.664,2.664,253.44,768.56
0.49,4.25,-46.398,0.018,-0.013,0.139,2.664,2.664,264.21,757.79
0.69,4.34,-42.657,0.017,-0.015,0.143,2.664,2.664,274.99,747.01
0.89,4.44,-47.627,0.017,-0.016,0.145,2.664,2.664,285.88,736.12
1.08,4.54,-34.319,0.015,-0.017,0.148,2.664,2.664,296.78,725.22
1.28,4.64,-36.323,0.013,-0.019,0.151,2.664,2.664,307.62,714.38
1.48,4.74,-32.703,0.011,-0.019,0.154,2.664,2.664,318.78,703.22
1.68,4.84,-30.963,0.011,-0.02,0.156,2.664,2.664,329.75,692.25
1.88,4.9399999999999995,-28.497,0.008,-0.02,0.158,2.664,2.664,340.7,681.3
0.1,5.05,-24.128,0.001,-0.009,0.153,1.665,1.665,331.45,689.55
0.3,5.15,-25.219,0.002,-0.008,0.155,1.665,1.665,338.16,682.84
0.49,5.24,-10.612,0.004,-0.005,0.157,1.665,1.665,344.87,676.13
0.68,5.34,-11.767,0.003,-0.003,0.16,1.665,1.665,351.58,669.42
0.88,5.44,-9.191,0.003,-0.001,0.161,1.665,1.665,358.28,662.72
1.07,5.54,-6.486,0.003,0.002,0.163,1.665,1.665,364.97,656.03
1.27,5.64,-0.637,0.004,0.003,0.165,1.665,1.665,371.88,649.12
1.47,5.74,0.351,0.005,0.006,0.168,1.665,1.665,378.74,642.26
1.67,5.84,-15.331,0.005,0.007,0.168,1.665,1.665,385.62,635.38
1.87,5.9399999999999995,0.118,0.007,0.009,0.17,1.665,1.665,392.5,628.5
    
Periode per step: 1.0 s Pola: telentang
Elapsed,Step,Pitch Angle,CoMx(m),CoMy(m),CoMz(m),Left Ankle Speed(rpm),Right Ankle Speed(rpm),Left Ankle Angle,Right Ankle Angle
0.1,0.1,-77.173,0.006,-0.009,0.167,6.993,6.66,388.47,633.22
0.3,0.3,-81.479,0.005,-0.01,0.173,6.993,6.66,417.36,605.71
0.5,0.5,-82.784,0.002,-0.011,0.176,6.993,6.66,445.79,578.63
0.69,0.69,-87.548,-0.002,-0.011,0.176,6.993,6.66,474.28,551.5
0.89,0.89,-83.526,-0.003,-0.013,0.176,6.993,6.66,502.8,524.33
0.1,1.1,-90.98,-0.009,-0.008,0.175,1.554,1.332,502.78,524.76
0.3,1.3,-97.352,-0.032,-0.01,0.171,1.554,1.332,496.4,530.23
0.5,1.5,-105.196,-0.058,-0.008,0.158,1.554,1.332,490.05,535.67
0.69,1.69,-115.712,-0.077,-0.005,0.132,1.554,1.332,483.71,541.1
0.89,1.8900000000000001,-118.989,-0.081,-0.003,0.099,1.554,1.332,477.34,546.56
0.1,2.1,-116.548,-0.077,-0.002,0.085,12.432,13.098,461.28,562.1
0.3,2.3,-106.557,-0.062,-0.002,0.095,12.432,13.098,411.06,615.0
0.49,2.49,-63.38,-0.044,-0.002,0.098,12.432,13.098,360.87,667.89
0.69,2.69,-83.472,-0.03,-0.003,0.098,12.432,13.098,310.71,720.73
0.88,2.88,-76.697,-0.014,-0.002,0.094,12.432,13.098,260.55,773.58
0.1,3.1,-81.865,-0.008,-0.002,0.103,0.666,0.999,238.62,787.07
0.3,3.3,-74.547,0.0,-0.004,0.113,0.666,0.999,235.89,791.17
0.5,3.5,-73.092,0.01,-0.007,0.121,0.666,0.999,233.1,795.35
0.7,3.7,-66.764,0.022,-0.012,0.128,0.666,0.999,230.4,799.4
0.89,3.89,-54.09,0.034,-0.014,0.128,0.666,0.999,227.69,803.46
0.1,4.1,-43.618,0.021,-0.012,0.134,4.995,4.995,244.34,777.66
0.3,4.3,-42.595,0.02,-0.013,0.14,4.995,4.995,264.83,757.17
0.49,4.49,-40.304,0.017,-0.014,0.145,4.995,4.995,284.99,737.01
0.69,4.6899999999999995,-29.576,0.014,-0.015,0.15,4.995,4.995,305.69,716.31
0.89,4.89,-24.001,0.01,-0.014,0.155,4.995,4.995,326.3,695.7
0.1,5.1,-27.841,0.002,-0.009,0.154,2.775,2.664,335.74,686.49
0.3,5.3,-18.393,0.004,-0.007,0.157,2.775,2.664,347.03,675.65
0.49,5.49,-5.275,0.003,-0.006,0.161,2.775,2.664,358.33,664.8
0.69,5.6899999999999995,4.45,0.005,-0.003,0.164,2.775,2.664,369.61,653.98
0.88,5.88,-0.056,0.007,-0.0,0.167,2.775,2.664,380.79,643.24
    
Periode per step: 0.8 s Pola: telentang
Elapsed,Step,Pitch Angle,CoMx(m),CoMy(m),CoMz(m),Left Ankle Speed(rpm),Right Ankle Speed(rpm),Left Ankle Angle,Right Ankle Angle
0.1,0.13,-80.169,0.005,-0.009,0.168,8.547,8.214,392.68,630.0
0.3,0.37,-80.394,0.003,-0.009,0.174,8.547,8.214,428.02,596.05
0.5,0.63,-84.29,-0.001,-0.011,0.176,8.547,8.214,463.57,561.88
0.7,0.88,-78.784,-0.003,-0.011,0.176,8.547,8.214,498.88,527.94
0.1,1.13,-88.425,-0.012,-0.009,0.175,1.776,1.554,502.32,525.22
0.3,1.37,-98.132,-0.044,-0.008,0.168,1.776,1.554,495.04,531.59
0.5,1.62,-110.25,-0.072,-0.006,0.144,1.776,1.554,487.76,537.96
0.69,1.87,-121.917,-0.082,-0.003,0.103,1.776,1.554,480.5,544.32
0.1,2.13,-116.36,-0.075,-0.002,0.088,15.318,16.206,454.31,569.53
0.3,2.37,-108.803,-0.055,-0.001,0.097,15.318,16.206,391.23,636.26
0.5,2.62,-74.286,-0.033,0.001,0.101,15.318,16.206,327.71,703.47
0.7,2.87,-69.469,-0.015,0.002,0.098,15.318,16.206,264.52,770.32
0.1,3.13,-79.414,-0.007,-0.003,0.103,0.666,1.11,237.62,788.3
0.3,3.37,-73.902,0.003,-0.005,0.115,0.666,1.11,234.87,792.88
0.5,3.62,-66.232,0.018,-0.009,0.124,0.666,1.11,232.15,797.42
0.7,3.87,-61.076,0.033,-0.014,0.128,0.666,1.11,229.42,801.97
0.1,4.13,-20.27,0.022,-0.012,0.134,6.216,6.105,244.86,775.37
0.29,4.37,-33.699,0.019,-0.013,0.143,6.216,6.105,269.94,750.74
0.49,4.61,-40.248,0.017,-0.014,0.148,6.216,6.105,295.03,726.1
0.69,4.86,-22.464,0.012,-0.014,0.153,6.216,6.105,320.12,701.46
0.1,5.13,-23.777,0.002,-0.009,0.155,3.33,3.219,336.89,685.34
0.29,5.37,-14.555,0.004,-0.007,0.159,3.33,3.219,350.32,672.35
0.49,5.61,-0.174,0.004,-0.006,0.162,3.33,3.219,363.72,659.4
0.68,5.86,8.045,0.008,-0.002,0.165,3.33,3.219,377.16,646.41
    
Periode per step: 0.6 s Pola: telentang
Elapsed,Step,Pitch Angle,CoMx(m),CoMy(m),CoMz(m),Left Ankle Speed(rpm),Right Ankle Speed(rpm),Left Ankle Angle,Right Ankle Angle
0.1,0.17,-79.957,0.006,-0.009,0.17,11.322000000000001,10.767,397.43,624.72
0.3,0.5,-78.017,0.002,-0.009,0.176,11.322000000000001,10.767,444.14,580.3
0.5,0.83,-86.208,-0.002,-0.01,0.176,11.322000000000001,10.767,490.76,535.97
0.1,1.17,-69.964,-0.018,-0.009,0.175,2.331,1.998,502.17,524.14
0.3,1.5,-103.854,-0.058,-0.007,0.158,2.331,1.998,492.63,532.32
0.5,1.83,142.585,-0.083,-0.002,0.111,2.331,1.998,483.06,540.52
0.1,2.17,-113.54,-0.072,-0.002,0.091,20.202,21.423000000000002,444.19,580.34
0.3,2.49,-88.744,-0.045,-0.002,0.099,20.202,21.423000000000002,362.56,666.9
0.49,2.82,-84.02,-0.019,-0.002,0.098,20.202,21.423000000000002,280.96,753.43
0.1,3.17,-80.933,-0.005,-0.003,0.104,0.666,1.221,237.62,789.53
0.29,3.49,-71.387,0.009,-0.006,0.12,0.666,1.221,234.94,794.45
0.49,3.82,-63.331,0.028,-0.012,0.128,0.666,1.221,232.25,799.37
0.1,4.17,-40.964,0.025,-0.012,0.136,8.214,8.103,248.0,773.23
0.3,4.5,-31.25,0.019,-0.014,0.145,8.214,8.103,282.17,739.52
0.5,4.83,-31.625,0.013,-0.014,0.153,8.214,8.103,316.01,706.14
0.1,5.17,-20.447,0.005,-0.009,0.156,4.218,3.996,338.73,682.73
0.3,5.5,-19.496,0.006,-0.008,0.159,4.218,3.996,355.92,666.45
0.49,5.82,6.976,0.007,-0.005,0.165,4.218,3.996,373.06,650.2
    
Periode per step: 0.4 s Pola: telentang
Elapsed,Step,Pitch Angle,CoMx(m),CoMy(m),CoMz(m),Left Ankle Speed(rpm),Right Ankle Speed(rpm),Left Ankle Angle,Right Ankle Angle
0.1,0.25,-81.134,0.005,-0.009,0.172,16.761,15.984,408.69,613.92
0.3,0.75,-80.211,0.0,-0.009,0.176,16.761,15.984,477.59,548.21
0.1,1.25,-98.293,-0.029,-0.01,0.173,3.441,2.775,500.88,525.74
0.3,1.76,-112.878,-0.081,-0.002,0.122,3.441,2.775,486.48,537.35
0.1,2.25,-111.046,-0.066,-0.002,0.095,30.081,31.968,423.76,602.14
0.3,2.75,-93.54,-0.025,-0.002,0.1,30.081,31.968,300.21,733.44
0.1,3.25,-76.556,-0.002,-0.003,0.107,0.888,1.332,238.16,791.76
0.3,3.74,-74.329,0.022,-0.01,0.128,0.888,1.332,234.55,797.18
0.1,4.25,-57.546,0.026,-0.013,0.139,12.21,12.099,255.26,766.96
0.3,4.74,-24.607,0.016,-0.013,0.152,12.21,12.099,304.54,718.13
0.1,5.25,-14.131,0.006,-0.009,0.156,6.105,6.105,342.63,680.37
0.29,5.74,-15.206,0.007,-0.01,0.163,6.105,6.105,367.23,655.77
    
Periode per step: 0.3 s Pola: telentang
Elapsed,Step,Pitch Angle,CoMx(m),CoMy(m),CoMz(m),Left Ankle Speed(rpm),Right Ankle Speed(rpm),Left Ankle Angle,Right Ankle Angle
0.1,0.33,-73.646,0.005,-0.009,0.174,22.2,21.09,419.94,603.36
0.3,1.0,-86.647,-0.002,-0.009,0.175,22.2,21.09,511.26,516.6
0.1,1.33,-93.386,-0.039,-0.008,0.169,4.551,3.774,499.58,526.81
0.3,2.0,-133.413,-0.081,-0.002,0.082,4.551,3.774,480.75,542.43
0.1,2.33,-120.546,-0.059,-0.002,0.096,39.96,42.402,403.32,623.74
0.3,3.0,-6.504,-0.006,-0.003,0.097,39.96,42.402,239.14,797.95
0.1,3.33,-76.805,0.001,-0.003,0.112,0.999,1.443,237.93,792.99
0.3,3.99,-92.221,0.034,-0.013,0.129,0.999,1.443,233.84,798.9
0.1,4.33,-56.296,0.023,-0.013,0.141,15.984,15.984,264.07,758.93
0.3,5.0,-26.049,0.009,-0.01,0.156,15.984,15.984,329.96,693.04
0.1,5.33,-18.545,0.009,-0.009,0.157,8.436,8.769,344.46,679.85
0.3,6.0,-4.653,0.009,-0.01,0.165,8.436,8.769,379.2,643.74
