Periode(s),Step,Pitch Angle,CoMx(m),CoMy(m),CoMz(m),Left Ankle Angle Now,Left Ankle Speed(rpm),Goal,Pola
0.9,0.0,91.827,0.009,-0.009,0.165,375,9.939,550.519,tengkurap
0.9,0.43,92.845,-0.019,-0.012,0.174,459.27,10.434,550.519,tengkurap
0.9,0.65,87.694,-0.034,-0.011,0.171,501.9,10.434,550.519,tengkurap
0.9,0.87,85.963,-0.048,-0.011,0.167,544.38,10.434,550.519,tengkurap
0.9,1.0,76.506,-0.042,-0.01,0.168,551,9.211,402.971,tengkurap
0.9,1.43,76.144,-0.001,-0.012,0.177,473.04,9.657,402.971,tengkurap
0.9,1.6600000000000001,80.982,0.021,-0.013,0.176,433.19,9.657,402.971,tengkurap
0.9,1.87,82.381,0.032,-0.015,0.172,402,9.657,402.971,tengkurap
0.9,2.0,90.685,0.026,-0.014,0.174,400,-0.28,444.472,tengkurap
0.9,2.43,90.744,0.011,-0.013,0.173,402.69,0.333,444.472,tengkurap
0.9,2.65,91.692,0.007,-0.013,0.171,404.06,0.333,444.472,tengkurap
0.9,2.87,91.263,0.007,-0.013,0.172,405.42,0.333,444.472,tengkurap
0.9,3.0,91.218,0.007,-0.013,0.172,407,5.123,302.34,tengkurap
0.9,3.43,98.435,0.024,-0.016,0.153,361.42,5.6610000000000005,302.34,tengkurap
0.9,3.66,101.962,0.031,-0.017,0.142,337.76,5.6610000000000005,302.34,tengkurap
0.9,3.88,98.602,0.038,-0.018,0.126,314.67,5.6610000000000005,302.34,tengkurap
0.9,4.0,82.412,0.041,-0.019,0.12,299,2.269,305.272,tengkurap
0.9,4.43,85.241,0.027,-0.017,0.125,305,2.775,305.272,tengkurap
0.9,4.66,73.913,0.027,-0.015,0.124,305,2.775,305.272,tengkurap
0.9,4.88,70.181,0.027,-0.013,0.125,305,2.775,305.272,tengkurap
0.9,5.0,63.249,0.029,-0.013,0.124,301,7.211,326.509,tengkurap
0.9,5.43,55.786,0.025,-0.012,0.145,326,7.659,326.509,tengkurap
0.9,5.66,62.304,0.027,-0.012,0.153,326,7.659,326.509,tengkurap
0.9,5.88,62.127,0.034,-0.011,0.157,326,7.659,326.509,tengkurap
    
18.0,0.0,76.61822622919325,54.545454545454554,100.0,97.55244755244757,35.294117647058826,55.987144,100.198
18.0,20.0,55.59397856544949,-3.4090909090909123,88.88888888888887,98.60139860139861,100.0,51.641464,43.88215
18.0,40.0,75.05111632566246,73.86363636363637,44.44444444444443,100.69930069930071,44.48529411764706,-4.983717,59.722214
18.0,60.0,75.7825257640004,52.27272727272727,55.55555555555555,100.0,47.05882352941176,27.254333,5.473269
18.0,80.0,63.69848915236097,90.90909090909092,-11.111111111111121,81.81818181818183,7.352941176470589,10.226668,6.592209
18.0,100.0,37.40205563102933,77.27272727272728,55.55555555555555,83.21678321678321,8.088235294117647,39.710808,14.698219
    
0.8,0.0,91.173,0.009,-0.009,0.165,375,11.036,551.002,tengkurap
0.8,0.48,90.837,-0.021,-0.012,0.174,467.22,11.544,551.002,tengkurap
0.8,0.73,87.09,-0.037,-0.011,0.171,514.94,11.544,551.002,tengkurap
0.8,0.98,81.13,-0.045,-0.011,0.167,551,11.544,551.002,tengkurap
0.8,1.0,76.129,-0.042,-0.009,0.168,551,11.102,403.317,tengkurap
0.8,1.49,76.094,0.005,-0.012,0.176,456.69,11.655,403.317,tengkurap
0.8,1.74,78.427,0.031,-0.015,0.172,408.82,11.655,403.317,tengkurap
0.8,1.98,81.292,0.025,-0.014,0.174,403,11.655,403.317,tengkurap
0.8,2.0,90.189,0.02,-0.013,0.174,401,0.372,434.494,tengkurap
0.8,2.49,91.727,0.004,-0.013,0.171,408.18,0.888,434.494,tengkurap
0.8,2.74,93.368,0.002,-0.013,0.172,411.85,0.888,434.494,tengkurap
0.8,2.99,89.6,0.0,-0.013,0.172,415.48,0.888,434.494,tengkurap
0.8,3.0,90.144,-0.001,-0.012,0.172,417,7.926,294.878,tengkurap
0.8,3.49,98.155,0.03,-0.017,0.15,348.92,8.436,294.878,tengkurap
0.8,3.74,96.733,0.042,-0.019,0.133,314.15,8.436,294.878,tengkurap
0.8,3.98,101.976,0.046,-0.018,0.117,294,8.436,294.878,tengkurap
0.8,4.0,82.04,0.045,-0.018,0.117,287,2.471,317.968,tengkurap
0.8,4.49,85.148,0.023,-0.017,0.125,311.26,2.997,317.968,tengkurap
0.8,4.74,72.343,0.024,-0.015,0.126,317,2.997,317.968,tengkurap
0.8,4.99,68.953,0.023,-0.013,0.125,317,2.997,317.968,tengkurap
0.8,5.0,59.025,0.025,-0.012,0.121,312,8.19,336.476,tengkurap
0.8,5.49,48.545,0.02,-0.012,0.147,336,8.658,336.476,tengkurap
0.8,5.74,35.402,0.025,-0.011,0.155,336,8.658,336.476,tengkurap
0.8,5.99,74.258,0.034,-0.011,0.161,336,8.658,336.476,tengkurap
    
16.0,0.0,75.72077449809944,54.545454545454554,100.0,97.55244755244757,35.294117647058826,62.530033,100.3823
16.0,20.0,55.07664018223486,-3.4090909090909123,100.0,98.60139860139861,100.0,62.924435,44.014038
16.0,40.0,74.37048015039863,67.04545454545455,55.55555555555555,100.69930069930071,44.85294117647059,-1.0935322,55.913692
16.0,60.0,74.3087288844977,43.18181818181818,66.66666666666666,100.0,50.73529411764706,43.975647,2.6252255
16.0,80.0,63.188012020913106,95.45454545454545,0.0,80.76923076923079,2.941176470588235,11.431889,11.438075
16.0,100.0,31.605670138460063,72.72727272727273,66.66666666666666,82.16783216783216,12.132352941176471,45.550304,18.502365
    
0.3,0.0,92.221,0.009,-0.009,0.165,375,18.909,553.117,tengkurap
0.3,1.3,92.464,-0.034,-0.011,0.171,531.92,19.425,553.117,tengkurap
0.3,1.0,76.306,-0.044,-0.01,0.168,554,17.537,401.704,tengkurap
0.3,2.3,79.68,0.005,-0.013,0.173,408.63,17.982,401.704,tengkurap
0.3,2.0,91.683,0.009,-0.013,0.171,400,2.4,413.947,tengkurap
0.3,3.3,91.709,0.002,-0.013,0.172,413,2.886,413.947,tengkurap
0.3,3.0,91.584,0.003,-0.013,0.172,412,9.715,301.924,tengkurap
0.3,4.3,129.726,0.032,-0.017,0.123,329.5,10.212,301.924,tengkurap
0.3,4.0,85.001,0.041,-0.018,0.118,299,4.713,311.053,tengkurap
0.3,5.3,83.836,0.029,-0.013,0.128,311,5.217,311.053,tengkurap
0.3,5.0,70.911,0.028,-0.012,0.126,306,14.319,315.656,tengkurap
0.3,6.3,63.065,0.046,-0.011,0.155,315,14.874,315.656,tengkurap
    
6.0,0.0,77.15889286841492,54.545454545454554,100.0,97.55244755244757,35.294117647058826,109.5055,101.18969
6.0,20.0,55.319528494778595,-5.68181818181818,88.88888888888887,98.60139860139861,101.10294117647058,101.31616,43.398468
6.0,40.0,76.42062217831023,54.545454545454554,55.55555555555555,99.65034965034967,44.48529411764706,11.01039,48.07123
6.0,60.0,76.28476939332813,47.727272727272734,55.55555555555555,100.0,48.89705882352941,54.652256,5.3146763
6.0,80.0,67.25124531719568,90.90909090909092,0.0,81.11888111888112,7.352941176470589,24.807417,8.798969
6.0,100.0,47.91623783843125,76.13636363636364,66.66666666666666,83.91608391608392,9.926470588235293,82.1197,10.555849
    
Periode(s),Step,Pitch Angle,CoMx(m),CoMy(m),CoMz(m),Left Ankle Angle Now,Left Ankle Speed(rpm),Goal,Pola
0.8,0.0,92.998,0.008,-0.009,0.165,376,10.989,550,tengkurap
0.8,0.49,94.683,-0.017,-0.013,0.174,464.25,10.989,550,tengkurap
0.8,0.73,89.502,-0.03,-0.011,0.173,509.68,10.989,550,tengkurap
0.8,0.98,82.274,-0.041,-0.011,0.168,550,10.989,550,tengkurap
0.8,1.0,78.028,-0.038,-0.011,0.168,551,6.882,406,tengkurap
0.8,1.49,78.504,-0.019,-0.01,0.175,495.62,6.882,406,tengkurap
0.8,1.74,79.956,-0.008,-0.011,0.177,467.0,6.882,406,tengkurap
0.8,1.98,84.011,0.001,-0.012,0.177,439.11,6.882,406,tengkurap
0.8,2.0,92.179,-0.0,-0.012,0.175,430,3.996,406,tengkurap
0.8,2.49,94.422,0.008,-0.013,0.171,406,3.996,406,tengkurap
0.8,2.73,93.761,0.008,-0.013,0.171,406,3.996,406,tengkurap
0.8,2.98,93.922,0.009,-0.013,0.171,406,3.996,406,tengkurap
0.8,3.0,92.507,0.007,-0.013,0.171,404,7.548,288,tengkurap
0.8,3.49,98.245,0.031,-0.016,0.149,343.31,7.548,288,tengkurap
0.8,3.73,106.48,0.043,-0.019,0.133,312.68,7.548,288,tengkurap
0.8,3.98,82.107,0.048,-0.018,0.114,288,7.548,288,tengkurap
0.8,4.0,83.582,0.048,-0.018,0.116,282,1.221,318,tengkurap
0.8,4.49,84.883,0.033,-0.017,0.123,291.81,1.221,318,tengkurap
0.8,4.74,75.879,0.031,-0.015,0.124,296.86,1.221,318,tengkurap
0.8,4.98,67.185,0.027,-0.013,0.125,301.81,1.221,318,tengkurap
0.8,5.0,60.017,0.028,-0.013,0.12,306,5.439,376,tengkurap
0.8,5.49,46.838,0.013,-0.011,0.149,349.73,5.439,376,tengkurap
0.8,5.74,38.477,0.002,-0.009,0.157,372.18,5.439,376,tengkurap
0.8,5.98,34.266,0.009,-0.009,0.165,376,5.439,376,tengkurap
    
16.0,0.0,78.22513139297135,53.40909090909092,100.0,97.55244755244757,35.661764705882355,62.252,81.366
16.0,20.0,57.682543603254985,1.1363636363636374,77.77777777777779,98.60139860139861,100.0,37.748,36.646
16.0,40.0,77.10125835357402,44.31818181818182,66.66666666666666,101.04895104895104,55.51470588235294,20.53,36.646
16.0,60.0,77.55135646947431,52.27272727272727,55.55555555555555,99.65034965034967,45.955882352941174,41.722,0.0
16.0,80.0,65.30402206578569,98.86363636363636,0.0,80.41958041958043,1.1029411764705883,3.974,9.317
16.0,100.0,32.96694248898769,76.13636363636364,55.55555555555555,81.81818181818183,9.926470588235293,29.139,27.329
    
0.6,0.0,94.206,0.008,-0.01,0.165,376,14.541,550,tengkurap
0.6,0.65,94.226,-0.025,-0.012,0.174,492.65,14.541,550,tengkurap
0.6,0.98,87.295,-0.041,-0.011,0.168,550,14.541,550,tengkurap
0.6,1.0,77.792,-0.039,-0.011,0.168,551,8.436,406,tengkurap
0.6,1.6400000000000001,71.88,-0.015,-0.011,0.177,483.55,8.436,406,tengkurap
0.6,1.98,79.668,-0.002,-0.011,0.179,448.2,8.436,406,tengkurap
0.6,2.0,92.303,-0.001,-0.012,0.175,431,5.883,406,tengkurap
0.6,2.65,93.732,0.008,-0.013,0.171,406,5.883,406,tengkurap
0.6,2.9699999999999998,93.623,0.009,-0.013,0.171,406,5.883,406,tengkurap
0.6,3.0,93.235,0.007,-0.013,0.171,404,9.879,288,tengkurap
0.6,3.65,104.744,0.04,-0.018,0.14,324.73,9.879,288,tengkurap
0.6,3.98,102.206,0.048,-0.018,0.114,288,9.879,288,tengkurap
0.6,4.0,81.923,0.049,-0.019,0.115,281,0.888,318,tengkurap
0.6,4.64,85.507,0.035,-0.016,0.121,288.1,0.888,318,tengkurap
0.6,4.98,73.202,0.034,-0.014,0.123,291.8,0.888,318,tengkurap
0.6,5.0,66.96,0.033,-0.012,0.123,296,7.548,376,tengkurap
0.6,5.65,62.897,0.008,-0.011,0.155,356.75,7.548,376,tengkurap
0.6,5.98,71.366,0.009,-0.009,0.165,376,7.548,376,tengkurap
    
12.0,0.0,79.88280981982354,53.40909090909092,88.88888888888887,97.55244755244757,35.661764705882355,83.444,81.366
12.0,20.0,57.35869251986333,0.0,77.77777777777779,98.60139860139861,100.0,47.02,36.646
12.0,40.0,77.27141739738998,43.18181818181818,66.66666666666666,101.04895104895104,55.88235294117647,31.788,36.646
12.0,60.0,78.55035472671635,52.27272727272727,55.55555555555555,99.65034965034967,45.955882352941174,55.629,0.0
12.0,80.0,63.027458729570625,100.0,-11.111111111111121,80.06993006993008,0.7352941176470588,1.987,9.317
12.0,100.0,42.494476692327744,81.81818181818184,66.66666666666666,82.86713286713287,6.25,41.722,27.329
    
