Periode(s),Step,Pitch Angle,CoMx(m),CoMy(m),CoMz(m),Left Ankle Angle Now,Left Ankle Speed(rpm),Goal,Pola
1.0,0.0,143.638,0.004,-0.009,0.169,402,6.993,509,telentang
1.0,0.1,167.08,0.002,-0.009,0.172,416.47,6.993,509,telentang
1.0,0.3,-160.339,0.001,-0.008,0.175,445.86,6.993,509,telentang
1.0,0.51,-131.265,-0.001,-0.008,0.176,475.91,6.993,509,telentang
1.0,0.72,-94.992,-0.005,-0.007,0.175,506.01,6.993,509,telentang
1.0,0.93,-68.606,-0.002,-0.007,0.175,509,6.993,509,telentang
1.0,1.0,-67.375,-0.016,-0.007,0.174,504,1.554,484,telentang
1.0,1.1,-70.209,-0.027,-0.007,0.172,500.78,1.554,484,telentang
1.0,1.3,-70.387,-0.05,-0.008,0.162,494.25,1.554,484,telentang
1.0,1.51,-72.91,-0.071,-0.005,0.142,487.57,1.554,484,telentang
1.0,1.72,-77.308,-0.084,-0.003,0.109,484,1.554,484,telentang
1.0,1.9300000000000002,-79.797,-0.082,-0.001,0.082,484,1.554,484,telentang
1.0,2.0,-86.073,-0.073,-0.002,0.092,440,12.321,241,telentang
1.0,2.1,-89.471,-0.064,-0.002,0.097,414.51,12.321,241,telentang
1.0,2.3,-92.172,-0.046,-0.003,0.103,362.53,12.321,241,telentang
1.0,2.51,-88.458,-0.029,-0.003,0.101,309.67,12.321,241,telentang
1.0,2.7199999999999998,-81.78,-0.013,-0.003,0.099,256.67,12.321,241,telentang
1.0,2.93,-73.494,-0.006,-0.003,0.098,241,12.321,241,telentang
1.0,3.0,-68.334,-0.008,-0.003,0.1,242,0.666,237,telentang
1.0,3.1,-66.093,-0.005,-0.002,0.103,240.62,0.666,237,telentang
1.0,3.3,-61.612,0.002,-0.003,0.113,237.82,0.666,237,telentang
1.0,3.51,-44.722,0.011,-0.006,0.122,237,0.666,237,telentang
1.0,3.7199999999999998,-31.504,0.023,-0.01,0.128,237,0.666,237,telentang
1.0,3.93,-30.758,0.031,-0.011,0.129,237,0.666,237,telentang
1.0,4.0,-34.635,0.02,-0.011,0.132,254,4.995,327,telentang
1.0,4.1,-35.244,0.017,-0.011,0.136,264.33,4.995,327,telentang
1.0,4.3,-35.206,0.015,-0.012,0.143,285.34,4.995,327,telentang
1.0,4.51,-33.672,0.011,-0.011,0.148,306.8,4.995,327,telentang
1.0,4.72,-31.529,0.006,-0.011,0.151,327,4.995,327,telentang
1.0,4.93,-25.491,0.009,-0.01,0.154,327,4.995,327,telentang
1.0,5.0,-20.731,-0.002,-0.009,0.152,339,2.775,376,telentang
1.0,5.1,-39.781,0.002,-0.009,0.154,344.74,2.775,376,telentang
1.0,5.3,-91.993,0.003,-0.009,0.159,356.42,2.775,376,telentang
1.0,5.51,-153.781,0.003,-0.009,0.162,368.38,2.775,376,telentang
1.0,5.72,-151.607,0.005,-0.009,0.163,376,2.775,376,telentang
1.0,5.93,-138.451,0.009,-0.009,0.165,376,2.775,376,telentang
    
20.0,0.0,231.47269037324625,80.37383177570094,20.000000000000004,33.85214007782101,61.04868913857678,21.509,100.0
20.0,20.0,45.27927291979176,61.6822429906542,40.0,35.7976653696498,99.25093632958801,3.019,90.809
20.0,40.0,28.780552369187333,8.411214953271035,90.0,3.8910505836575857,75.28089887640449,39.623,1.471
20.0,60.0,44.43307156092826,69.1588785046729,80.00000000000001,7.003891050583658,1.1235955056179776,0.0,0.0
20.0,80.0,74.16835789287921,95.32710280373831,0.0,19.45525291828794,5.617977528089887,14.717,33.088
20.0,100.0,86.43695402805966,74.76635514018692,20.000000000000004,27.237354085603112,37.453183520599254,7.17,51.103
    
0.8,0.0,-133.857,0.006,-0.009,0.169,405,8.658,509,telentang
0.8,0.13,-126.005,0.003,-0.009,0.173,422.92,8.658,509,telentang
0.8,0.38,-118.917,-0.0,-0.008,0.176,459.35,8.658,509,telentang
0.8,0.64,-111.565,-0.005,-0.007,0.176,497.08,8.658,509,telentang
0.8,0.9,-105.144,-0.002,-0.007,0.175,509,8.658,509,telentang
0.8,1.0,-97.952,-0.018,-0.007,0.175,504,1.776,484,telentang
0.8,1.13,-96.559,-0.032,-0.008,0.172,500.33,1.776,484,telentang
0.8,1.38,-91.287,-0.06,-0.007,0.154,492.89,1.776,484,telentang
0.8,1.6400000000000001,-95.885,-0.08,-0.003,0.121,485.3,1.776,484,telentang
0.8,1.8900000000000001,-99.934,-0.082,-0.001,0.083,484,1.776,484,telentang
0.8,2.0,-102.616,-0.072,-0.002,0.094,433,15.318,241,telentang
0.8,2.13,-104.949,-0.06,-0.002,0.099,401.3,15.318,241,telentang
0.8,2.38,-107.386,-0.038,-0.002,0.103,337.04,15.318,241,telentang
0.8,2.64,-103.581,-0.016,-0.002,0.102,271.51,15.318,241,telentang
0.8,2.9,-94.315,-0.007,-0.003,0.099,241,15.318,241,telentang
0.8,3.0,-86.505,-0.008,-0.003,0.1,241,0.666,237,telentang
0.8,3.13,-84.432,-0.004,-0.003,0.104,239.62,0.666,237,telentang
0.8,3.38,-83.306,0.006,-0.004,0.117,237,0.666,237,telentang
0.8,3.64,-77.376,0.019,-0.008,0.127,237,0.666,237,telentang
0.8,3.9,-64.297,0.03,-0.011,0.13,237,0.666,237,telentang
0.8,4.0,-59.062,0.019,-0.011,0.133,260,6.216,327,telentang
0.8,4.13,-55.594,0.016,-0.011,0.138,272.86,6.216,327,telentang
0.8,4.38,-42.563,0.012,-0.012,0.145,299.06,6.216,327,telentang
0.8,4.64,-21.953,0.007,-0.011,0.15,325.72,6.216,327,telentang
0.8,4.9,-16.682,0.009,-0.01,0.154,327,6.216,327,telentang
0.8,5.0,-11.889,-0.001,-0.009,0.154,339,3.33,376,telentang
0.8,5.13,-22.272,-0.0,-0.009,0.155,345.89,3.33,376,telentang
0.8,5.38,-91.747,0.001,-0.008,0.159,359.86,3.33,376,telentang
0.8,5.64,-136.441,0.003,-0.009,0.163,374.08,3.33,376,telentang
0.8,5.9,-107.829,0.009,-0.009,0.165,376,3.33,376,telentang
    
16.0,0.0,-13.38304067766699,82.2429906542056,20.000000000000004,33.85214007782101,62.172284644194754,27.17,100.0
16.0,20.0,18.29877349333804,59.813084112149525,40.0,36.186770428015556,99.25093632958801,3.774,90.809
16.0,40.0,14.183358334068647,9.345794392523372,90.0,4.669260700389104,72.65917602996255,49.811,1.471
16.0,60.0,28.39936468719668,69.1588785046729,80.00000000000001,7.003891050583658,0.7490636704119851,0.0,0.0
16.0,80.0,52.614488661431224,94.39252336448598,0.0,19.844357976653697,7.865168539325842,18.868,33.088
16.0,100.0,94.23894820435895,75.70093457943925,20.000000000000004,28.015564202334627,37.453183520599254,9.057,51.103
    
0.6,0.0,-98.816,0.005,-0.009,0.172,417,11.211,509,telentang
0.6,0.17,-95.737,0.001,-0.009,0.175,440.2,11.211,509,telentang
0.6,0.5,-92.912,-0.002,-0.008,0.177,486.61,11.211,509,telentang
0.6,0.84,-90.551,-0.002,-0.007,0.175,509,11.211,509,telentang
0.6,1.0,-86.061,-0.027,-0.007,0.172,500,2.22,484,telentang
0.6,1.17,-94.185,-0.045,-0.007,0.164,495.41,2.22,484,telentang
0.6,1.5,-102.165,-0.075,-0.004,0.133,486.22,2.22,484,telentang
0.6,1.8399999999999999,-104.727,-0.083,-0.001,0.085,484,2.22,484,telentang
0.6,2.0,-106.118,-0.064,-0.002,0.098,416,20.202,241,telentang
0.6,2.17,-106.391,-0.051,-0.003,0.103,374.2,20.202,241,telentang
0.6,2.51,-111.787,-0.021,-0.003,0.103,288.78,20.202,241,telentang
0.6,2.85,-101.539,-0.007,-0.003,0.099,241,20.202,241,telentang
0.6,3.0,-92.562,-0.004,-0.002,0.101,242,0.777,237,telentang
0.6,3.17,-90.377,0.0,-0.003,0.108,240.39,0.777,237,telentang
0.6,3.51,-89.815,0.013,-0.007,0.122,237.09,0.777,237,telentang
0.6,3.86,-74.106,0.03,-0.011,0.13,237,0.777,237,telentang
0.6,4.0,-62.564,0.016,-0.01,0.135,267,8.103,327,telentang
0.6,4.17,-58.309,0.013,-0.011,0.14,283.77,8.103,327,telentang
0.6,4.5,-51.539,0.007,-0.012,0.149,317.33,8.103,327,telentang
0.6,4.84,-38.939,0.009,-0.011,0.154,327,8.103,327,telentang
0.6,5.0,-28.406,-0.002,-0.009,0.155,344,4.218,376,telentang
0.6,5.17,-34.024,-0.001,-0.009,0.156,352.73,4.218,376,telentang
0.6,5.51,-94.786,0.0,-0.008,0.161,370.61,4.218,376,telentang
0.6,5.85,-135.091,0.009,-0.009,0.165,376,4.218,376,telentang
    
12.0,0.0,17.53639812935674,81.30841121495327,20.000000000000004,35.01945525291828,66.66666666666666,35.849,100.0
12.0,20.0,28.791140915909285,51.40186915887851,40.0,35.01945525291828,97.75280898876404,5.283,90.809
12.0,40.0,11.09326744904262,16.822429906542055,90.0,6.22568093385214,66.29213483146067,66.415,1.471
12.0,60.0,23.054795729286155,72.89719626168224,90.0,7.392996108949418,1.1235955056179776,0.377,0.0
12.0,80.0,49.52439777640519,91.58878504672896,9.999999999999993,20.622568093385215,10.486891385767791,25.283,33.088
12.0,100.0,79.66469602047118,74.76635514018692,20.000000000000004,28.404669260700388,39.325842696629216,12.075,51.103
    
0.5,0.0,-117.839,0.004,-0.009,0.173,427,13.542,509,telentang
0.5,0.2,-112.337,0.002,-0.009,0.175,455.02,13.542,509,telentang
0.5,0.61,-106.703,-0.004,-0.007,0.175,509,13.542,509,telentang
0.5,1.02,-101.365,-0.002,-0.007,0.175,509,13.542,509,telentang
0.5,1.0,-98.15,-0.033,-0.006,0.171,498,2.664,484,telentang
0.5,1.2,-96.283,-0.054,-0.007,0.159,492.49,2.664,484,telentang
0.5,1.6099999999999999,-99.121,-0.083,-0.003,0.109,484,2.664,484,telentang
0.5,2.02,-101.69,-0.082,-0.002,0.082,484,2.664,484,telentang
0.5,2.0,-102.355,-0.056,-0.003,0.102,394,24.198,241,telentang
0.5,2.2,-100.102,-0.04,-0.003,0.107,343.93,24.198,241,telentang
0.5,2.61,-94.795,-0.008,-0.003,0.101,242.05,24.198,241,telentang
0.5,3.02,-88.837,-0.006,-0.002,0.098,241,24.198,241,telentang
0.5,3.0,-85.356,-0.007,-0.002,0.101,241,0.666,237,telentang
0.5,3.2,-85.403,-0.0,-0.003,0.109,239.62,0.666,237,telentang
0.5,3.61,-86.133,0.018,-0.007,0.126,237,0.666,237,telentang
0.5,4.02,-69.602,0.031,-0.012,0.129,237,0.666,237,telentang
0.5,4.0,-65.242,0.015,-0.01,0.137,277,9.768,327,telentang
0.5,4.2,-60.86,0.01,-0.011,0.143,297.21,9.768,327,telentang
0.5,4.61,-51.589,0.003,-0.011,0.151,327,9.768,327,telentang
0.5,5.02,-38.521,0.009,-0.01,0.154,327,9.768,327,telentang
0.5,5.0,-35.353,-0.001,-0.009,0.155,348,4.995,376,telentang
0.5,5.2,-48.648,-0.0,-0.009,0.159,358.33,4.995,376,telentang
0.5,5.61,-97.786,0.003,-0.009,0.163,376,4.995,376,telentang
0.5,6.02,-98.312,0.009,-0.009,0.165,376,4.995,376,telentang
    
10.0,0.0,0.7509044383658334,80.37383177570094,20.000000000000004,35.408560311284035,70.4119850187266,43.774,100.0
10.0,20.0,18.124062472425653,45.79439252336448,50.0,34.630350194552534,97.00374531835206,6.792,90.809
10.0,40.0,14.413659225271328,24.299065420560748,80.00000000000001,7.782101167315171,58.052434456928836,80.0,1.471
10.0,60.0,29.413218035824585,70.09345794392522,90.0,7.392996108949418,0.7490636704119851,0.0,0.0
10.0,80.0,47.16138709962057,90.65420560747663,9.999999999999993,21.400778210116734,14.232209737827715,30.943,33.088
10.0,100.0,73.53480984734844,75.70093457943925,20.000000000000004,28.404669260700388,40.823970037453186,14.717,51.103
    
0.4,0.0,-94.36,0.002,-0.009,0.174,440,16.65,509,telentang
0.4,0.25,-92.035,-0.001,-0.008,0.176,474.45,16.65,509,telentang
0.4,0.76,-88.945,-0.002,-0.007,0.175,509,16.65,509,telentang
0.4,1.0,-87.693,-0.041,-0.006,0.167,494,3.441,484,telentang
0.4,1.25,-92.107,-0.064,-0.007,0.147,486.88,3.441,484,telentang
0.4,1.76,-95.185,-0.083,-0.002,0.088,484,3.441,484,telentang
0.4,2.0,-97.616,-0.05,-0.004,0.107,371,30.081,241,telentang
0.4,2.25,-93.337,-0.028,-0.003,0.107,308.76,30.081,241,telentang
0.4,2.76,-87.289,-0.007,-0.003,0.1,241,30.081,241,telentang
0.4,3.0,-81.969,-0.005,-0.001,0.102,243,0.777,237,telentang
0.4,3.25,-82.599,0.003,-0.002,0.112,241.39,0.777,237,telentang
0.4,3.76,-90.663,0.026,-0.01,0.13,238.12,0.777,237,telentang
0.4,4.0,-71.776,0.011,-0.01,0.141,284,11.211,327,telentang
0.4,4.25,-65.407,0.008,-0.011,0.145,307.2,11.211,327,telentang
0.4,4.76,-51.576,0.011,-0.011,0.154,327,11.211,327,telentang
0.4,5.0,-39.317,-0.002,-0.009,0.156,352,5.883,376,telentang
0.4,5.25,-71.723,-0.0,-0.009,0.161,364.17,5.883,376,telentang
0.4,5.76,-109.614,0.007,-0.01,0.165,376,5.883,376,telentang
    
8.0,0.0,21.46827847877879,78.50467289719626,20.000000000000004,35.7976653696498,75.28089887640449,54.34,100.0
8.0,20.0,27.351098561722402,38.31775700934579,50.0,33.07392996108949,95.50561797752809,9.434,90.809
8.0,40.0,18.595252801552988,29.906542056074763,70.0,9.727626459143966,49.43820224719101,100.0,1.471
8.0,60.0,32.40183534809848,71.9626168224299,100.0,7.782101167315171,1.4981273408239701,0.377,0.0
8.0,80.0,41.39592340951205,86.91588785046727,9.999999999999993,22.95719844357976,16.853932584269664,35.849,33.088
8.0,100.0,70.03705991352686,74.76635514018692,20.000000000000004,28.793774319066145,42.32209737827715,17.736,51.103
    
