Periode(s),Step,Pitch Angle,CoMx(m),CoMy(m),CoMz(m),Left Ankle Angle Now,Left Ankle Speed(rpm),Goal,Pola
1.0,0.0,-74.937,0.009,-0.009,0.165,374,6.956,502.368,telentang
1.0,0.1,-75.814,0.005,-0.009,0.167,389.39,7.437,502,telentang
1.0,0.3,-75.109,0.002,-0.008,0.173,419.49,7.437,502,telentang
1.0,0.49,-76.286,-0.003,-0.007,0.175,449.51,7.437,502,telentang
1.0,0.69,-77.219,-0.009,-0.007,0.176,480.46,7.437,502,telentang
1.0,0.89,-74.629,-0.007,-0.007,0.175,502,7.437,502,telentang
1.0,1.0,-78.625,0.001,-0.007,0.175,500,4.758,508.098,telentang
1.0,1.1,-78.011,-0.017,-0.007,0.174,508,5.217,508,telentang
1.0,1.29,-89.955,-0.043,-0.008,0.169,508,5.217,508,telentang
1.0,1.49,-89.66,-0.07,-0.006,0.152,508,5.217,508,telentang
1.0,1.69,-113.357,-0.088,-0.003,0.122,508,5.217,508,telentang
1.0,1.88,-113.921,-0.091,-0.001,0.085,508,5.217,508,telentang
1.0,2.0,-109.924,-0.088,-0.001,0.071,508,13.49,239,telentang
1.0,2.1,-111.404,-0.081,-0.001,0.079,479.06,13.986,239,telentang
1.0,2.29,-104.743,-0.065,-0.003,0.09,422.86,13.986,239,telentang
1.0,2.49,-93.97,-0.048,-0.002,0.096,366.36,13.986,239,telentang
1.0,2.69,-81.0,-0.031,-0.001,0.097,309.76,13.986,239,telentang
1.0,2.88,-63.581,-0.015,-0.001,0.097,253.16,13.986,239,telentang
1.0,3.0,-69.711,-0.011,-0.003,0.096,239,1.002,235.53,telentang
1.0,3.1,-75.596,-0.008,-0.002,0.101,235.78,1.554,235,telentang
1.0,3.3,-70.334,-0.002,-0.003,0.111,235,1.554,235,telentang
1.0,3.49,-72.932,0.006,-0.005,0.12,235,1.554,235,telentang
1.0,3.68,-58.602,0.015,-0.008,0.126,235,1.554,235,telentang
1.0,3.88,-56.738,0.024,-0.01,0.13,235,1.554,235,telentang
1.0,4.0,-48.362,0.022,-0.01,0.127,234,4.158,313.59,telentang
1.0,4.1,-46.282,0.021,-0.011,0.132,243.65,4.662,313,telentang
1.0,4.3,-42.968,0.018,-0.012,0.141,262.54,4.662,313,telentang
1.0,4.49,-37.068,0.016,-0.012,0.145,281.43,4.662,313,telentang
1.0,4.6899999999999995,-27.006,0.012,-0.01,0.149,300.32,4.662,313,telentang
1.0,4.88,-28.263,0.014,-0.01,0.152,313,4.662,313,telentang
1.0,5.0,-14.652,0.015,-0.01,0.153,312,4.924,370.37,telentang
1.0,5.1,-4.517,0.012,-0.01,0.155,323.25,5.439,370,telentang
1.0,5.3,-8.86,0.006,-0.008,0.157,345.27,5.439,370,telentang
1.0,5.49,-18.463,0.0,-0.008,0.161,367.27,5.439,370,telentang
1.0,5.6899999999999995,-13.245,0.006,-0.01,0.163,370,5.439,370,telentang
1.0,5.88,9.415,0.012,-0.009,0.165,370,5.439,370,telentang
    
20.0,0.0,38.60672372716844,85.04672897196261,20.000000000000004,32.295719844357976,50.56179775280899,21.38224,97.56166
20.0,20.0,35.35251036795199,77.57009345794393,40.0,36.186770428015556,97.75280898876404,13.911343,99.668526
20.0,40.0,7.7349333803935325,-5.60747663551401,100.0,-4.28015564202335,100.74906367041199,43.59642,1.9435973
20.0,60.0,43.218035824583076,66.35514018691589,80.00000000000001,5.447470817120622,0.0,1.1418005,-0.54044044
20.0,80.0,62.05594282184771,97.19626168224299,9.999999999999993,17.509727626459142,-1.8726591760299627,11.871518,28.158102
20.0,100.0,91.80093532162711,90.65420560747663,9.999999999999993,27.62645914396887,27.340823970037455,14.476683,49.033016
    
