Periode(s),Step,Pitch Angle,CoMx(m),CoMy(m),CoMz(m),Left Ankle Angle Now,Omega (theta/s),Left Ankle Speed(rpm),Goal,Pola
0.3,0.0,-85.126,0.007,-0.009,0.164,375,0.051,17.129,505.414,telentang
0.3,0.34,-85.234,0.008,-0.009,0.174,411.97,-1.873,17.649,505,telentang
0.3,0.68,-85.278,0.01,-0.008,0.176,449.59,0.791,17.649,505,telentang
0.3,1.0,-87.945,-0.002,-0.008,0.174,504,0.02,5.207,486.496,telentang
0.3,1.34,-97.754,-0.038,-0.008,0.169,492.12,-152.621,5.6610000000000005,486,telentang
0.3,1.6800000000000002,-102.891,-0.075,-0.004,0.135,486,-132.995,5.6610000000000005,486,telentang
0.3,2.0,-127.279,-0.083,-0.001,0.077,487,0.325,27.655,238.696,telentang
0.3,2.33,-125.107,-0.067,-0.002,0.084,428.66,36.982,28.194,238,telentang
0.3,2.67,-119.464,-0.05,-0.003,0.086,370.33,63.928,28.194,238,telentang
0.3,3.0,-74.708,-0.013,-0.004,0.097,238,-24.858,11.026,237.39,telentang
0.3,3.36,-72.522,-0.001,-0.005,0.114,238,-18.293,2.553,238,telentang
0.3,3.69,-69.676,0.012,-0.008,0.124,238,53.012,2.553,238,telentang
0.3,4.0,-13.943,0.015,-0.01,0.131,232,-29.385,10.328,331.957,telentang
0.3,4.33,-31.576,0.013,-0.012,0.141,260.94,8.348,13.986,344,telentang
0.3,4.67,-25.055,0.013,-0.012,0.148,289.88,94.455,13.986,344,telentang
0.3,5.09,-16.257,0.016,-0.01,0.154,301.02,182.348,10.212,329,telentang
0.3,5.0,-21.492,0.01,-0.012,0.155,325,-56.049,7.406,379.655,telentang
0.3,5.38,-23.177,0.008,-0.012,0.16,348.23,48.417,9.768,393,telentang
0.3,5.73,-19.378,0.004,-0.01,0.163,369.12,118.486,9.768,393,telentang
0.3,6,5.175,0.004,-0.01,0.163,325,115.86,11.433,379,telentang
0.3,6,13.886,0.004,-0.01,0.163,325,-2.056,11.433,379,telentang
0.3,6,12.973,0.004,-0.01,0.163,325,-55.713,11.433,379,telentang
0.3,6,3.924,0.004,-0.01,0.163,325,-89.965,11.433,379,telentang
0.3,6,-17.701,0.004,-0.01,0.163,325,-25.53,11.433,379,telentang
0.3,6,-19.11,0.004,-0.01,0.163,325,7.883,11.433,379,telentang
0.3,6,-7.014,0.004,-0.01,0.163,325,57.432,11.433,379,telentang
0.3,6,-1.167,0.004,-0.01,0.163,325,52.333,11.433,379,telentang
0.3,6,3.865,0.004,-0.01,0.163,325,-6.919,11.433,379,telentang
0.3,6,2.288,0.004,-0.01,0.163,325,-37.881,11.433,379,telentang
0.3,6,-2.475,0.004,-0.01,0.163,325,-24.095,11.433,379,telentang
0.3,6,-5.998,0.004,-0.01,0.163,325,-2.232,11.433,379,telentang
0.3,6,-6.059,0.004,-0.01,0.163,325,12.478,11.433,379,telentang
0.3,6,-4.354,0.004,-0.01,0.163,325,13.562,11.433,379,telentang
0.3,6,-2.738,0.004,-0.01,0.163,325,7.425,11.433,379,telentang
0.3,6,-1.716,0.004,-0.01,0.163,325,-4.301,11.433,379,telentang
0.3,6,-2.265,0.004,-0.01,0.163,325,-5.331,11.433,379,telentang
0.3,6,-2.881,0.004,-0.01,0.163,325,-1.324,11.433,379,telentang
0.3,6,-2.98,0.004,-0.01,0.163,325,1.287,11.433,379,telentang
0.3,6,-2.762,0.004,-0.01,0.163,325,0.241,11.433,379,telentang
0.3,6,-2.675,0.004,-0.01,0.163,325,-0.72,11.433,379,telentang
0.3,6,-2.734,0.004,-0.01,0.163,325,0.043,11.433,379,telentang
0.3,6,-2.579,0.004,-0.01,0.163,325,0.112,11.433,379,telentang
0.3,6,-2.489,0.004,-0.01,0.163,325,-0.553,11.433,379,telentang
0.3,6,-2.501,0.004,-0.01,0.163,325,0.188,11.433,379,telentang
0.3,6,-2.414,0.004,-0.01,0.163,325,0.012,11.433,379,telentang
0.3,6,-2.341,0.004,-0.01,0.163,325,-0.362,11.433,379,telentang
0.3,6,-2.38,0.004,-0.01,0.163,325,0.196,11.433,379,telentang
0.3,6,-2.264,0.004,-0.01,0.163,325,-0.018,11.433,379,telentang
0.3,6,-2.128,0.004,-0.01,0.163,325,1.661,11.433,379,telentang
    
6.0,0.0,26.684646968843097,79.1304347826087,33.33333333333333,86.59793814432992,51.971326164874554,41.45,56.135,98.682
6.0,16.666666666666664,24.399001690685136,71.30434782608695,41.66666666666666,96.90721649484536,98.2078853046595,41.44,15.756,91.726
6.0,33.33333333333333,-7.588760969326143,0.8695652173913051,100.0,-3.0927835051546424,92.1146953405018,41.54,91.787,0.624
6.0,50.0,35.330488688511394,61.73913043478261,74.99999999999999,17.525773195876294,2.867383512544803,33.295,35.465,0.143
6.0,53.833333333333336,35.16383543998068,61.73913043478261,74.99999999999999,17.525773195876294,-82.43727598566308,41.033,5.20575783234547,0.5680147058823484
6.0,66.66666666666666,39.11440302713147,83.47826086956522,41.66666666666666,45.36082474226804,2.867383512544803,58.791,11.685012701100762,5.1643382352941165
6.0,66.66666666666666,85.9584574510909,86.08695652173914,24.999999999999993,52.57731958762888,0.7168458781362007,31.813,33.101,34.911
6.0,70.5,74.16230577248209,86.08695652173914,24.999999999999993,52.57731958762888,-82.43727598566308,20.545,43.86790855207451,39.619852941176475
6.0,83.0,75.03824168746478,84.34782608695653,8.333333333333325,70.10309278350515,21.462365591397848,72.361,31.105842506350555,33.85955882352942
6.0,83.33333333333334,79.08139441268818,81.73913043478261,8.333333333333325,77.31958762886599,34.05017921146953,23.082,23.204,52.447
6.0,87.33333333333334,74.70815554303196,81.73913043478261,8.333333333333325,77.31958762886599,-82.43727598566308,44.675,29.42929720575783,57.419117647058826
6.0,100.33333333333331,79.60872715562354,76.52173913043478,24.999999999999993,85.56701030927837,49.86379928315412,80.229,35.170194750211685,52.36470588235294
    
0.3,0.0,-84.688,0.007,-0.009,0.165,376,-0.102,17.028,506.861,telentang
0.3,0.34,-84.628,0.008,-0.009,0.174,412.77,4.974,17.538,506,telentang
0.3,0.67,-84.182,0.01,-0.008,0.176,449.06,-1.362,17.538,506,telentang
0.3,1.01,-84.182,0.008,-0.008,0.175,486.41,-1.362,17.538,506,telentang
0.3,1.0,-86.8,-0.003,-0.007,0.174,505,0.035,4.015,484.031,telentang
0.3,1.33,-100.258,-0.041,-0.008,0.168,495.58,-139.461,4.551,484,telentang
0.3,1.7,-100.258,-0.077,-0.003,0.132,485.28,-139.461,4.551,484,telentang
0.3,2.0,-137.322,-0.083,-0.002,0.077,485,-2.4,33.419,239,telentang
0.3,2.34,-132.76,-0.063,-0.002,0.088,414.31,17.531,33.966,239,telentang
0.3,2.67,-118.812,-0.043,-0.003,0.092,344.03,144.608,33.966,239,telentang
0.3,3.01,-110.783,-0.022,-0.001,0.094,271.88,187.722,33.966,239,telentang
0.3,3.0,-63.609,-0.011,-0.001,0.096,238,2.234,0.89,236.966,telentang
0.3,3.33,-75.925,-0.004,-0.003,0.112,237,6.463,1.554,237,telentang
0.3,3.8,-76.749,0.015,-0.009,0.129,242,51.844,14.763,242,telentang
0.3,4.25,-71.101,0.023,-0.01,0.13,242,130.638,14.763,242,telentang
0.3,4.0,-36.789,0.026,-0.011,0.129,230,-42.056,12.016,328.052,telentang
0.3,4.35,-53.111,0.026,-0.013,0.14,254.96,50.638,11.433,338,telentang
0.3,4.6899999999999995,-48.945,0.024,-0.012,0.147,278.91,87.432,11.433,338,telentang
0.3,5.12,-9.798,0.048,-0.012,0.143,253.09,212.394,3.33,321,telentang
0.3,5.0,-21.236,0.01,-0.01,0.153,319,7.241,6.625,374.727,telentang
0.3,5.35,-18.154,0.012,-0.009,0.157,335.46,84.623,7.548,392,telentang
0.3,5.72,7.82,0.014,-0.01,0.162,352.58,73.325,7.548,392,telentang
0.3,6.09,11.345,0.016,-0.009,0.165,364.65,33.608,6.771,384,telentang
0.3,6,11.345,0.016,-0.009,0.165,319,33.608,6.771,384,telentang
0.3,6,9.408,0.016,-0.009,0.165,319,-65.461,6.771,384,telentang
0.3,6,-2.498,0.016,-0.009,0.165,319,-104.186,6.771,384,telentang
0.3,6,-23.343,0.016,-0.009,0.165,319,-28.743,6.771,384,telentang
0.3,6,-15.526,0.016,-0.009,0.165,319,-22.575,6.771,384,telentang
0.3,6,-18.646,0.016,-0.009,0.165,319,5.18,6.771,384,telentang
0.3,6,-19.287,0.016,-0.009,0.165,319,32.905,6.771,384,telentang
0.3,6,-16.798,0.016,-0.009,0.165,319,98.333,6.771,384,telentang
0.3,6,-3.018,0.016,-0.009,0.165,319,74.776,6.771,384,telentang
0.3,6,3.04,0.016,-0.009,0.165,319,-8.598,6.771,384,telentang
0.3,6,0.461,0.016,-0.009,0.165,319,-49.988,6.771,384,telentang
0.3,6,-6.542,0.016,-0.009,0.165,319,-49.774,6.771,384,telentang
0.3,6,-17.597,0.016,-0.009,0.165,319,0.463,6.771,384,telentang
0.3,6,-10.523,0.016,-0.009,0.165,319,33.28,6.771,384,telentang
0.3,6,-6.889,0.016,-0.009,0.165,319,27.188,6.771,384,telentang
0.3,6,-4.01,0.016,-0.009,0.165,319,5.936,6.771,384,telentang
0.3,6,-3.751,0.016,-0.009,0.165,319,-12.377,6.771,384,telentang
0.3,6,-5.354,0.016,-0.009,0.165,319,-19.583,6.771,384,telentang
0.3,6,-7.733,0.016,-0.009,0.165,319,-2.392,6.771,384,telentang
0.3,6,-7.788,0.016,-0.009,0.165,319,7.417,6.771,384,telentang
0.3,6,-6.601,0.016,-0.009,0.165,319,6.875,6.771,384,telentang
0.3,6,-5.591,0.016,-0.009,0.165,319,-1.957,6.771,384,telentang
0.3,6,-5.738,0.016,-0.009,0.165,319,-2.675,6.771,384,telentang
0.3,6,-5.902,0.016,-0.009,0.165,319,1.425,6.771,384,telentang
0.3,6,-5.534,0.016,-0.009,0.165,319,0.463,6.771,384,telentang
0.3,6,-5.39,0.016,-0.009,0.165,319,-1.491,6.771,384,telentang
0.3,6,-5.451,0.016,-0.009,0.165,319,0.753,6.771,384,telentang
0.3,6,-5.13,0.016,-0.009,0.165,319,-0.102,6.771,384,telentang
0.3,6,-5.077,0.016,-0.009,0.165,319,-0.636,6.771,384,telentang
0.3,6,-5.059,0.016,-0.009,0.165,319,0.631,6.771,384,telentang
    
6.0,0.0,27.02600434747605,79.1304347826087,33.33333333333333,87.62886597938146,52.32974910394266,41.4,55.793,99.214
6.0,16.666666666666664,25.317607277996938,70.43478260869566,49.99999999999999,96.90721649484536,98.56630824372759,41.445,11.719,90.82
6.0,33.33333333333333,-16.299009741566692,0.8695652173913051,91.66666666666666,-3.0927835051546424,91.39784946236558,40.648,111.309,0.735
6.0,50.0,44.97061428226391,63.47826086956522,100.0,16.494845360824744,2.867383512544803,42.165,1.135,-0.012
6.0,53.833333333333336,39.84944851461235,63.47826086956522,100.0,16.494845360824744,-82.43727598566308,35.912,1.6900931414055884,0.24889705882352667
6.0,63.33333333333333,34.31929796312696,69.56521739130434,83.33333333333331,32.98969072164949,2.5089605734767026,48.906,46.35732430143946,1.9551470588235338
6.0,66.66666666666666,67.99774575315998,95.65217391304347,16.666666666666664,50.515463917525786,0.0,27.664,38.818,33.475
6.0,70.5,54.44167136301425,95.65217391304347,16.666666666666664,50.515463917525786,-82.43727598566308,34.927,35.02116850127011,37.295588235294126
6.0,83.0,55.804685613074625,93.91304347826087,8.333333333333325,69.0721649484536,17.530465949820798,70.061,7.800169348010161,31.147426470588236
6.0,83.33333333333334,78.6080025762821,81.73913043478261,24.999999999999993,75.25773195876289,31.899641577060933,43.805,20.559,50.635
6.0,87.33333333333334,78.65550277755415,81.73913043478261,24.999999999999993,75.25773195876289,-82.43727598566308,53.747,21.83573243014395,57.0360294117647
6.0,101.49999999999999,101.5055148538765,85.21739130434783,24.999999999999993,84.53608247422682,43.93548387096774,65.442,19.370025402201527,54.19558823529411
    
0.3,0.0,-84.359,0.007,-0.009,0.164,376,-0.178,17.174,505.322,telentang
0.3,0.32,-84.369,0.008,-0.009,0.173,410.75,1.257,17.649,505,telentang
0.3,0.68,-83.569,0.01,-0.008,0.176,450.34,-1.614,17.649,505,telentang
0.3,1.03,-84.137,0.007,-0.008,0.175,488.73,-1.705,17.649,505,telentang
0.3,1.0,-85.955,-0.002,-0.008,0.174,504,-0.209,4.868,486.337,telentang
0.3,1.33,-86.46,-0.038,-0.008,0.169,492.98,-39.949,5.328,486,telentang
0.3,1.67,-96.04,-0.075,-0.004,0.138,486,-136.446,5.328,486,telentang
0.3,2.0,-119.818,-0.083,-0.001,0.077,487,0.226,26.493,238.395,telentang
0.3,2.33,-118.865,-0.067,-0.002,0.083,431.03,31.402,26.973,238,telentang
0.3,2.67,-100.45,-0.051,-0.003,0.084,375.22,138.593,26.973,238,telentang
0.3,3.0,-72.162,-0.013,-0.003,0.096,240,-1.331,5.068,234.529,telentang
0.3,3.35,-73.71,-0.002,-0.005,0.114,237,-8.209,2.109,237,telentang
0.3,3.73,-73.849,0.014,-0.008,0.126,237,2.577,2.109,237,telentang
0.3,4.0,-41.11,0.026,-0.011,0.129,225,13.31,13.663,330.866,telentang
0.3,4.34,-34.848,0.023,-0.013,0.139,258.54,126.249,15.873,353,telentang
0.3,4.67,-23.897,0.017,-0.012,0.148,291.41,116.768,15.873,353,telentang
0.3,5.05,17.875,0.027,-0.011,0.15,289.84,108.608,9.99,324,telentang
0.3,5.0,-31.919,0.003,-0.009,0.152,327,34.829,7.655,373.857,telentang
0.3,5.33,-23.861,-0.0,-0.008,0.157,349.05,129.745,10.656,406,telentang
0.3,5.67,-11.958,-0.003,-0.008,0.161,371.1,134.081,10.656,406,telentang
0.3,6.07,-2.536,0.006,-0.009,0.165,379,23.417,16.206,379,telentang
0.3,6,-4.623,0.006,-0.009,0.165,327,-46.72,16.206,379,telentang
0.3,6,-5.871,0.006,-0.009,0.165,327,-65.759,16.206,379,telentang
0.3,6,-15.848,0.006,-0.009,0.165,327,-18.644,16.206,379,telentang
0.3,6,-14.862,0.006,-0.009,0.165,327,27.73,16.206,379,telentang
0.3,6,-6.858,0.006,-0.009,0.165,327,37.249,16.206,379,telentang
0.3,6,-0.371,0.006,-0.009,0.165,327,27.165,16.206,379,telentang
0.3,6,3.161,0.006,-0.009,0.165,327,-11.018,16.206,379,telentang
0.3,6,2.421,0.006,-0.009,0.165,327,-21.72,16.206,379,telentang
0.3,6,0.411,0.006,-0.009,0.165,327,-12.163,16.206,379,telentang
0.3,6,-0.94,0.006,-0.009,0.165,327,2.066,16.206,379,telentang
0.3,6,-0.407,0.006,-0.009,0.165,327,6.119,16.206,379,telentang
0.3,6,0.503,0.006,-0.009,0.165,327,3.516,16.206,379,telentang
0.3,6,0.878,0.006,-0.009,0.165,327,-0.72,16.206,379,telentang
0.3,6,0.65,0.006,-0.009,0.165,327,-1.43,16.206,379,telentang
0.3,6,0.36,0.006,-0.009,0.165,327,1.073,16.206,379,telentang
0.3,6,0.38,0.006,-0.009,0.165,327,-0.072,16.206,379,telentang
0.3,6,0.184,0.006,-0.009,0.165,327,-0.72,16.206,379,telentang
0.3,6,-0.079,0.006,-0.009,0.165,327,0.57,16.206,379,telentang
0.3,6,-0.174,0.006,-0.009,0.165,327,1.676,16.206,379,telentang
0.3,6,-0.385,0.006,-0.009,0.165,327,-0.514,16.206,379,telentang
0.3,6,-0.607,0.006,-0.009,0.165,327,0.577,16.206,379,telentang
0.3,6,-0.571,0.006,-0.009,0.165,327,-0.354,16.206,379,telentang
0.3,6,-0.737,0.006,-0.009,0.165,327,-0.339,16.206,379,telentang
0.3,6,-0.845,0.006,-0.009,0.165,327,0.409,16.206,379,telentang
0.3,6,-0.861,0.006,-0.009,0.165,327,-0.392,16.206,379,telentang
0.3,6,-0.992,0.006,-0.009,0.165,327,0.104,16.206,379,telentang
0.3,6,-1.049,0.006,-0.009,0.165,327,0.096,16.206,379,telentang
0.3,6,-1.055,0.006,-0.009,0.165,327,1.722,16.206,379,telentang
0.3,6,-1.159,0.006,-0.009,0.165,327,0.112,16.206,379,telentang
0.3,6,-1.21,0.006,-0.009,0.165,327,0.028,16.206,379,telentang
    
6.0,0.0,27.3005394090653,79.1304347826087,33.33333333333333,86.59793814432992,52.32974910394266,41.375,56.288,98.648
6.0,16.666666666666664,26.02608485629176,71.30434782608695,41.66666666666666,96.90721649484536,98.2078853046595,41.365,14.608,91.668
6.0,33.33333333333333,-1.1206827147572624,0.8695652173913051,100.0,-3.0927835051546424,92.1146953405018,41.508,87.851,0.513
6.0,50.0,37.45994686418163,61.73913043478261,83.33333333333331,16.494845360824744,3.584229390681003,40.998,15.285,-0.908
6.0,53.833333333333336,35.78697367361727,61.73913043478261,83.33333333333331,16.494845360824744,-82.43727598566308,41.763,3.576629974597799,0.31433823529411387
6.0,66.83333333333333,35.754770147331136,85.21739130434783,41.66666666666666,47.422680412371136,2.5089605734767026,42.278,3.153259949195597,-1.595955882352944
6.0,66.66666666666666,61.42178568553256,95.65217391304347,16.666666666666664,50.515463917525786,-1.7921146953405016,45.792,44.396,34.51
6.0,70.5,64.51251912084372,95.65217391304347,16.666666666666664,50.515463917525786,-82.43727598566308,55.102,50.08975444538527,42.84558823529412
6.0,82.66666666666667,75.9705337734482,87.82608695652175,8.333333333333325,70.10309278350515,22.010752688172055,79.666,30.232006773920407,32.16838235294117
6.0,83.33333333333334,69.36237017953466,75.65217391304348,33.33333333333333,74.22680412371135,34.76702508960574,52.838,24.047,50.315
6.0,87.16666666666667,73.16882698655503,75.65217391304348,33.33333333333333,74.22680412371135,-82.43727598566308,63.923,32.62997459779848,62.3235294117647
6.0,99.16666666666667,85.58248128170035,70.43478260869566,41.66666666666666,83.50515463917527,50.57347670250897,85.335,51.4987298899238,52.41507352941177
    
0.3,0.0,-84.361,0.007,-0.009,0.164,376,-0.087,17.133,505.292,telentang
0.3,0.34,-84.308,0.008,-0.009,0.174,412.93,1.104,17.649,505,telentang
0.3,0.67,-84.014,0.011,-0.009,0.176,449.87,0.173,17.649,505,telentang
0.3,1.0,-86.18,-0.002,-0.007,0.174,504,-0.133,4.302,484.949,telentang
0.3,1.34,-87.338,-0.04,-0.008,0.168,493.98,-70.14,4.773,484,telentang
0.3,1.67,-110.127,-0.075,-0.004,0.137,484.1,-96.003,4.773,484,telentang
0.3,2.05,-115.255,-0.082,-0.002,0.081,484,-26.285,4.773,484,telentang
0.3,2.0,-118.51,-0.083,-0.002,0.079,486,0.073,28.512,238.494,telentang
0.3,2.34,-118.287,-0.066,-0.002,0.085,425.6,14.852,28.971,238,telentang
0.3,2.67,-95.528,-0.049,-0.002,0.088,365.65,131.898,28.971,238,telentang
0.3,3.0,-73.014,-0.012,-0.003,0.098,234,-0.812,10.292,234.344,telentang
0.3,3.33,-73.324,-0.001,-0.005,0.113,237,-25.011,2.22,237,telentang
0.3,3.68,-71.026,0.012,-0.008,0.125,237,25.715,2.22,237,telentang
0.3,4.13,-67.061,0.027,-0.011,0.13,234,87.844,7.215,234,telentang
0.3,4.0,-27.229,0.029,-0.011,0.128,228,-13.026,13.71,328.488,telentang
0.3,4.33,-31.256,0.027,-0.013,0.139,254.87,36.829,12.987,346,telentang
0.3,4.67,-29.108,0.024,-0.012,0.146,281.74,31.753,12.987,346,telentang
0.3,5.0600000000000005,-19.675,0.024,-0.011,0.152,300.33,165.898,10.989,324,telentang
0.3,5.0,-14.696,0.01,-0.009,0.153,320,-32.652,6.834,378.485,telentang
0.3,5.33,-17.26,0.01,-0.009,0.157,337.91,38.638,8.658,387,telentang
0.3,5.67,-11.922,0.01,-0.009,0.162,355.83,69.394,8.658,387,telentang
0.3,6.08,-2.547,0.005,-0.009,0.166,379.47,93.531,8.88,385,telentang
0.3,6,-2.547,0.005,-0.009,0.166,320,93.531,8.88,385,telentang
0.3,6,6.348,0.005,-0.009,0.166,320,-56.156,8.88,385,telentang
0.3,6,-0.088,0.005,-0.009,0.166,320,-79.888,8.88,385,telentang
0.3,6,-17.427,0.005,-0.009,0.166,320,-37.988,8.88,385,telentang
0.3,6,-19.352,0.005,-0.009,0.166,320,-0.4,8.88,385,telentang
0.3,6,-17.905,0.005,-0.009,0.166,320,47.211,8.88,385,telentang
0.3,6,-6.43,0.005,-0.009,0.166,320,35.043,8.88,385,telentang
0.3,6,-0.052,0.005,-0.009,0.166,320,4.554,8.88,385,telentang
0.3,6,0.655,0.005,-0.009,0.166,320,-25.461,8.88,385,telentang
0.3,6,-2.731,0.005,-0.009,0.166,320,-35.324,8.88,385,telentang
0.3,6,-372.959,0.005,-0.009,0.166,320,-12.064,8.88,385,telentang
0.3,6,-11.087,0.005,-0.009,0.166,320,14.531,8.88,385,telentang
0.3,6,-8.086,0.005,-0.009,0.166,320,15.112,8.88,385,telentang
0.3,6,-5.273,0.005,-0.009,0.166,320,1.073,8.88,385,telentang
0.3,6,-4.559,0.005,-0.009,0.166,320,-6.125,8.88,385,telentang
0.3,6,-4.969,0.005,-0.009,0.166,320,-1.148,8.88,385,telentang
0.3,6,-4.748,0.005,-0.009,0.166,320,2.02,8.88,385,telentang
0.3,6,-4.143,0.005,-0.009,0.166,320,0.478,8.88,385,telentang
0.3,6,-3.922,0.005,-0.009,0.166,320,-1.927,8.88,385,telentang
0.3,6,-4.162,0.005,-0.009,0.166,320,1.287,8.88,385,telentang
0.3,6,-3.936,0.005,-0.009,0.166,320,0.257,8.88,385,telentang
0.3,6,-3.908,0.005,-0.009,0.166,320,-1.262,8.88,385,telentang
0.3,6,-4.067,0.005,-0.009,0.166,320,0.486,8.88,385,telentang
0.3,6,-4.006,0.005,-0.009,0.166,320,0.211,8.88,385,telentang
0.3,6,-4.014,0.005,-0.009,0.166,320,-1.163,8.88,385,telentang
0.3,6,-4.164,0.005,-0.009,0.166,320,0.684,8.88,385,telentang
0.3,6,-4.159,0.005,-0.009,0.166,320,-2.117,8.88,385,telentang
0.3,6,-4.21,0.005,-0.009,0.166,320,-0.392,8.88,385,telentang
0.3,6,-4.303,0.005,-0.009,0.166,320,0.531,8.88,385,telentang
0.3,6,-4.258,0.005,-0.009,0.166,320,-0.423,8.88,385,telentang
    
6.0,0.0,27.303759761693907,79.1304347826087,33.33333333333333,86.59793814432992,52.32974910394266,41.405,56.149,98.637
6.0,16.666666666666664,25.836084051203613,71.30434782608695,49.99999999999999,96.90721649484536,98.2078853046595,41.39,12.691,91.158
6.0,33.33333333333333,-0.03622896707189575,0.8695652173913051,91.66666666666666,-1.0309278350515474,91.75627240143369,41.458,94.689,0.549
6.0,50.0,36.577570243941715,62.60869565217392,83.33333333333331,18.55670103092784,1.4336917562724014,41.168,32.979,-0.976
6.0,53.833333333333336,36.327992915224215,62.60869565217392,83.33333333333331,18.55670103092784,-82.43727598566308,43.132,3.898391193903471,0.3551470588235324
6.0,66.5,38.02753401497465,83.47826086956522,41.66666666666666,46.391752577319586,2.5089605734767026,49.853,20.86706181202371,-0.7514705882352982
6.0,66.66666666666666,73.94412688189357,98.26086956521739,16.666666666666664,49.484536082474236,-0.7168458781362007,37.169,44.555,33.635
6.0,70.5,70.29627244183237,98.26086956521739,16.666666666666664,49.484536082474236,-82.43727598566308,37.969,40.355630821337854,40.18198529411765
6.0,82.83333333333333,76.61862973995652,93.91304347826087,8.333333333333325,68.04123711340205,18.544802867383517,73.343,33.64606265876377,32.27426470588235
6.0,83.33333333333334,90.17711939457371,81.73913043478261,33.33333333333333,75.25773195876289,32.25806451612903,30.743,21.267,52.017
6.0,87.16666666666667,80.53216327187826,81.73913043478261,33.33333333333333,75.25773195876289,-82.43727598566308,39.561,25.686706181202375,55.213235294117645
6.0,99.83333333333334,82.19789066902827,81.73913043478261,33.33333333333333,84.53608247422682,45.10035842293906,69.236,26.397967823878073,54.412132352941164
    
0.3,0.0,-83.998,0.007,-0.009,0.163,376,-0.049,17.736,504.752,telentang
0.3,0.34,-84.226,0.008,-0.009,0.174,413.9,0.051,18.204,504,telentang
0.3,0.68,-83.548,0.009,-0.008,0.176,452.9,0.455,18.204,504,telentang
0.3,1.0,-85.586,-0.002,-0.008,0.174,503,-0.064,4.755,486.054,telentang
0.3,1.34,-85.547,-0.038,-0.008,0.169,492.08,-41.14,5.217,486,telentang
0.3,1.6800000000000002,-100.781,-0.075,-0.004,0.137,486,-137.087,5.217,486,telentang
0.3,2.0,-121.608,-0.084,-0.001,0.077,487,-0.713,26.937,238.42,telentang
0.3,2.33,-119.967,-0.067,-0.002,0.083,430.0,29.669,27.417,238,telentang
0.3,2.67,-99.862,-0.051,-0.002,0.085,373.27,111.76,27.417,238,telentang
0.3,3.0,-73.062,-0.014,-0.004,0.096,240,-5.026,8.794,233.288,telentang
0.3,3.33,-73.419,-0.003,-0.004,0.113,238,-5.369,2.664,238,telentang
0.3,3.67,-74.476,0.011,-0.008,0.124,238,-8.316,2.664,238,telentang
0.3,4.07,-67.723,0.026,-0.011,0.13,234,95.081,1.554,234,telentang
0.3,4.0,-32.342,0.029,-0.011,0.128,231,-14.766,13.624,327.691,telentang
0.3,4.33,-41.162,0.026,-0.013,0.139,259.48,16.18,13.764,358,telentang
0.3,4.6899999999999995,-41.162,0.023,-0.012,0.147,289.79,16.18,13.764,358,telentang
0.3,5.09,-7.974,0.03,-0.011,0.15,293.35,197.249,9.213000000000001,344,telentang
0.3,5.0,-32.93,-0.002,-0.009,0.153,344,-82.27,5.029,386.298,telentang
0.3,5.33,-35.491,0.001,-0.008,0.157,358.7,-8.392,7.104,389,telentang
0.3,5.67,-32.001,0.002,-0.009,0.162,373.4,90.073,7.104,389,telentang
0.3,6.12,-11.089,-0.004,-0.008,0.165,394,72.257,12.099,394,telentang
0.3,6,-7.662,-0.004,-0.008,0.165,344,56.844,12.099,394,telentang
0.3,6,-3.191,-0.004,-0.008,0.165,344,49.051,12.099,394,telentang
0.3,6,-0.683,-0.004,-0.008,0.165,344,-17.835,12.099,394,telentang
0.3,6,-5.034,-0.004,-0.008,0.165,344,-45.11,12.099,394,telentang
0.3,6,-15.36,-0.004,-0.008,0.165,344,-22.087,12.099,394,telentang
0.3,6,-17.734,-0.004,-0.008,0.165,344,13.982,12.099,394,telentang
0.3,6,-10.78,-0.004,-0.008,0.165,344,22.409,12.099,394,telentang
0.3,6,-9.15,-0.004,-0.008,0.165,344,3.18,12.099,394,telentang
0.3,6,-9.737,-0.004,-0.008,0.165,344,-10.751,12.099,394,telentang
0.3,6,-11.489,-0.004,-0.008,0.165,344,-6.476,12.099,394,telentang
0.3,6,-372.45,-0.004,-0.008,0.165,344,5.302,12.099,394,telentang
0.3,6,-11.862,-0.004,-0.008,0.165,344,3.364,12.099,394,telentang
0.3,6,-11.375,-0.004,-0.008,0.165,344,-2.797,12.099,394,telentang
0.3,6,-11.628,-0.004,-0.008,0.165,344,-1.988,12.099,394,telentang
0.3,6,-11.737,-0.004,-0.008,0.165,344,0.715,12.099,394,telentang
0.3,6,-11.389,-0.004,-0.008,0.165,344,3.646,12.099,394,telentang
0.3,6,-10.932,-0.004,-0.008,0.165,344,-0.774,12.099,394,telentang
0.3,6,-10.855,-0.004,-0.008,0.165,344,-1.324,12.099,394,telentang
0.3,6,-10.768,-0.004,-0.008,0.165,344,0.898,12.099,394,telentang
0.3,6,-10.423,-0.004,-0.008,0.165,344,0.203,12.099,394,telentang
0.3,6,-10.182,-0.004,-0.008,0.165,344,-0.652,12.099,394,telentang
0.3,6,-10.156,-0.004,-0.008,0.165,344,-0.14,12.099,394,telentang
0.3,6,-9.969,-0.004,-0.008,0.165,344,0.547,12.099,394,telentang
0.3,6,-9.728,-0.004,-0.008,0.165,344,-0.377,12.099,394,telentang
0.3,6,-9.599,-0.004,-0.008,0.165,344,-0.27,12.099,394,telentang
0.3,6,-9.519,-0.004,-0.008,0.165,344,0.325,12.099,394,telentang
0.3,6,-9.399,-0.004,-0.008,0.165,344,-0.163,12.099,394,telentang
0.3,6,-9.353,-0.004,-0.008,0.165,344,-0.446,12.099,394,telentang
0.3,6,-9.294,-0.004,-0.008,0.165,344,0.272,12.099,394,telentang
0.3,6,-9.226,-0.004,-0.008,0.165,344,-0.331,12.099,394,telentang
    
6.0,0.0,27.57024394171162,79.1304347826087,33.33333333333333,85.56701030927837,52.32974910394266,41.418,58.191,98.438
6.0,16.666666666666664,26.360196441510347,71.30434782608695,41.66666666666666,96.90721649484536,97.84946236559139,41.413,14.225,91.564
6.0,33.33333333333333,-2.698655502777546,0.0,100.0,-3.0927835051546424,92.1146953405018,41.2,89.355,0.522
6.0,50.0,36.86337653973111,60.86956521739131,74.99999999999999,16.494845360824744,3.584229390681003,39.788,27.905,-1.365
6.0,54.0,35.76201594074551,60.86956521739131,74.99999999999999,16.494845360824744,-82.43727598566308,42.86,5.358171041490262,0.5452205882352956
6.0,66.0,35.249979872796075,82.6086956521739,41.66666666666666,45.36082474226804,2.867383512544803,38.711,1.8628281117696865,-0.7963235294117635
6.0,66.66666666666666,69.99436438289992,98.26086956521739,16.666666666666664,49.484536082474236,0.35842293906810035,36.599,44.264,33.342
6.0,70.5,64.67917236937446,98.26086956521739,16.666666666666664,49.484536082474236,-82.43727598566308,17.718,42.89923793395428,44.537132352941185
6.0,83.0,62.070686740198056,93.04347826086958,8.333333333333325,69.0721649484536,21.430107526881727,46.732,27.75275190516512,39.55551470588235
6.0,83.33333333333334,69.28105627566218,71.30434782608695,33.33333333333333,75.25773195876289,40.86021505376344,14.497,15.153,54.889
6.0,87.16666666666667,66.92617341598906,71.30434782608695,33.33333333333333,75.25773195876289,-82.43727598566308,35.814,20.348856900931413,56.02830882352941
6.0,99.66666666666667,69.4460993478786,74.78260869565217,33.33333333333333,84.53608247422682,51.397849462365585,70.926,37.26672311600339,58.02757352941176
    
0.3,0.0,-84.212,0.006,-0.008,0.164,376,-0.033,17.458,502.342,telentang
0.3,0.34,-84.379,0.007,-0.009,0.173,413.47,3.661,17.982,502,telentang
0.3,0.68,-83.615,0.009,-0.008,0.176,451.41,5.142,17.982,502,telentang
0.3,1.0,-85.606,-0.002,-0.007,0.174,501,0.051,4.17,484.588,telentang
0.3,1.34,-90.235,-0.038,-0.008,0.169,491.25,-112.301,4.662,484,telentang
0.3,1.6800000000000002,-110.375,-0.075,-0.004,0.136,484,-133.43,4.662,484,telentang
0.3,2.0,-124.651,-0.084,-0.001,0.077,486,3.982,28.097,238.319,telentang
0.3,2.34,-122.157,-0.066,-0.002,0.085,426.11,30.646,28.638,238,telentang
0.3,2.67,-110.14,-0.049,-0.003,0.086,366.86,148.89,28.638,238,telentang
0.3,3.0,-71.473,-0.012,-0.004,0.097,236,-0.453,8.866,234.034,telentang
0.3,3.35,-74.76,-0.001,-0.005,0.113,238,-12.331,2.775,238,telentang
0.3,3.73,-74.76,0.014,-0.008,0.126,238,-12.331,2.775,238,telentang
0.3,4.0,-27.421,0.024,-0.011,0.129,229,-23.667,12.047,329.96,telentang
0.3,4.38,-34.317,0.025,-0.013,0.141,259.79,2.585,13.098,351,telentang
0.3,4.71,-34.92,0.022,-0.012,0.148,287.07,23.524,13.098,351,telentang
0.3,5.0,-16.953,0.008,-0.009,0.153,324,-50.85,6.406,376.193,telentang
0.3,5.35,-19.608,0.01,-0.009,0.157,341.78,87.104,8.103,387,telentang
0.3,5.72,-19.608,0.011,-0.01,0.162,360.14,87.104,8.103,387,telentang
0.3,6,-2.065,0.011,-0.01,0.162,324,102.501,8.214,379,telentang
0.3,6,7.97,0.011,-0.01,0.162,324,33.783,8.214,379,telentang
0.3,6,10.513,0.011,-0.01,0.162,324,-44.27,8.214,379,telentang
0.3,6,2.96,0.011,-0.01,0.162,324,-69.407,8.214,379,telentang
0.3,6,-15.749,0.011,-0.01,0.162,324,-32.102,8.214,379,telentang
0.3,6,-17.987,0.011,-0.01,0.162,324,21.944,8.214,379,telentang
0.3,6,-9.468,0.011,-0.01,0.162,324,40.386,8.214,379,telentang
0.3,6,-3.905,0.011,-0.01,0.162,324,36.715,8.214,379,telentang
0.3,6,0.052,0.011,-0.01,0.162,324,-10.804,8.214,379,telentang
0.3,6,-1.016,0.011,-0.01,0.162,324,-26.949,8.214,379,telentang
0.3,6,-3.722,0.011,-0.01,0.162,324,-14.69,8.214,379,telentang
0.3,6,-5.579,0.011,-0.01,0.162,324,1.073,8.214,379,telentang
0.3,6,-5.008,0.011,-0.01,0.162,324,8.974,8.214,379,telentang
0.3,6,-3.592,0.011,-0.01,0.162,324,5.104,8.214,379,telentang
0.3,6,-2.7,0.011,-0.01,0.162,324,-2.125,8.214,379,telentang
0.3,6,-2.569,0.011,-0.01,0.162,324,-2.026,8.214,379,telentang
0.3,6,-2.626,0.011,-0.01,0.162,324,1.73,8.214,379,telentang
0.3,6,-2.495,0.011,-0.01,0.162,324,0.738,8.214,379,telentang
0.3,6,-2.232,0.011,-0.01,0.162,324,-0.575,8.214,379,telentang
0.3,6,-2.208,0.011,-0.01,0.162,324,-0.438,8.214,379,telentang
0.3,6,-2.122,0.011,-0.01,0.162,324,0.89,8.214,379,telentang
0.3,6,-1.879,0.011,-0.01,0.162,324,-0.759,8.214,379,telentang
0.3,6,-1.904,0.011,-0.01,0.162,324,-0.148,8.214,379,telentang
0.3,6,-1.824,0.011,-0.01,0.162,324,0.264,8.214,379,telentang
0.3,6,-1.681,0.011,-0.01,0.162,324,-0.591,8.214,379,telentang
0.3,6,-1.721,0.011,-0.01,0.162,324,-0.018,8.214,379,telentang
0.3,6,-1.658,0.011,-0.01,0.162,324,0.203,8.214,379,telentang
0.3,6,-1.59,0.011,-0.01,0.162,324,-0.461,8.214,379,telentang
0.3,6,-1.645,0.011,-0.01,0.162,324,0.104,8.214,379,telentang
0.3,6,-1.625,0.011,-0.01,0.162,324,-2.14,8.214,379,telentang
    
6.0,0.0,27.432573866838418,78.26086956521739,41.66666666666666,86.59793814432992,52.32974910394266,41.423,57.25,97.552
6.0,16.666666666666664,26.313501328395468,71.30434782608695,49.99999999999999,96.90721649484536,97.1326164874552,41.45,12.244,91.025
6.0,33.33333333333333,-5.540616697528371,0.0,100.0,-3.0927835051546424,91.75627240143369,42.738,93.284,0.485
6.0,50.0,38.03638998470333,62.60869565217392,74.99999999999999,17.525773195876294,2.1505376344086025,41.285,28.149,-1.09
6.0,53.833333333333336,36.129136140407375,62.60869565217392,74.99999999999999,17.525773195876294,-82.43727598566308,44.685,5.808636748518205,0.5525735294117595
6.0,67.0,38.334272602850014,85.21739130434783,41.66666666666666,47.422680412371136,2.867383512544803,51.425,20.48433530906012,-0.04558823529411589
6.0,66.66666666666666,74.28065373158361,93.91304347826087,16.666666666666664,50.515463917525786,-0.35842293906810035,33.685,38.923,34.176
6.0,70.5,69.52580307543676,93.91304347826087,16.666666666666664,50.515463917525786,-82.43727598566308,29.848,40.93480101608806,42.23639705882352
6.0,83.66666666666666,71.7567023589083,92.17391304347827,8.333333333333325,70.10309278350515,20.455197132616483,72.915,26.47925486875529,33.74852941176471
6.0,83.33333333333334,82.56903630947589,80.0,33.33333333333333,75.25773195876289,33.691756272401435,24.784,19.817,51.174
6.0,87.33333333333334,77.3641413734804,80.0,33.33333333333333,75.25773195876289,-82.43727598566308,38.469,23.735817104149028,55.194852941176464
6.0,100.0,79.4235568794783,82.6086956521739,24.999999999999993,84.53608247422682,46.64516129032258,69.954,24.182895850973754,52.32904411764705
    
0.3,0.0,-84.421,0.007,-0.009,0.163,375,-0.125,17.791,504.79,telentang
0.3,0.32,-84.035,0.007,-0.009,0.173,410.91,4.165,18.315,504,telentang
0.3,0.67,-83.822,0.009,-0.008,0.176,450.88,0.043,18.315,504,telentang
0.3,1.0,-86.465,-0.002,-0.007,0.174,503,-0.087,4.305,484.965,telentang
0.3,1.32,-87.013,-0.038,-0.009,0.17,493.56,-66.14,4.773,484,telentang
0.3,1.67,-104.4,-0.074,-0.004,0.138,484,-133.125,4.773,484,telentang
0.3,2.02,-114.499,-0.082,-0.002,0.081,484,-80.766,4.773,484,telentang
0.3,2.0,-121.671,-0.084,-0.002,0.079,486,-1.11,28.758,238.161,telentang
0.3,2.34,-121.434,-0.066,-0.002,0.085,424.61,3.539,29.304000000000002,238,telentang
0.3,2.68,-120.519,-0.047,-0.002,0.089,363.08,8.615,29.304000000000002,238,telentang
0.3,3.01,-108.824,-0.032,-0.001,0.089,301.51,125.753,29.304000000000002,238,telentang
0.3,3.0,-69.046,-0.011,-0.003,0.096,237,4.531,5.605,234.04,telentang
0.3,3.36,-73.399,-0.001,-0.004,0.113,238,-29.659,2.109,238,telentang
0.3,3.69,-71.455,0.012,-0.008,0.125,238,33.104,2.109,238,telentang
0.3,4.0,-31.947,0.026,-0.011,0.128,231,34.837,12.824,326.939,telentang
0.3,4.38,-39.145,0.023,-0.013,0.141,262.54,36.012,13.32,349,telentang
0.3,4.72,-38.286,0.02,-0.012,0.148,290.61,65.829,13.32,349,telentang
0.3,5.0,-26.297,0.002,-0.009,0.154,335,-69.003,5.358,383.359,telentang
0.3,5.33,-31.988,0.006,-0.008,0.158,349.47,14.295,6.993,391,telentang
0.3,5.67,-31.988,0.006,-0.009,0.161,363.94,14.295,6.993,391,telentang
0.3,6.09,6.604,0.001,-0.009,0.166,385,61.417,11.433,385,telentang
0.3,6,6.604,0.001,-0.009,0.166,335,61.417,11.433,385,telentang
0.3,6,11.747,0.001,-0.009,0.166,335,-37.033,11.433,385,telentang
0.3,6,3.04,0.001,-0.009,0.166,335,-92.514,11.433,385,telentang
0.3,6,-19.06,0.001,-0.009,0.166,335,-39.087,11.433,385,telentang
0.3,6,-21.422,0.001,-0.009,0.166,335,-14.301,11.433,385,telentang
0.3,6,-21.236,0.001,-0.009,0.166,335,26.806,11.433,385,telentang
0.3,6,-10.98,0.001,-0.009,0.166,335,78.501,11.433,385,telentang
0.3,6,-2.735,0.001,-0.009,0.166,335,57.188,11.433,385,telentang
0.3,6,2.635,0.001,-0.009,0.166,335,-12.27,11.433,385,telentang
0.3,6,0.205,0.001,-0.009,0.166,335,-47.163,11.433,385,telentang
0.3,6,-13.296,0.001,-0.009,0.166,335,-35.972,11.433,385,telentang
0.3,6,-15.44,0.001,-0.009,0.166,335,3.333,11.433,385,telentang
0.3,6,-9.965,0.001,-0.009,0.166,335,28.302,11.433,385,telentang
0.3,6,-5.775,0.001,-0.009,0.166,335,15.837,11.433,385,telentang
0.3,6,-3.441,0.001,-0.009,0.166,335,-3.255,11.433,385,telentang
0.3,6,-3.428,0.001,-0.009,0.166,335,-12.56,11.433,385,telentang
0.3,6,-4.945,0.001,-0.009,0.166,335,-9.698,11.433,385,telentang
0.3,6,-5.971,0.001,-0.009,0.166,335,4.234,11.433,385,telentang
0.3,6,-5.182,0.001,-0.009,0.166,335,5.707,11.433,385,telentang
0.3,6,-4.264,0.001,-0.009,0.166,335,-2.72,11.433,385,telentang
0.3,6,-4.616,0.001,-0.009,0.166,335,-2.774,11.433,385,telentang
0.3,6,-4.834,0.001,-0.009,0.166,335,2.226,11.433,385,telentang
0.3,6,-4.519,0.001,-0.009,0.166,335,-0.476,11.433,385,telentang
0.3,6,-4.551,0.001,-0.009,0.166,335,-1.423,11.433,385,telentang
0.3,6,-4.74,0.001,-0.009,0.166,335,1.432,11.433,385,telentang
0.3,6,-4.487,0.001,-0.009,0.166,335,-0.659,11.433,385,telentang
0.3,6,-4.603,0.001,-0.009,0.166,335,-0.522,11.433,385,telentang
0.3,6,-4.618,0.001,-0.009,0.166,335,0.852,11.433,385,telentang
0.3,6,-4.49,0.001,-0.009,0.166,335,-0.659,11.433,385,telentang
0.3,6,-4.579,0.001,-0.009,0.166,335,0.135,11.433,385,telentang
    
6.0,0.0,27.247403590693185,79.1304347826087,33.33333333333333,85.56701030927837,51.971326164874554,41.393,58.378,98.452
6.0,16.666666666666664,25.514048788342325,71.30434782608695,49.99999999999999,96.90721649484536,97.84946236559139,41.405,12.701,91.164
6.0,33.33333333333333,-2.7976813461073937,0.0,91.66666666666666,-1.0309278350515474,91.75627240143369,41.07,95.522,0.427
6.0,50.0,40.00563561710007,63.47826086956522,83.33333333333331,16.494845360824744,2.5089605734767026,42.917,17.104,-1.088
6.0,54.0,38.03800016101763,63.47826086956522,83.33333333333331,16.494845360824744,-82.43727598566308,33.877,3.718882303132938,0.5919117647058874
6.0,67.16666666666667,37.68215119555592,83.47826086956522,41.66666666666666,46.391752577319586,2.867383512544803,52.273,17.825571549534295,0.5797794117647052
6.0,66.66666666666666,70.289026648418,95.65217391304347,16.666666666666664,49.484536082474236,0.35842293906810035,52.84,41.555,33.066
6.0,70.5,66.09210208517833,95.65217391304347,16.666666666666664,49.484536082474236,-82.43727598566308,28.326,41.41236240474175,41.273161764705875
6.0,83.66666666666666,64.38612028017067,90.43478260869566,8.333333333333325,70.10309278350515,21.72401433691757,62.988,22.89246401354784,37.73382352941177
6.0,83.33333333333334,75.33451412929716,74.78260869565217,33.33333333333333,76.28865979381445,37.634408602150536,18.841,16.268,53.808
6.0,87.16666666666667,70.12881410514451,74.78260869565217,33.33333333333333,76.28865979381445,-82.43727598566308,40.653,19.9424216765453,56.701102941176465
6.0,99.5,76.8392238950165,78.26086956521739,33.33333333333333,83.50515463917527,48.007168458781365,78.372,35.319220999153266,54.44448529411765
    
0.3,0.0,-84.429,0.009,-0.01,0.165,374,-0.049,19.202,513.399,telentang
0.3,0.34,-84.347,0.007,-0.009,0.174,414.86,2.509,19.647000000000002,513,telentang
0.3,0.68,-84.047,0.005,-0.008,0.176,456.78,-1.644,19.647000000000002,513,telentang
0.3,1.0,-86.132,-0.009,-0.007,0.175,511,-0.049,2.918,479.991,telentang
0.3,1.34,-90.57,-0.049,-0.008,0.166,503.73,-71.324,3.441,479,telentang
0.3,1.67,-106.872,-0.081,-0.003,0.13,496.61,-112.621,3.441,479,telentang
0.3,2.02,-112.966,-0.084,-0.002,0.078,489.32,13.936,3.441,479,telentang
0.3,2.0,-120.606,-0.083,-0.002,0.08,483,-0.369,29.038,238.262,telentang
0.3,2.32,-120.476,-0.066,-0.002,0.087,425.25,2.493,29.526,238,telentang
0.3,2.68,-105.615,-0.046,-0.002,0.091,358.21,162.417,29.526,238,telentang
0.3,3.0,-73.069,-0.012,-0.003,0.098,232,6.921,12.387,235.886,telentang
0.3,3.33,-73.024,-0.002,-0.005,0.113,236.13,-28.392,1.998,237,telentang
0.3,3.67,-74.914,0.011,-0.008,0.124,237,-22.285,1.998,237,telentang
0.3,4.0600000000000005,-63.894,0.026,-0.011,0.13,237,106.15,1.887,237,telentang
0.3,4.0,-33.348,0.027,-0.011,0.128,231,19.188,12.044,336.312,telentang
0.3,4.33,-39.71,0.024,-0.013,0.14,258.79,-54.293,13.431000000000001,355,telentang
0.3,4.67,-37.352,0.02,-0.012,0.148,286.58,92.631,13.431000000000001,355,telentang
0.3,5.09,-17.835,0.038,-0.012,0.147,274.66,215.753,6.438,334,telentang
0.3,5.0,-37.312,0.007,-0.009,0.153,327,-60.995,6.216,380.475,telentang
0.3,5.35,-35.66,0.009,-0.009,0.158,342.41,20.402,7.104,389,telentang
0.3,5.68,-14.017,0.01,-0.009,0.161,357.11,134.455,7.104,389,telentang
0.3,6.05,5.172,0.018,-0.009,0.164,361,51.272,11.655,361,telentang
0.3,6,8.34,0.018,-0.009,0.164,327,44.806,11.655,361,telentang
0.3,6,13.581,0.018,-0.009,0.164,327,-5.858,11.655,361,telentang
0.3,6,13.33,0.018,-0.009,0.164,327,-34.682,11.655,361,telentang
0.3,6,8.427,0.018,-0.009,0.164,327,-27.262,11.655,361,telentang
0.3,6,4.69,0.018,-0.009,0.164,327,1.02,11.655,361,telentang
0.3,6,4.824,0.018,-0.009,0.164,327,16.562,11.655,361,telentang
0.3,6,6.968,0.018,-0.009,0.164,327,6.241,11.655,361,telentang
0.3,6,7.671,0.018,-0.009,0.164,327,-8.064,11.655,361,telentang
0.3,6,6.581,0.018,-0.009,0.164,327,-4.049,11.655,361,telentang
0.3,6,6.119,0.018,-0.009,0.164,327,4.478,11.655,361,telentang
0.3,6,6.784,0.018,-0.009,0.164,327,1.356,11.655,361,telentang
0.3,6,6.944,0.018,-0.009,0.164,327,-3.278,11.655,361,telentang
0.3,6,6.487,0.018,-0.009,0.164,327,0.692,11.655,361,telentang
0.3,6,6.675,0.018,-0.009,0.164,327,1.272,11.655,361,telentang
0.3,6,6.892,0.018,-0.009,0.164,327,-1.392,11.655,361,telentang
0.3,6,6.696,0.018,-0.009,0.164,327,0.264,11.655,361,telentang
0.3,6,6.786,0.018,-0.009,0.164,327,0.73,11.655,361,telentang
0.3,6,6.937,0.018,-0.009,0.164,327,-1.278,11.655,361,telentang
0.3,6,6.818,0.018,-0.009,0.164,327,0.356,11.655,361,telentang
0.3,6,6.897,0.018,-0.009,0.164,327,0.173,11.655,361,telentang
0.3,6,6.917,0.018,-0.009,0.164,327,-0.972,11.655,361,telentang
0.3,6,6.852,0.018,-0.009,0.164,327,0.585,11.655,361,telentang
0.3,6,6.959,0.018,-0.009,0.164,327,-0.056,11.655,361,telentang
0.3,6,6.949,0.018,-0.009,0.164,327,-0.652,11.655,361,telentang
0.3,6,6.893,0.018,-0.009,0.164,327,0.425,11.655,361,telentang
0.3,6,6.948,0.018,-0.009,0.164,327,-0.369,11.655,361,telentang
0.3,6,6.945,0.018,-0.009,0.164,327,-0.469,11.655,361,telentang
0.3,6,6.913,0.018,-0.009,0.164,327,0.28,11.655,361,telentang
0.3,6,6.986,0.018,-0.009,0.164,327,-0.491,11.655,361,telentang
0.3,6,6.946,0.018,-0.009,0.164,327,-0.125,11.655,361,telentang
    
6.0,0.0,27.245793414378873,80.8695652173913,24.999999999999993,87.62886597938146,51.61290322580645,41.418,63.157,101.617
6.0,16.666666666666664,25.818372111746235,65.21739130434784,49.99999999999999,97.9381443298969,100.71684587813621,41.418,8.003,89.335
6.0,33.33333333333333,-1.8983978745672567,0.8695652173913051,91.66666666666666,0.0,90.68100358422939,41.313,96.471,0.464
6.0,50.0,36.45278157958297,62.60869565217392,83.33333333333331,18.55670103092784,0.7168458781362007,43.7,40.075,-0.41
6.0,53.833333333333336,35.481040173899046,62.60869565217392,83.33333333333331,18.55670103092784,-82.43727598566308,37.344,3.1498729889923798,0.35441176470588187
6.0,65.83333333333333,34.89735125996297,82.6086956521739,41.66666666666666,45.36082474226804,2.5089605734767026,34.137,2.804403048264183,0.2783088235294136
6.0,66.66666666666666,87.23452218017871,96.52173913043478,16.666666666666664,49.484536082474236,0.35842293906810035,47.716,38.913,36.512
6.0,70.5,64.67273166411722,96.52173913043478,16.666666666666664,49.484536082474236,-82.43727598566308,18.993,41.795088907705335,43.61874999999999
6.0,83.0,65.13807261895178,90.43478260869566,8.333333333333325,70.10309278350515,20.279569892473113,71.763,18.089754445385267,35.85661764705881
6.0,83.33333333333334,65.75074470654538,79.1304347826087,33.33333333333333,75.25773195876289,34.76702508960574,21.463,19.174,52.748
6.0,87.16666666666667,65.27574269382498,79.1304347826087,33.33333333333333,75.25773195876289,-82.43727598566308,43.465,20.579170194750215,56.22683823529412
6.0,100.83333333333333,83.9248047661219,81.73913043478261,33.33333333333333,83.50515463917527,45.55913978494624,85.458,35.81033022861982,45.624264705882354
    
0.3,0.0,-84.503,0.009,-0.009,0.165,372,-0.095,19.946,512.46,telentang
0.3,0.32,-84.417,0.006,-0.009,0.173,412.31,0.226,20.424,512,telentang
0.3,0.67,-84.417,0.003,-0.008,0.176,456.91,0.226,20.424,512,telentang
0.3,1.0,-85.059,-0.007,-0.007,0.175,510,-0.331,3.117,482.014,telentang
0.3,1.34,-92.654,-0.048,-0.008,0.166,502.34,-142.972,3.6630000000000003,482,telentang
0.3,1.67,-100.631,-0.08,-0.003,0.133,494.76,-141.255,3.6630000000000003,482,telentang
0.3,2.0,-124.28,-0.083,-0.001,0.077,484,5.539,27.775,238.396,telentang
0.3,2.33,-121.528,-0.066,-0.002,0.084,425.28,26.852,28.305,238,telentang
0.3,2.67,-112.6,-0.049,-0.002,0.086,366.71,149.348,28.305,238,telentang
0.3,3.0,-71.552,-0.011,-0.003,0.096,234,0.814,6.249,233.648,telentang
0.3,3.33,-75.464,-0.002,-0.004,0.113,237,-9.446,1.998,237,telentang
0.3,3.71,-75.363,0.013,-0.008,0.126,237,0.989,1.998,237,telentang
0.3,4.1,-68.457,0.027,-0.011,0.129,233,76.157,2.22,233,telentang
0.3,4.0,-23.943,0.029,-0.011,0.127,227,-1.82,14.243,328.558,telentang
0.3,4.35,-7.394,0.028,-0.013,0.139,254.57,77.654,12.765,343,telentang
0.3,4.7,-7.394,0.025,-0.012,0.146,282.25,77.654,12.765,343,telentang
0.3,5.1,-28.827,0.026,-0.011,0.15,295.74,98.89,10.101,342,telentang
0.3,5.0,-25.697,-0.006,-0.008,0.152,344,10.486,5.522,372.608,telentang
0.3,5.34,-19.56,-0.003,-0.008,0.157,357.87,73.944,6.66,381,telentang
0.3,5.67,-4.636,-0.002,-0.008,0.162,371.65,72.28,6.66,381,telentang
0.3,6.11,2.855,0.003,-0.009,0.166,381,66.073,5.6610000000000005,381,telentang
0.3,6,7.041,0.003,-0.009,0.166,344,56.142,5.6610000000000005,381,telentang
0.3,6,8.33,0.003,-0.009,0.166,344,-27.507,5.6610000000000005,381,telentang
0.3,6,2.475,0.003,-0.009,0.166,344,-39.774,5.6610000000000005,381,telentang
0.3,6,-15.534,0.003,-0.009,0.166,344,-14.003,5.6610000000000005,381,telentang
0.3,6,-11.436,0.003,-0.009,0.166,344,11.593,5.6610000000000005,381,telentang
0.3,6,-8.541,0.003,-0.009,0.166,344,19.768,5.6610000000000005,381,telentang
0.3,6,-5.395,0.003,-0.009,0.166,344,10.081,5.6610000000000005,381,telentang
0.3,6,-3.436,0.003,-0.009,0.166,344,-4.53,5.6610000000000005,381,telentang
0.3,6,-3.406,0.003,-0.009,0.166,344,-6.285,5.6610000000000005,381,telentang
0.3,6,-3.797,0.003,-0.009,0.166,344,-3.705,5.6610000000000005,381,telentang
0.3,6,-3.924,0.003,-0.009,0.166,344,2.203,5.6610000000000005,381,telentang
0.3,6,-3.316,0.003,-0.009,0.166,344,0.967,5.6610000000000005,381,telentang
0.3,6,-2.95,0.003,-0.009,0.166,344,-1.27,5.6610000000000005,381,telentang
0.3,6,-2.988,0.003,-0.009,0.166,344,0.188,5.6610000000000005,381,telentang
0.3,6,-2.748,0.003,-0.009,0.166,344,0.806,5.6610000000000005,381,telentang
0.3,6,-2.572,0.003,-0.009,0.166,344,-1.24,5.6610000000000005,381,telentang
0.3,6,-2.632,0.003,-0.009,0.166,344,0.493,5.6610000000000005,381,telentang
0.3,6,-2.492,0.003,-0.009,0.166,344,-0.156,5.6610000000000005,381,telentang
0.3,6,-2.433,0.003,-0.009,0.166,344,-0.652,5.6610000000000005,381,telentang
0.3,6,-2.447,0.003,-0.009,0.166,344,0.333,5.6610000000000005,381,telentang
0.3,6,-2.302,0.003,-0.009,0.166,344,0.051,5.6610000000000005,381,telentang
0.3,6,-2.321,0.003,-0.009,0.166,344,-0.499,5.6610000000000005,381,telentang
0.3,6,-2.334,0.003,-0.009,0.166,344,0.371,5.6610000000000005,381,telentang
0.3,6,-2.272,0.003,-0.009,0.166,344,-0.514,5.6610000000000005,381,telentang
0.3,6,-2.275,0.003,-0.009,0.166,344,-0.095,5.6610000000000005,381,telentang
0.3,6,-2.312,0.003,-0.009,0.166,344,0.051,5.6610000000000005,381,telentang
0.3,6,-2.29,0.003,-0.009,0.166,344,-0.476,5.6610000000000005,381,telentang
0.3,6,-2.355,0.003,-0.009,0.166,344,-0.079,5.6610000000000005,381,telentang
0.3,6,-2.316,0.003,-0.009,0.166,344,0.127,5.6610000000000005,381,telentang
0.3,6,-2.291,0.003,-0.009,0.166,344,1.676,5.6610000000000005,381,telentang
    
6.0,0.0,27.184606714435233,80.8695652173913,33.33333333333333,87.62886597938146,50.89605734767025,41.403,65.677,101.272
6.0,16.666666666666664,26.782867724015784,66.95652173913042,49.99999999999999,97.9381443298969,100.35842293906809,41.325,8.677,90.079
6.0,33.33333333333333,-4.908622494163105,0.8695652173913051,100.0,-3.0927835051546424,91.0394265232975,43.247,92.193,0.513
6.0,50.0,37.78922792045729,63.47826086956522,83.33333333333331,16.494845360824744,1.4336917562724014,41.7,19.285,-1.232
6.0,53.833333333333336,36.49062072296916,63.47826086956522,83.33333333333331,16.494845360824744,-82.43727598566308,40.463,3.298899237933954,0.31433823529411387
6.0,66.66666666666666,34.53586667740118,84.34782608695653,41.66666666666666,47.422680412371136,2.5089605734767026,41.758,3.9187129551227775,-1.4352941176470575
6.0,66.66666666666666,76.58723130182756,98.26086956521739,16.666666666666664,48.453608247422686,-1.0752688172043012,40.838,46.361,33.661
6.0,70.5,73.86200788986393,98.26086956521739,16.666666666666664,48.453608247422686,-82.43727598566308,42.52,39.78662150719729,39.00294117647059
6.0,83.0,89.25690363094758,94.78260869565219,8.333333333333325,68.04123711340205,18.72759856630824,66.859,30.716342082980532,38.66948529411764
6.0,83.33333333333334,74.83857982449078,67.82608695652173,41.66666666666666,74.22680412371135,40.86021505376344,44.867,16.823,49.856
6.0,87.16666666666667,75.93672007084776,67.82608695652173,41.66666666666666,74.22680412371135,-82.43727598566308,54.497,19.034716342082984,53.169485294117635
6.0,99.83333333333334,91.47733676837613,71.30434782608695,41.66666666666666,84.53608247422682,50.77060931899641,65.1,15.444538526672314,53.05294117647058
    
0.3,0.0,-84.596,0.008,-0.009,0.165,376,-0.049,17.915,508.912,telentang
0.3,0.34,-84.398,0.007,-0.009,0.174,414.57,6.325,18.426000000000002,508,telentang
0.3,0.67,-83.92,0.009,-0.008,0.177,452.7,4.745,18.426000000000002,508,telentang
0.3,1.0,-85.588,-0.005,-0.007,0.174,505,-0.331,3.439,481.975,telentang
0.3,1.34,-86.997,-0.043,-0.008,0.167,496.9,-26.934,3.8850000000000002,481,telentang
0.3,1.6800000000000002,-104.612,-0.077,-0.003,0.134,488.63,-94.033,3.8850000000000002,481,telentang
0.3,2.02,-110.433,-0.082,-0.002,0.081,481,-92.072,3.8850000000000002,481,telentang
0.3,2.0,-120.125,-0.081,-0.002,0.08,482,-1.362,28.45,238.28,telentang
0.3,2.32,-119.554,-0.066,-0.002,0.086,424.8,37.921,28.971,238,telentang
0.3,2.67,-103.229,-0.047,-0.002,0.089,361.76,213.921,28.971,238,telentang
0.3,3.02,-97.842,-0.031,-0.001,0.089,299.43,120.913,28.971,238,telentang
0.3,3.0,-73.39,-0.013,-0.003,0.096,237,11.89,11.262,235.493,telentang
0.3,3.33,-73.436,-0.002,-0.003,0.113,237,-31.644,2.109,237,telentang
0.3,3.67,-75.055,0.011,-0.008,0.124,237,-19.591,2.109,237,telentang
0.3,4.0600000000000005,-68.6,0.026,-0.011,0.13,236,59.188,1.998,236,telentang
0.3,4.0,-27.092,0.028,-0.011,0.128,230,-17.041,13.111,328.074,telentang
0.3,4.33,-36.662,0.024,-0.013,0.14,258.48,3.944,13.764,360,telentang
0.3,4.7,-25.6,0.02,-0.012,0.148,289.52,159.257,13.764,360,telentang
0.3,5.03,-24.949,0.021,-0.01,0.152,304.03,202.921,11.544,344,telentang
0.3,5.0,-33.582,-0.007,-0.008,0.153,347,-13.446,5.169,370.003,telentang
0.3,5.33,-37.08,-0.006,-0.008,0.158,361.7,9.753,7.104,382,telentang
0.3,5.67,-28.905,-0.005,-0.008,0.162,376.4,95.028,7.104,382,telentang
0.3,6.02,-6.936,-0.0,-0.009,0.165,387,23.463,13.653,387,telentang
0.3,6,-24.098,-0.0,-0.009,0.165,347,20.501,13.653,387,telentang
0.3,6,-4.777,-0.0,-0.009,0.165,347,72.661,13.653,387,telentang
0.3,6,3.377,-0.0,-0.009,0.165,347,22.875,13.653,387,telentang
0.3,6,3.832,-0.0,-0.009,0.165,347,-39.858,13.653,387,telentang
0.3,6,-3.069,-0.0,-0.009,0.165,347,-55.026,13.653,387,telentang
0.3,6,-14.892,-0.0,-0.009,0.165,347,-22.766,13.653,387,telentang
0.3,6,-16.729,-0.0,-0.009,0.165,347,26.898,13.653,387,telentang
0.3,6,-8.741,-0.0,-0.009,0.165,347,29.982,13.653,387,telentang
0.3,6,-5.764,-0.0,-0.009,0.165,347,8.554,13.653,387,telentang
0.3,6,-5.185,-0.0,-0.009,0.165,347,-10.415,13.653,387,telentang
0.3,6,-6.802,-0.0,-0.009,0.165,347,-17.087,13.653,387,telentang
0.3,6,-8.842,-0.0,-0.009,0.165,347,-0.789,13.653,387,telentang
0.3,6,-8.688,-0.0,-0.009,0.165,347,7.325,13.653,387,telentang
0.3,6,-7.493,-0.0,-0.009,0.165,347,-0.346,13.653,387,telentang
0.3,6,-7.508,-0.0,-0.009,0.165,347,-3.636,13.653,387,telentang
0.3,6,-7.808,-0.0,-0.009,0.165,347,1.799,13.653,387,telentang
0.3,6,-7.288,-0.0,-0.009,0.165,347,0.486,13.653,387,telentang
0.3,6,-6.989,-0.0,-0.009,0.165,347,-1.629,13.653,387,telentang
0.3,6,-7.003,-0.0,-0.009,0.165,347,1.104,13.653,387,telentang
0.3,6,-6.61,-0.0,-0.009,0.165,347,-0.133,13.653,387,telentang
0.3,6,-6.522,-0.0,-0.009,0.165,347,-0.972,13.653,387,telentang
0.3,6,-6.413,-0.0,-0.009,0.165,347,0.86,13.653,387,telentang
0.3,6,-6.122,-0.0,-0.009,0.165,347,-0.751,13.653,387,telentang
0.3,6,-6.1,-0.0,-0.009,0.165,347,-0.049,13.653,387,telentang
0.3,6,-5.948,-0.0,-0.009,0.165,347,0.31,13.653,387,telentang
0.3,6,-5.815,-0.0,-0.009,0.165,347,-0.591,13.653,387,telentang
0.3,6,-5.827,-0.0,-0.009,0.165,347,0.31,13.653,387,telentang
0.3,6,-5.686,-0.0,-0.009,0.165,347,-0.079,13.653,387,telentang
0.3,6,-5.577,-0.0,-0.009,0.165,347,-0.385,13.653,387,telentang
0.3,6,-5.566,-0.0,-0.009,0.165,347,0.44,13.653,387,telentang
    
6.0,0.0,27.111343692134298,80.0,33.33333333333333,87.62886597938146,52.32974910394266,41.418,58.798,99.968
6.0,16.666666666666664,26.365832058610422,68.69565217391305,49.99999999999999,96.90721649484536,98.56630824372759,41.325,9.768,90.064
6.0,33.33333333333333,-1.4153449802753366,2.6086956521739153,91.66666666666666,0.0,90.32258064516128,40.988,94.479,0.471
6.0,50.0,36.31430641655262,61.73913043478261,83.33333333333331,16.494845360824744,2.5089605734767026,45.327,36.264,-0.554
6.0,53.833333333333336,35.15095402946623,61.73913043478261,83.33333333333331,16.494845360824744,-82.43727598566308,41.868,3.7121083827265036,0.31691176470588045
6.0,65.83333333333333,34.78383382980436,82.6086956521739,41.66666666666666,45.36082474226804,2.5089605734767026,35.019,3.1803556308213374,-0.06066176470587943
6.0,66.66666666666666,73.87569438853555,97.39130434782608,16.666666666666664,49.484536082474236,0.0,35.854,42.527,33.483
6.0,70.5,69.55076080830851,97.39130434782608,16.666666666666664,49.484536082474236,-82.43727598566308,19.098,43.01439458086368,45.26066176470587
6.0,83.83333333333334,74.52218017872957,90.43478260869566,8.333333333333325,70.10309278350515,21.333333333333325,93.356,35.5766299745978,39.523161764705875
6.0,83.33333333333334,68.41397633040818,66.95652173913042,41.66666666666666,75.25773195876289,41.935483870967744,37.031,15.627,48.898
6.0,87.16666666666667,65.81354158280332,66.95652173913042,41.66666666666666,75.25773195876289,-82.43727598566308,42.69,20.4606265876376,53.58235294117648
6.0,100.33333333333331,71.93865228242493,68.69565217391305,41.66666666666666,84.53608247422682,52.47311827956989,72.548,42.61812023708721,55.16654411764706
    
0.3,0.0,-84.634,0.007,-0.009,0.163,376,0.005,17.547,504.688,telentang
0.3,0.34,-84.736,0.008,-0.009,0.174,413.7,1.867,18.093,504,telentang
0.3,0.67,-84.322,0.01,-0.008,0.176,451.13,0.615,18.093,504,telentang
0.3,1.05,-84.811,0.006,-0.008,0.175,493.38,-12.636,18.093,504,telentang
0.3,1.0,-86.372,-0.002,-0.007,0.174,503,-0.011,4.282,484.93,telentang
0.3,1.33,-86.343,-0.039,-0.008,0.169,493.12,-36.873,4.773,484,telentang
0.3,1.67,-92.006,-0.075,-0.004,0.137,484,-60.896,4.773,484,telentang
0.3,2.0,-128.801,-0.084,-0.001,0.076,486,1.157,28.582,239,telentang
0.3,2.32,-125.307,-0.067,-0.002,0.085,428.95,22.509,29.082,239,telentang
0.3,2.67,-121.086,-0.049,-0.002,0.087,365.46,136.211,29.082,239,telentang
0.3,3.0,-74.919,-0.012,-0.003,0.096,234,13.035,11.241,236.411,telentang
0.3,3.34,-73.97,-0.001,-0.005,0.113,237,-22.224,1.887,237,telentang
0.3,3.67,-73.401,0.011,-0.008,0.124,237,0.982,1.887,237,telentang
0.3,4.1,-70.829,0.016,-0.01,0.132,255,62.249,3.6630000000000003,255,telentang
0.3,4.0,-64.693,0.02,-0.01,0.13,246,-96.507,11.55,364.685,telentang
0.3,4.33,-67.704,0.012,-0.011,0.142,282.98,57.402,17.871,324,telentang
0.3,4.68,-61.544,0.003,-0.01,0.15,320.95,148.631,17.871,324,telentang
0.3,5.08,-40.621,0.03,-0.011,0.149,289.84,136.257,6.549,321,telentang
0.3,5.0,4.128,0.009,-0.009,0.152,320,-23.888,7.267,380.174,telentang
0.3,5.35,-17.541,0.002,-0.008,0.158,351.53,-18.4,14.319,382,telentang
0.3,5.6899999999999995,-18.869,-0.006,-0.008,0.161,381.36,-10.659,14.319,382,telentang
0.3,6.08,-1.133,0.025,-0.01,0.163,347.57,20.173,4.107,376,telentang
0.3,6,-1.647,0.025,-0.01,0.163,320,3.615,4.107,376,telentang
0.3,6,-6.827,0.025,-0.01,0.163,320,32.73,4.107,376,telentang
0.3,6,-0.17,0.025,-0.01,0.163,320,19.905,4.107,376,telentang
0.3,6,3.328,0.025,-0.01,0.163,320,-12.789,4.107,376,telentang
0.3,6,1.748,0.025,-0.01,0.163,320,-21.949,4.107,376,telentang
0.3,6,-0.845,0.025,-0.01,0.163,320,-14.629,4.107,376,telentang
0.3,6,-2.17,0.025,-0.01,0.163,320,4.844,4.107,376,telentang
0.3,6,-1.413,0.025,-0.01,0.163,320,8.31,4.107,376,telentang
0.3,6,-0.172,0.025,-0.01,0.163,320,3.089,4.107,376,telentang
0.3,6,0.277,0.025,-0.01,0.163,320,-3.049,4.107,376,telentang
0.3,6,-0.106,0.025,-0.01,0.163,320,-1.843,4.107,376,telentang
0.3,6,-0.299,0.025,-0.01,0.163,320,1.654,4.107,376,telentang
0.3,6,-0.131,0.025,-0.01,0.163,320,0.18,4.107,376,telentang
0.3,6,-0.164,0.025,-0.01,0.163,320,-1.026,4.107,376,telentang
0.3,6,-0.302,0.025,-0.01,0.163,320,0.928,4.107,376,telentang
0.3,6,-0.228,0.025,-0.01,0.163,320,0.112,4.107,376,telentang
0.3,6,-0.267,0.025,-0.01,0.163,320,-0.759,4.107,376,telentang
0.3,6,-0.389,0.025,-0.01,0.163,320,0.852,4.107,376,telentang
0.3,6,-0.339,0.025,-0.01,0.163,320,-0.186,4.107,376,telentang
0.3,6,-0.383,0.025,-0.01,0.163,320,-0.453,4.107,376,telentang
0.3,6,-0.446,0.025,-0.01,0.163,320,0.493,4.107,376,telentang
0.3,6,-0.364,0.025,-0.01,0.163,320,-0.324,4.107,376,telentang
0.3,6,-0.453,0.025,-0.01,0.163,320,-0.102,4.107,376,telentang
0.3,6,-0.484,0.025,-0.01,0.163,320,0.31,4.107,376,telentang
0.3,6,-0.423,0.025,-0.01,0.163,320,-0.514,4.107,376,telentang
0.3,6,-0.509,0.025,-0.01,0.163,320,-0.117,4.107,376,telentang
0.3,6,-0.516,0.025,-0.01,0.163,320,0.188,4.107,376,telentang
0.3,6,-0.491,0.025,-0.01,0.163,320,-0.339,4.107,376,telentang
0.3,6,-0.564,0.025,-0.01,0.163,320,0.119,4.107,376,telentang
0.3,6,-0.481,0.025,-0.01,0.163,320,0.18,4.107,376,telentang
    
6.0,0.0,27.079140165848166,79.1304347826087,33.33333333333333,85.56701030927837,52.32974910394266,41.435,57.551,98.415
6.0,16.666666666666664,25.669430802672892,71.30434782608695,49.99999999999999,96.90721649484536,97.84946236559139,41.43,12.623,91.151
6.0,33.33333333333333,-8.930842927300542,0.0,100.0,-4.12371134020619,91.75627240143369,41.813,94.926,0.735
6.0,50.0,34.84904597053377,62.60869565217392,83.33333333333331,16.494845360824744,1.4336917562724014,45.702,36.193,-0.217
6.0,53.833333333333336,34.902181788905885,62.60869565217392,83.33333333333331,16.494845360824744,-82.43727598566308,38.529,2.9940728196443693,0.27941176470587903
6.0,66.0,40.223814507688594,82.6086956521739,41.66666666666666,45.36082474226804,2.5089605734767026,59.944,8.870448772226926,6.854779411764709
6.0,66.66666666666666,43.62853232428951,90.43478260869566,24.999999999999993,51.54639175257733,5.734767025089606,9.835,37.24,46.943
6.0,70.5,37.491345302310606,90.43478260869566,24.999999999999993,51.54639175257733,-82.43727598566308,33.725,57.09737510584251,32.15441176470588
6.0,82.83333333333333,45.661379921101364,75.65217391304348,24.999999999999993,72.16494845360825,32.598566308243726,90.099,18.502963590177817,31.20919117647059
6.0,83.33333333333334,98.60639239996779,80.8695652173913,33.33333333333333,74.22680412371135,32.25806451612903,33.612,22.733,52.637
6.0,87.33333333333334,80.3767812575477,80.8695652173913,33.33333333333333,74.22680412371135,-82.43727598566308,27.159,44.917866215071975,53.317279411764716
6.0,99.83333333333334,83.34192094034296,67.82608695652173,41.66666666666666,83.50515463917527,54.250896057347674,58.284,10.404741744284504,51.202205882352935
    
0.25,0.0,-84.468,0.008,-0.009,0.165,374,-0.011,18.843,509.346,telentang
0.25,0.4,-84.025,0.011,-0.009,0.173,414.06,-1.117,19.314,509,telentang
0.25,0.8,-84.031,0.016,-0.009,0.176,454.19,-1.087,19.314,509,telentang
0.25,1.0,-85.807,-0.005,-0.006,0.174,508,-0.217,3.826,477.106,telentang
0.25,1.4,-99.232,-0.051,-0.008,0.165,499.0,-142.865,4.329,477,telentang
0.25,1.8599999999999999,-108.804,-0.088,-0.001,0.101,488.7,-100.934,4.329,477,telentang
0.25,2.29,-114.017,-0.082,-0.002,0.082,479.01,-66.942,4.329,477,telentang
0.25,2.0,-123.616,-0.081,-0.002,0.082,479,0.142,27.938,238.005,telentang
0.25,2.38,-123.032,-0.065,-0.002,0.084,422.98,19.081,28.416,238,telentang
0.25,2.81,-99.721,-0.046,-0.001,0.083,359.57,239.463,28.416,238,telentang
0.25,3.0,-73.538,-0.011,-0.004,0.097,233,-13.14,13.266,235.515,telentang
0.25,3.4,-72.768,-0.0,-0.005,0.115,238,-12.606,2.442,238,telentang
0.25,3.86,-69.431,0.003,-0.008,0.131,272,40.722,16.761,272,telentang
0.25,4.0,-63.841,0.007,-0.009,0.131,269,-53.499,7.484,323.478,telentang
0.25,4.4,-54.459,0.001,-0.011,0.144,306.27,126.867,18.093,324,telentang
0.25,4.83,-43.931,0.021,-0.012,0.15,295.53,141.661,6.216,327,telentang
0.25,5.0,-20.663,0.0,-0.009,0.153,334,112.516,10.274,349.925,telentang
0.25,5.4,4.353,0.003,-0.008,0.159,351.0,45.486,8.214,407,telentang
0.25,5.82,7.558,0.01,-0.01,0.163,364.23,37.173,7.104,383,telentang
0.25,6,11.421,0.01,-0.01,0.163,334,42.012,7.104,383,telentang
0.25,6,10.998,0.01,-0.01,0.163,334,-54.262,7.104,383,telentang
0.25,6,2.159,0.01,-0.01,0.163,334,-58.308,7.104,383,telentang
0.25,6,-17.921,0.01,-0.01,0.163,334,-21.904,7.104,383,telentang
0.25,6,-17.677,0.01,-0.01,0.163,334,30.203,7.104,383,telentang
0.25,6,-7.9,0.01,-0.01,0.163,334,35.463,7.104,383,telentang
0.25,6,-2.604,0.01,-0.01,0.163,334,21.043,7.104,383,telentang
0.25,6,-0.232,0.01,-0.01,0.163,334,-12.621,7.104,383,telentang
0.25,6,-1.544,0.01,-0.01,0.163,334,-20.064,7.104,383,telentang
0.25,6,-3.77,0.01,-0.01,0.163,334,-16.362,7.104,383,telentang
0.25,6,-5.38,0.01,-0.01,0.163,334,4.516,7.104,383,telentang
0.25,6,-4.621,0.01,-0.01,0.163,334,11.119,7.104,383,telentang
0.25,6,-3.097,0.01,-0.01,0.163,334,1.768,7.104,383,telentang
0.25,6,-2.813,0.01,-0.01,0.163,334,-4.667,7.104,383,telentang
0.25,6,-3.381,0.01,-0.01,0.163,334,-1.232,7.104,383,telentang
0.25,6,-3.528,0.01,-0.01,0.163,334,2.386,7.104,383,telentang
0.25,6,-3.28,0.01,-0.01,0.163,334,-0.484,7.104,383,telentang
0.25,6,-3.361,0.01,-0.01,0.163,334,-1.514,7.104,383,telentang
0.25,6,-3.509,0.01,-0.01,0.163,334,1.463,7.104,383,telentang
0.25,6,-3.311,0.01,-0.01,0.163,334,-0.606,7.104,383,telentang
0.25,6,-3.406,0.01,-0.01,0.163,334,-0.553,7.104,383,telentang
0.25,6,-3.502,0.01,-0.01,0.163,334,0.783,7.104,383,telentang
0.25,6,-3.364,0.01,-0.01,0.163,334,-0.43,7.104,383,telentang
0.25,6,-3.458,0.01,-0.01,0.163,334,-0.43,7.104,383,telentang
0.25,6,-3.513,0.01,-0.01,0.163,334,0.608,7.104,383,telentang
0.25,6,-3.441,0.01,-0.01,0.163,334,-0.545,7.104,383,telentang
0.25,6,-3.517,0.01,-0.01,0.163,334,0.127,7.104,383,telentang
0.25,6,-3.507,0.01,-0.01,0.163,334,0.295,7.104,383,telentang
0.25,6,-3.452,0.01,-0.01,0.163,334,-0.354,7.104,383,telentang
0.25,6,-3.571,0.01,-0.01,0.163,334,0.073,7.104,383,telentang
    
5.0,0.0,27.19990338942115,80.0,33.33333333333333,87.62886597938146,51.61290322580645,41.43,61.941,100.127
5.0,16.666666666666664,26.141212462764667,68.69565217391305,58.33333333333333,96.90721649484536,99.6415770609319,41.363,11.079,88.274
5.0,33.33333333333333,-4.349891313098777,2.6086956521739153,91.66666666666666,2.061855670103095,89.24731182795699,41.48,92.745,0.369
5.0,50.0,36.17583125352227,63.47826086956522,74.99999999999999,17.525773195876294,1.0752688172043012,37.131,43.052,-0.546
5.0,53.333333333333336,37.10490298687707,63.47826086956522,74.99999999999999,17.525773195876294,-82.43727598566308,36.357,4.775613886536833,0.6775735294117607
5.0,64.33333333333333,36.62507044521375,73.04347826086956,66.66666666666666,36.08247422680413,2.867383512544803,37.306,53.01608806096528,13.224632352941178
5.0,66.66666666666666,45.149343853151926,79.1304347826087,33.33333333333333,52.57731958762888,13.978494623655912,23.917,23.468,31.793
5.0,70.0,42.66806215280574,79.1304347826087,33.33333333333333,52.57731958762888,-82.43727598566308,45.577,57.83911939034717,32.04595588235295
5.0,80.5,55.23790355043877,73.91304347826087,16.666666666666664,65.97938144329896,27.336917562724004,87.262,17.344623200677393,33.15073529411765
5.0,83.33333333333334,77.86571129538686,73.04347826086956,33.33333333333333,75.25773195876289,37.27598566308244,78.274,32.918,41.517
5.0,86.66666666666667,93.67361726109009,73.04347826086956,33.33333333333333,75.25773195876289,-82.43727598566308,70.936,24.203217612193058,62.79999999999999
5.0,97.00000000000001,100.54745994686418,75.65217391304348,41.66666666666666,81.44329896907217,43.36917562724014,56.654,20.31498729889924,54.031249999999986
    
0.25,0.0,-84.276,0.007,-0.009,0.164,376,1.661,17.372,505.369,telentang
0.25,0.4,-84.527,0.014,-0.009,0.174,413.1,-5.621,17.871,505,telentang
0.25,0.8,-84.932,0.022,-0.009,0.175,450.08,-6.285,17.871,505,telentang
0.25,1.0,-86.909,-0.002,-0.008,0.174,504,-0.14,5.797,485.438,telentang
0.25,1.4,-87.104,-0.047,-0.009,0.166,490.79,-36.652,6.327,485,telentang
0.25,1.8199999999999998,-102.223,-0.083,-0.002,0.112,485,-145.064,6.327,485,telentang
0.25,2.0,-121.172,-0.083,-0.002,0.076,487,1.15,25.258,238.012,telentang
0.25,2.4,-115.895,-0.067,-0.003,0.079,433.65,106.822,25.752,238,telentang
0.25,2.81,-104.31,-0.051,-0.002,0.079,378.5,83.898,25.752,238,telentang
0.25,3.2199999999999998,-104.31,-0.037,-0.001,0.086,324.47,83.898,25.752,238,telentang
0.25,3.0,-73.686,-0.011,-0.003,0.096,236,9.486,9.95,235.64,telentang
0.25,3.4,-73.659,-0.0,-0.005,0.115,237,-7.591,2.109,237,telentang
0.25,3.91,-71.413,0.007,-0.008,0.132,270,27.989,16.539,270,telentang
0.25,4.0,-61.426,0.007,-0.009,0.131,267,-50.881,8.095,323.3,telentang
0.25,4.4,-63.832,0.004,-0.011,0.145,299.38,68.562,15.651,334,telentang
0.25,4.88,-36.639,0.028,-0.011,0.149,286,138.562,4.662,286,telentang
0.25,5.3,21.446,0.026,-0.011,0.15,294.69,106.623,4.107,330,telentang
0.25,5.0,0.045,0.005,-0.009,0.153,325,-58.049,6.757,382.532,telentang
0.25,5.4,-22.14,-0.001,-0.008,0.158,358.53,-6.667,16.206,383,telentang
0.25,5.88,-22.382,0.017,-0.009,0.163,353.81,86.554,6.327,379,telentang
0.25,6.29,-3.63,0.008,-0.009,0.166,372.22,68.715,7.104,394,telentang
0.25,6,-0.739,0.008,-0.009,0.166,325,47.104,7.104,394,telentang
0.25,6,6.597,0.008,-0.009,0.166,325,-46.514,7.104,394,telentang
0.25,6,-0.491,0.008,-0.009,0.166,325,-79.385,7.104,394,telentang
0.25,6,-17.597,0.008,-0.009,0.166,325,-51.568,7.104,394,telentang
0.25,6,-14.639,0.008,-0.009,0.166,325,-30.476,7.104,394,telentang
0.25,6,-18.146,0.008,-0.009,0.166,325,-8.446,7.104,394,telentang
0.25,6,-19.658,0.008,-0.009,0.166,325,2.012,7.104,394,telentang
0.25,6,-19.921,0.008,-0.009,0.166,325,8.196,7.104,394,telentang
0.25,6,-19.133,0.008,-0.009,0.166,325,14.623,7.104,394,telentang
0.25,6,-17.8,0.008,-0.009,0.166,325,30.47,7.104,394,telentang
0.25,6,-9.899,0.008,-0.009,0.166,325,72.959,7.104,394,telentang
0.25,6,-3.008,0.008,-0.009,0.166,325,31.806,7.104,394,telentang
0.25,6,-0.475,0.008,-0.009,0.166,325,-25.4,7.104,394,telentang
0.25,6,-4.046,0.008,-0.009,0.166,325,-50.324,7.104,394,telentang
0.25,6,-15.794,0.008,-0.009,0.166,325,-23.972,7.104,394,telentang
0.25,6,-17.053,0.008,-0.009,0.166,325,16.669,7.104,394,telentang
0.25,6,-10.438,0.008,-0.009,0.166,325,26.608,7.104,394,telentang
0.25,6,-7.058,0.008,-0.009,0.166,325,3.211,7.104,394,telentang
0.25,6,-6.779,0.008,-0.009,0.166,325,-13.156,7.104,394,telentang
0.25,6,-8.546,0.008,-0.009,0.166,325,-10.72,7.104,394,telentang
0.25,6,-11.896,0.008,-0.009,0.166,325,6.615,7.104,394,telentang
0.25,6,-10.251,0.008,-0.009,0.166,325,5.425,7.104,394,telentang
0.25,6,-8.919,0.008,-0.009,0.166,325,-4.011,7.104,394,telentang
0.25,6,-8.884,0.008,-0.009,0.166,325,-2.873,7.104,394,telentang
0.25,6,-8.967,0.008,-0.009,0.166,325,1.409,7.104,394,telentang
0.25,6,-8.492,0.008,-0.009,0.166,325,1.57,7.104,394,telentang
0.25,6,-8.007,0.008,-0.009,0.166,325,-2.018,7.104,394,telentang
0.25,6,-8.142,0.008,-0.009,0.166,325,-1.369,7.104,394,telentang
0.25,6,-8.165,0.008,-0.009,0.166,325,0.73,7.104,394,telentang
0.25,6,-7.95,0.008,-0.009,0.166,325,0.669,7.104,394,telentang
    
5.0,0.0,27.366556637951856,79.1304347826087,33.33333333333333,86.59793814432992,52.32974910394266,41.978,56.959,98.665
5.0,16.666666666666664,25.175911762337975,71.30434782608695,41.66666666666666,96.90721649484536,98.2078853046595,41.388,17.754,91.337
5.0,33.33333333333333,-2.4885274937605617,0.8695652173913051,91.66666666666666,-4.12371134020619,92.1146953405018,41.81,83.668,0.372
5.0,50.0,35.85379599066098,63.47826086956522,83.33333333333331,16.494845360824744,2.1505376344086025,44.54,31.82,-0.5
5.0,53.333333333333336,35.93994042347637,63.47826086956522,83.33333333333331,16.494845360824744,-82.43727598566308,36.859,3.637595258255715,0.3591911764705896
5.0,63.0,35.90773689719024,73.04347826086956,66.66666666666666,36.08247422680413,2.5089605734767026,38.948,52.51481795088908,12.312132352941168
5.0,66.66666666666666,46.81990177924483,79.1304347826087,33.33333333333333,52.57731958762888,13.261648745519713,24.774,25.538,31.728
5.0,70.0,42.81217293293616,79.1304347826087,33.33333333333333,52.57731958762888,-82.43727598566308,37.556,49.371718882303135,35.973897058823525
5.0,79.16666666666666,43.81933821753482,76.52173913043478,16.666666666666664,67.0103092783505,24.8673835125448,63.883,12.2303132938188,18.163235294117648
5.0,88.33333333333333,65.71210047500202,97.39130434782608,16.666666666666664,71.1340206185567,20.07168458781362,86.802,10.282811176968671,34.291544117647064
5.0,83.33333333333334,96.90524112390307,77.3913043478261,33.33333333333333,75.25773195876289,34.05017921146953,22.427,21.006,53.504
5.0,86.66666666666667,80.26245873923195,77.3913043478261,33.33333333333333,75.25773195876289,-82.43727598566308,23.692,51.47840812870449,54.028676470588245
5.0,96.16666666666666,78.3310522502214,72.17391304347827,41.66666666666666,80.41237113402063,46.06810035842293,53.398,18.008467400508046,52.31544117647059
5.0,104.83333333333333,77.1902423315353,87.82608695652175,33.33333333333333,85.56701030927837,44.376344086021504,69.774,20.579170194750215,58.028676470588245
    
0.25,0.0,-83.989,0.006,-0.008,0.164,376,-0.201,18.244,500.673,telentang
0.25,0.4,-83.984,0.011,-0.009,0.174,414.81,6.196,18.759,500,telentang
0.25,0.8,-84.18,0.018,-0.009,0.176,453.93,-1.346,18.759,500,telentang
0.25,1.22,-85.649,0.004,-0.007,0.175,493.94,-10.56,18.759,500,telentang
0.25,1.0,-86.103,-0.001,-0.007,0.174,500,-0.324,5.206,484.958,telentang
0.25,1.4,-103.183,-0.046,-0.008,0.167,488.25,-156.102,5.6610000000000005,484,telentang
0.25,1.8599999999999999,-103.183,-0.084,-0.001,0.105,484,-156.102,5.6610000000000005,484,telentang
0.25,2.0,-122.693,-0.083,-0.002,0.077,486,2.012,27.137,238.422,telentang
0.25,2.38,-121.603,-0.068,-0.003,0.081,431.41,28.898,27.639,238,telentang
0.25,2.82,-117.681,-0.049,-0.002,0.08,369.45,41.333,27.639,238,telentang
0.25,3.0,-72.135,-0.012,-0.004,0.097,237,-4.965,11.459,232.833,telentang
0.25,3.4,-72.211,-0.0,-0.005,0.116,238,-10.285,2.664,238,telentang
0.25,3.95,-71.163,0.023,-0.01,0.13,239,58.585,9.657,239,telentang
0.25,4.0,-42.166,0.027,-0.011,0.128,231,-20.72,14.139,320.468,telentang
0.25,4.4,-46.155,0.028,-0.013,0.14,259.48,-57.927,13.764,353,telentang
0.25,4.88,-46.25,0.027,-0.011,0.149,288.88,58.501,12.765,329,telentang
0.25,5.0,-5.556,0.004,-0.01,0.154,333,13.295,6.595,378.553,telentang
0.25,5.4,-6.952,0.003,-0.008,0.159,356.89,-15.446,11.544,385,telentang
0.25,5.89,-14.974,0.015,-0.009,0.163,364.77,43.287,6.882,383,telentang
0.25,6,-11.491,0.015,-0.009,0.163,333,49.959,6.882,383,telentang
0.25,6,-0.753,0.015,-0.009,0.163,333,21.257,6.882,383,telentang
0.25,6,1.411,0.015,-0.009,0.163,333,-5.698,6.882,383,telentang
0.25,6,-0.176,0.015,-0.009,0.163,333,-19.782,6.882,383,telentang
0.25,6,-3.393,0.015,-0.009,0.163,333,-19.247,6.882,383,telentang
0.25,6,-6.486,0.015,-0.009,0.163,333,-0.453,6.882,383,telentang
0.25,6,-6.651,0.015,-0.009,0.163,333,11.967,6.882,383,telentang
0.25,6,-5.229,0.015,-0.009,0.163,333,4.257,6.882,383,telentang
0.25,6,-4.754,0.015,-0.009,0.163,333,-5.072,6.882,383,telentang
0.25,6,-5.413,0.015,-0.009,0.163,333,-1.865,6.882,383,telentang
0.25,6,-5.548,0.015,-0.009,0.163,333,2.035,6.882,383,telentang
0.25,6,-5.132,0.015,-0.009,0.163,333,-0.392,6.882,383,telentang
0.25,6,-5.089,0.015,-0.009,0.163,333,-1.553,6.882,383,telentang
0.25,6,-5.086,0.015,-0.009,0.163,333,1.455,6.882,383,telentang
0.25,6,-4.757,0.015,-0.009,0.163,333,-0.888,6.882,383,telentang
0.25,6,-4.796,0.015,-0.009,0.163,333,-0.362,6.882,383,telentang
0.25,6,-4.659,0.015,-0.009,0.163,333,0.402,6.882,383,telentang
0.25,6,-4.472,0.015,-0.009,0.163,333,-0.629,6.882,383,telentang
0.25,6,-4.459,0.015,-0.009,0.163,333,-0.163,6.882,383,telentang
0.25,6,-4.32,0.015,-0.009,0.163,333,0.28,6.882,383,telentang
0.25,6,-4.217,0.015,-0.009,0.163,333,-0.782,6.882,383,telentang
0.25,6,-4.233,0.015,-0.009,0.163,333,0.417,6.882,383,telentang
0.25,6,-4.098,0.015,-0.009,0.163,333,-0.247,6.882,383,telentang
0.25,6,-4.008,0.015,-0.009,0.163,333,-0.43,6.882,383,telentang
0.25,6,-3.972,0.015,-0.009,0.163,333,0.203,6.882,383,telentang
0.25,6,-3.901,0.015,-0.009,0.163,333,-0.514,6.882,383,telentang
0.25,6,-3.936,0.015,-0.009,0.163,333,0.104,6.882,383,telentang
0.25,6,-3.844,0.015,-0.009,0.163,333,-0.095,6.882,383,telentang
0.25,6,-3.827,0.015,-0.009,0.163,333,-0.346,6.882,383,telentang
0.25,6,-3.845,0.015,-0.009,0.163,333,-0.117,6.882,383,telentang
    
5.0,0.0,27.568633765397315,78.26086956521739,41.66666666666666,86.59793814432992,52.32974910394266,41.368,59.912,96.939
5.0,16.666666666666664,25.894855486675787,72.17391304347827,49.99999999999999,96.90721649484536,96.7741935483871,41.328,15.753,91.161
5.0,33.33333333333333,-3.702600434747596,0.8695652173913051,91.66666666666666,-3.0927835051546424,91.75627240143369,42.093,90.032,0.523
5.0,50.0,37.57909991144031,62.60869565217392,74.99999999999999,17.525773195876294,2.5089605734767026,39.808,36.931,-1.532
5.0,53.333333333333336,36.357781177038895,62.60869565217392,74.99999999999999,17.525773195876294,-82.43727598566308,39.586,5.513971210838272,0.5930147058823528
5.0,63.16666666666667,38.664358747282826,73.04347826086956,66.66666666666666,37.11340206185568,2.867383512544803,51.026,29.192209991532604,0.944852941176468
5.0,66.66666666666666,60.8912325899686,96.52173913043478,16.666666666666664,49.484536082474236,0.35842293906810035,34.649,46.008,30.687
5.0,70.0,59.61033733193785,96.52173913043478,16.666666666666664,49.484536082474236,-82.43727598566308,15.199,43.01439458086368,42.86654411764705
5.0,79.5,57.33354802350858,97.39130434782608,0.0,61.855670103092805,10.566308243727605,41.418,39.47502116850128,34.08014705882352
5.0,83.33333333333334,90.34055229047581,76.52173913043478,24.999999999999993,76.28865979381445,36.91756272401434,45.787,20.457,52.042
5.0,86.66666666666667,90.73263022300942,76.52173913043478,24.999999999999993,76.28865979381445,-82.43727598566308,31.135,35.586790855207454,54.423529411764704
5.0,95.83333333333334,83.4876418967877,75.65217391304348,41.66666666666666,81.44329896907217,45.48028673835125,38.369,19.67823878069433,53.98860294117647
    
0.25,0.0,-84.082,0.006,-0.009,0.164,376,-0.156,16.496,502.464,telentang
0.25,0.4,-83.992,0.014,-0.009,0.174,411.56,-2.476,16.983,502,telentang
0.25,0.8,-83.606,0.023,-0.009,0.175,446.7,8.86,16.983,502,telentang
0.25,1.0,-86.414,-0.002,-0.007,0.174,501,-0.186,4.935,484.379,telentang
0.25,1.38,-103.046,-0.046,-0.008,0.167,490.3,-150.911,5.439,484,telentang
0.25,1.8,-103.046,-0.083,-0.002,0.116,484,-150.911,5.439,484,telentang
0.25,2.0,-128.245,-0.083,-0.002,0.077,486,-2.972,29.839,238.574,telentang
0.25,2.42,-126.169,-0.065,-0.003,0.083,419.88,22.341,30.303,238,telentang
0.25,2.84,-120.608,-0.046,-0.002,0.083,354.93,56.325,30.303,238,telentang
0.25,3.0,-70.52,-0.011,-0.004,0.096,234,-14.224,13.609,233.643,telentang
0.25,3.4,-73.542,-0.0,-0.005,0.114,238,-10.018,2.442,238,telentang
0.25,3.86,-72.046,0.014,-0.009,0.13,252,49.486,11.877,252,telentang
0.25,4.0,-44.344,0.02,-0.01,0.129,247,-84.064,12.07,336.512,telentang
0.25,4.4,-47.2,0.021,-0.013,0.141,272.03,129.035,12.099,335,telentang
0.25,4.82,-26.14,0.032,-0.012,0.146,277.67,160.753,7.215,334,telentang
0.25,5.4,-5.687,0.02,-0.01,0.153,308.25,181.516,8.436,340,telentang
0.25,5.0,-31.379,-0.005,-0.009,0.153,343,-19.56,5.72,373.085,telentang
0.25,5.4,-31.247,-0.0,-0.008,0.158,356.78,55.745,6.66,387,telentang
0.25,5.91,-20.633,-0.004,-0.008,0.164,386.14,116.478,9.213000000000001,394,telentang
0.25,6.32,-14.587,-0.0,-0.009,0.165,386,-12.278,16.317,386,telentang
0.25,6,12.369,-0.0,-0.009,0.165,343,100.669,16.317,386,telentang
0.25,6,-4.764,-0.0,-0.009,0.165,343,38.791,16.317,386,telentang
0.25,6,2.169,-0.0,-0.009,0.165,343,-2.812,16.317,386,telentang
0.25,6,1.331,-0.0,-0.009,0.165,343,-38.865,16.317,386,telentang
0.25,6,-4.075,-0.0,-0.009,0.165,343,-38.812,16.317,386,telentang
0.25,6,-15.464,-0.0,-0.009,0.165,343,-9.675,16.317,386,telentang
0.25,6,-11.677,-0.0,-0.009,0.165,343,23.554,16.317,386,telentang
0.25,6,-8.033,-0.0,-0.009,0.165,343,22.707,16.317,386,telentang
0.25,6,-4.961,-0.0,-0.009,0.165,343,-1.537,16.317,386,telentang
0.25,6,-4.794,-0.0,-0.009,0.165,343,-11.865,16.317,386,telentang
0.25,6,-6.162,-0.0,-0.009,0.165,343,-5.209,16.317,386,telentang
0.25,6,-6.518,-0.0,-0.009,0.165,343,4.386,16.317,386,telentang
0.25,6,-5.641,-0.0,-0.009,0.165,343,4.593,16.317,386,telentang
0.25,6,-4.785,-0.0,-0.009,0.165,343,-3.415,16.317,386,telentang
0.25,6,-5.083,-0.0,-0.009,0.165,343,-1.346,16.317,386,telentang
0.25,6,-5.106,-0.0,-0.009,0.165,343,2.051,16.317,386,telentang
0.25,6,-4.72,-0.0,-0.009,0.165,343,-0.995,16.317,386,telentang
0.25,6,-4.774,-0.0,-0.009,0.165,343,-0.988,16.317,386,telentang
0.25,6,-4.814,-0.0,-0.009,0.165,343,0.806,16.317,386,telentang
0.25,6,-4.565,-0.0,-0.009,0.165,343,-1.217,16.317,386,telentang
0.25,6,-4.665,-0.0,-0.009,0.165,343,-0.301,16.317,386,telentang
0.25,6,-4.606,-0.0,-0.009,0.165,343,0.524,16.317,386,telentang
0.25,6,-4.529,-0.0,-0.009,0.165,343,-0.949,16.317,386,telentang
0.25,6,-4.624,-0.0,-0.009,0.165,343,0.066,16.317,386,telentang
0.25,6,-4.603,-0.0,-0.009,0.165,343,0.112,16.317,386,telentang
0.25,6,-4.57,-0.0,-0.009,0.165,343,-1.11,16.317,386,telentang
0.25,6,-4.673,-0.0,-0.009,0.165,343,0.287,16.317,386,telentang
0.25,6,-4.617,-0.0,-0.009,0.165,343,-0.194,16.317,386,telentang
0.25,6,-4.684,-0.0,-0.009,0.165,343,-0.4,16.317,386,telentang
0.25,6,-4.697,-0.0,-0.009,0.165,343,-0.003,16.317,386,telentang
    
5.0,0.0,27.537235327268338,78.26086956521739,33.33333333333333,86.59793814432992,52.32974910394266,41.383,53.992,97.597
5.0,16.666666666666664,25.578455840914575,71.30434782608695,49.99999999999999,96.90721649484536,97.1326164874552,41.373,14.835,90.948
5.0,33.33333333333333,-8.359230335721756,0.8695652173913051,91.66666666666666,-3.0927835051546424,91.75627240143369,40.461,99.184,0.579
5.0,50.0,38.82698655502777,63.47826086956522,74.99999999999999,16.494845360824744,1.4336917562724014,36.776,44.213,-1.234
5.0,53.333333333333336,37.96715240318815,63.47826086956522,74.99999999999999,16.494845360824744,-82.43727598566308,37.004,4.785774767146486,0.7341911764705934
5.0,64.33333333333333,35.66379518557282,73.04347826086956,66.66666666666666,35.05154639175259,2.867383512544803,42.8,36.68755292125318,5.820588235294116
5.0,66.66666666666666,63.26704774172772,90.43478260869566,24.999999999999993,50.515463917525786,6.093189964157706,13.909,39.001,36.585
5.0,70.0,54.07857660413815,90.43478260869566,24.999999999999993,50.515463917525786,-82.43727598566308,40.88,37.307366638442005,36.39558823529411
5.0,80.33333333333333,63.21310683519845,91.30434782608697,0.0,62.88659793814432,15.06451612903225,90.019,20.965283657917023,35.98970588235294
5.0,90.0,74.16472103695354,100.8695652173913,8.333333333333325,68.04123711340205,17.08602150537635,94.068,25.10076206604573,38.19117647058823
5.0,83.33333333333334,70.17631430641654,68.69565217391305,33.33333333333333,75.25773195876289,40.50179211469534,35.029,17.494,50.031
5.0,86.66666666666667,68.45745109089445,68.69565217391305,33.33333333333333,75.25773195876289,-82.43727598566308,39.048,19.048264182895856,55.28860294117647
5.0,96.16666666666666,70.05313581837211,73.04347826086956,41.66666666666666,80.41237113402063,45.44086021505375,59.686,27.58340389500424,57.90698529411765
5.0,105.33333333333334,78.59834151839627,69.56521739130434,41.66666666666666,86.59793814432992,55.96415770609319,79.571,51.56985605419136,54.83419117647059
    
0.25,0.0,-84.389,0.007,-0.009,0.164,376,-0.178,17.602,505.219,telentang
0.25,0.38,-83.927,0.013,-0.009,0.173,411.45,0.661,18.093,505,telentang
0.25,0.8,-84.121,0.021,-0.009,0.175,450.94,-8.377,18.093,505,telentang
0.25,1.21,-84.121,0.007,-0.008,0.175,489.52,-8.377,18.093,505,telentang
0.25,1.0,-85.917,-0.003,-0.007,0.174,504,-0.133,4.742,484.086,telentang
0.25,1.4,-88.585,-0.049,-0.009,0.165,493.11,-71.911,5.217,484,telentang
0.25,1.8,-104.467,-0.083,-0.002,0.114,484,-139.178,5.217,484,telentang
0.25,2.0,-131.928,-0.082,-0.002,0.078,486,6.47,30.628,239,telentang
0.25,2.38,-127.435,-0.065,-0.003,0.084,425.06,44.18,31.080000000000002,239,telentang
0.25,2.8,-123.487,-0.046,-0.002,0.084,357.22,94.516,31.080000000000002,239,telentang
0.25,3.21,-123.487,-0.029,-0.001,0.091,290.84,94.516,31.080000000000002,239,telentang
0.25,3.0,-76.617,-0.011,-0.003,0.096,237,-3.736,4.035,236.69,telentang
0.25,3.4,-75.37,-0.0,-0.004,0.114,237,-10.026,2.109,237,telentang
0.25,3.91,-73.046,0.005,-0.008,0.131,273,42.822,17.76,273,telentang
0.25,4.35,-74.656,0.019,-0.01,0.131,249,59.035,5.328,249,telentang
0.25,4.0,-54.828,0.016,-0.01,0.129,245,-31.965,10.811,321.087,telentang
0.25,4.4,-54.474,0.012,-0.012,0.143,281.52,81.012,17.649,337,telentang
0.25,4.88,-34.977,0.041,-0.012,0.144,261.23,119.112,3.552,319,telentang
0.25,5.0,-8.012,0.006,-0.009,0.153,321,73.822,6.828,377.115,telentang
0.25,5.4,-9.042,0.008,-0.008,0.158,343.51,28.394,10.878,383,telentang
0.25,5.92,-4.845,0.016,-0.009,0.164,357.28,67.89,7.659,383,telentang
0.25,6.34,6.22,0.006,-0.009,0.166,374.85,22.722,7.7700000000000005,382,telentang
0.25,6,6.22,0.006,-0.009,0.166,321,22.722,7.7700000000000005,382,telentang
0.25,6,7.456,0.006,-0.009,0.166,321,-101.782,7.7700000000000005,382,telentang
0.25,6,-13.817,0.006,-0.009,0.166,321,-98.652,7.7700000000000005,382,telentang
0.25,6,-20.499,0.006,-0.009,0.166,321,-9.957,7.7700000000000005,382,telentang
0.25,6,-15.015,0.006,-0.009,0.166,321,-2.927,7.7700000000000005,382,telentang
0.25,6,-14.307,0.006,-0.009,0.166,321,16.142,7.7700000000000005,382,telentang
0.25,6,-11.146,0.006,-0.009,0.166,321,52.692,7.7700000000000005,382,telentang
0.25,6,-3.764,0.006,-0.009,0.166,321,58.86,7.7700000000000005,382,telentang
0.25,6,5.451,0.006,-0.009,0.166,321,16.47,7.7700000000000005,382,telentang
0.25,6,7.215,0.006,-0.009,0.166,321,-52.858,7.7700000000000005,382,telentang
0.25,6,1.588,0.006,-0.009,0.166,321,-54.85,7.7700000000000005,382,telentang
0.25,6,-14.745,0.006,-0.009,0.166,321,-16.018,7.7700000000000005,382,telentang
0.25,6,-13.45,0.006,-0.009,0.166,321,27.348,7.7700000000000005,382,telentang
0.25,6,-6.412,0.006,-0.009,0.166,321,30.707,7.7700000000000005,382,telentang
0.25,6,-1.133,0.006,-0.009,0.166,321,13.928,7.7700000000000005,382,telentang
0.25,6,1.527,0.006,-0.009,0.166,321,-12.446,7.7700000000000005,382,telentang
0.25,6,0.864,0.006,-0.009,0.166,321,-18.056,7.7700000000000005,382,telentang
0.25,6,-0.96,0.006,-0.009,0.166,321,-13.591,7.7700000000000005,382,telentang
0.25,6,-2.136,0.006,-0.009,0.166,321,5.967,7.7700000000000005,382,telentang
0.25,6,-1.166,0.006,-0.009,0.166,321,8.676,7.7700000000000005,382,telentang
0.25,6,-0.047,0.006,-0.009,0.166,321,-0.934,7.7700000000000005,382,telentang
0.25,6,-0.397,0.006,-0.009,0.166,321,-6.064,7.7700000000000005,382,telentang
0.25,6,-1.074,0.006,-0.009,0.166,321,0.837,7.7700000000000005,382,telentang
0.25,6,-1.126,0.006,-0.009,0.166,321,-0.194,7.7700000000000005,382,telentang
0.25,6,-1.072,0.006,-0.009,0.166,321,-1.72,7.7700000000000005,382,telentang
0.25,6,-1.473,0.006,-0.009,0.166,321,1.722,7.7700000000000005,382,telentang
0.25,6,-1.594,0.006,-0.009,0.166,321,1.135,7.7700000000000005,382,telentang
0.25,6,-1.667,0.006,-0.009,0.166,321,-1.392,7.7700000000000005,382,telentang
0.25,6,-1.997,0.006,-0.009,0.166,321,0.073,7.7700000000000005,382,telentang
0.25,6,-2.128,0.006,-0.009,0.166,321,0.425,7.7700000000000005,382,telentang
    
5.0,0.0,27.286852910393687,79.1304347826087,33.33333333333333,86.59793814432992,52.32974910394266,41.375,57.738,98.61
5.0,16.666666666666664,26.050237501006357,70.43478260869566,49.99999999999999,96.90721649484536,98.2078853046595,41.39,14.181,90.84
5.0,33.33333333333333,-11.462040093390232,1.7391304347826102,91.66666666666666,-2.061855670103095,91.75627240143369,43.552,101.856,0.735
5.0,50.0,33.39344658240078,63.47826086956522,83.33333333333331,16.494845360824744,2.5089605734767026,40.211,11.787,-0.114
5.0,53.333333333333336,33.262217212784805,63.47826086956522,83.33333333333331,16.494845360824744,-82.43727598566308,36.259,3.552921253175275,0.3360294117647012
5.0,62.83333333333333,34.530231060301105,73.04347826086956,74.99999999999999,35.05154639175259,2.5089605734767026,38.151,56.56562235393735,13.369117647058815
5.0,72.5,37.15401336446341,77.3913043478261,41.66666666666666,52.57731958762888,15.412186379928317,58.579,14.360711261642678,4.440073529411764
5.0,66.66666666666666,51.89356734562435,86.95652173913044,24.999999999999993,50.515463917525786,5.376344086021505,30.968,34.737,30.914
5.0,70.0,49.32775138877707,86.95652173913044,24.999999999999993,50.515463917525786,-82.43727598566308,43.242,56.155800169348026,37.03014705882352
5.0,79.5,58.23685693583448,83.47826086956522,8.333333333333325,64.94845360824742,18.465949820788524,75.732,8.359017781541066,30.48492647058823
5.0,83.33333333333334,87.01070767249014,78.26086956521739,33.33333333333333,75.25773195876289,32.61648745519714,65.605,21.246,51.513
5.0,86.66666666666667,91.69873601159327,78.26086956521739,33.33333333333333,75.25773195876289,-82.43727598566308,34.612,33.20914479254869,53.77977941176471
5.0,96.33333333333334,87.9301183479591,80.0,41.66666666666666,80.41237113402063,40.68458781362007,50.731,22.489415749364948,54.001838235294116
5.0,105.66666666666666,97.07672490137669,86.95652173913044,33.33333333333333,86.59793814432992,45.620071684587806,70.643,22.773920406435227,53.62941176470589
    
0.25,0.0,-84.435,0.007,-0.009,0.164,376,-2.14,18.292,505.693,telentang
0.25,0.38,-84.209,0.011,-0.009,0.173,412.86,-2.033,18.759,505,telentang
0.25,0.81,-83.931,0.019,-0.009,0.175,454.57,0.325,18.759,505,telentang
0.25,1.0,-85.825,-0.003,-0.007,0.174,505,-0.324,4.78,484.209,telentang
0.25,1.38,-87.286,-0.048,-0.008,0.166,494.52,-38.713,5.328,484,telentang
0.25,1.79,-99.479,-0.083,-0.002,0.116,484,-145.736,5.328,484,telentang
0.25,2.0,-122.823,-0.083,-0.002,0.076,486,5.417,25.438,238.22,telentang
0.25,2.4,-120.684,-0.067,-0.003,0.079,432.26,48.57,25.974,238,telentang
0.25,2.81,-110.858,-0.051,-0.002,0.079,376.83,102.272,25.974,238,telentang
0.25,3.0,-77.078,-0.015,-0.003,0.096,246,-14.14,9.247,234.399,telentang
0.25,3.4,-75.855,-0.004,-0.005,0.115,240.95,-52.583,2.442,237,telentang
0.25,3.92,-75.246,0.007,-0.009,0.132,270,43.638,17.427,270,telentang
0.25,4.37,-71.389,0.01,-0.01,0.133,267,74.135,5.994,267,telentang
0.25,4.0,-61.931,0.005,-0.009,0.13,268,24.989,0.94,265.15,telentang
0.25,4.4,-49.888,-0.003,-0.011,0.142,307.27,142.333,18.981,322,telentang
0.25,4.83,-31.377,0.014,-0.011,0.151,305.46,177.478,8.769,321,telentang
0.25,5.39,-15.779,0.012,-0.01,0.154,322,116.852,11.211,322,telentang
0.25,5.0,-2.798,0.009,-0.009,0.153,319,-2.835,6.94,376.374,telentang
0.25,5.41,-13.55,0.008,-0.009,0.158,346.99,14.165,13.209,385,telentang
0.25,5.89,-8.469,0.02,-0.01,0.162,354.38,88.379,7.659,382,telentang
0.25,6,-0.464,0.02,-0.01,0.162,319,93.455,7.659,382,telentang
0.25,6,8.348,0.02,-0.01,0.162,319,8.814,7.659,382,telentang
0.25,6,7.008,0.02,-0.01,0.162,319,-42.682,7.659,382,telentang
0.25,6,0.321,0.02,-0.01,0.162,319,-37.782,7.659,382,telentang
0.25,6,-14.418,0.02,-0.01,0.162,319,-11.362,7.659,382,telentang
0.25,6,-10.798,0.02,-0.01,0.162,319,20.715,7.659,382,telentang
0.25,6,-7.324,0.02,-0.01,0.162,319,20.974,7.659,382,telentang
0.25,6,-4.117,0.02,-0.01,0.162,319,6.394,7.659,382,telentang
0.25,6,-2.64,0.02,-0.01,0.162,319,-5.82,7.659,382,telentang
0.25,6,-2.766,0.02,-0.01,0.162,319,-8.362,7.659,382,telentang
0.25,6,-3.5,0.02,-0.01,0.162,319,-5.988,7.659,382,telentang
0.25,6,-4.028,0.02,-0.01,0.162,319,2.76,7.659,382,telentang
0.25,6,-3.441,0.02,-0.01,0.162,319,3.661,7.659,382,telentang
0.25,6,-2.739,0.02,-0.01,0.162,319,-1.125,7.659,382,telentang
0.25,6,-2.756,0.02,-0.01,0.162,319,-1.774,7.659,382,telentang
0.25,6,-2.863,0.02,-0.01,0.162,319,1.6,7.659,382,telentang
0.25,6,-2.548,0.02,-0.01,0.162,319,-0.423,7.659,382,telentang
0.25,6,-2.648,0.02,-0.01,0.162,319,-0.858,7.659,382,telentang
0.25,6,-2.724,0.02,-0.01,0.162,319,0.883,7.659,382,telentang
0.25,6,-2.555,0.02,-0.01,0.162,319,-0.568,7.659,382,telentang
0.25,6,-2.693,0.02,-0.01,0.162,319,-0.553,7.659,382,telentang
0.25,6,-2.746,0.02,-0.01,0.162,319,0.409,7.659,382,telentang
0.25,6,-2.67,0.02,-0.01,0.162,319,-0.835,7.659,382,telentang
0.25,6,-2.768,0.02,-0.01,0.162,319,0.157,7.659,382,telentang
0.25,6,-2.749,0.02,-0.01,0.162,319,0.119,7.659,382,telentang
0.25,6,-2.712,0.02,-0.01,0.162,319,-0.69,7.659,382,telentang
0.25,6,-2.769,0.02,-0.01,0.162,319,0.257,7.659,382,telentang
0.25,6,-2.71,0.02,-0.01,0.162,319,-0.201,7.659,382,telentang
0.25,6,-2.716,0.02,-0.01,0.162,319,-0.568,7.659,382,telentang
0.25,6,-2.788,0.02,-0.01,0.162,319,0.035,7.659,382,telentang
    
5.0,0.0,27.232912003864428,79.1304347826087,33.33333333333333,86.59793814432992,52.32974910394266,40.733,60.075,98.784
5.0,16.666666666666664,26.140407374607527,70.43478260869566,49.99999999999999,96.90721649484536,98.56630824372759,41.328,14.31,90.886
5.0,33.33333333333333,-3.6373882940181956,0.8695652173913051,91.66666666666666,-4.12371134020619,91.75627240143369,43.207,84.278,0.449
5.0,50.0,33.52548104017391,60.0,83.33333333333331,16.494845360824744,5.734767025089606,36.804,29.439,-0.956
5.0,53.333333333333336,33.03840270509621,60.0,83.33333333333331,16.494845360824744,-82.43727598566308,41.425,4.582557154953429,0.281249999999995
5.0,63.0,33.91111826745029,69.56521739130434,66.66666666666666,36.08247422680413,3.9247311827956946,38.241,55.522438611346324,12.360294117647062
5.0,72.83333333333334,36.12591578777876,79.1304347826087,33.33333333333333,53.60824742268042,14.336917562724013,61.976,16.823031329381884,11.07867647058824
5.0,66.66666666666666,45.49714193704211,77.3913043478261,33.33333333333333,51.54639175257733,13.620071684587815,49.616,1.304,10.349
5.0,70.0,46.75871507930119,77.3913043478261,33.33333333333333,51.54639175257733,-82.43727598566308,53.008,60.870448772226936,31.56911764705882
5.0,80.5,60.8380967715965,70.43478260869566,16.666666666666664,63.91752577319587,27.69534050179211,90.426,26.150719729043185,30.891176470588235
5.0,89.83333333333333,80.79220674663875,85.21739130434783,16.666666666666664,73.1958762886598,27.046594982078847,91.249,34.45215918712955,31.279411764705877
5.0,83.33333333333334,94.08421222123823,80.8695652173913,33.33333333333333,75.25773195876289,31.899641577060933,40.506,21.626,51.24
5.0,86.66666666666667,84.59624828918766,80.8695652173913,33.33333333333333,75.25773195876289,-82.43727598566308,31.668,41.31752751905165,54.60845588235295
5.0,96.0,84.30078093551245,80.0,33.33333333333333,80.41237113402063,41.93189964157706,46.072,22.320067739204063,53.51654411764706
    
0.25,0.0,-84.791,0.007,-0.009,0.163,374,-0.194,18.839,505.127,telentang
0.25,0.4,-84.529,0.012,-0.009,0.173,414.2,4.997,19.314,505,telentang
0.25,0.86,-84.347,0.019,-0.009,0.175,459.91,-4.759,19.314,505,telentang
0.25,1.0,-86.638,-0.003,-0.007,0.174,504,-0.301,4.747,483.78,telentang
0.25,1.4,-86.763,-0.05,-0.008,0.166,493.15,-36.041,5.217,483,telentang
0.25,1.8199999999999998,-98.625,-0.083,-0.002,0.112,483,-152.499,5.217,483,telentang
0.25,2.0,-136.049,-0.083,-0.002,0.076,484,-4.743,32.577,239,telentang
0.25,2.4,-133.135,-0.064,-0.003,0.085,415.0,27.028,33.078,239,telentang
0.25,2.81,-122.502,-0.044,-0.002,0.087,345.8,154.051,33.078,239,telentang
0.25,3.0,-75.164,-0.011,-0.004,0.096,234,1.119,7.448,234.693,telentang
0.25,3.4,-72.646,-0.001,-0.005,0.115,238.59,-22.186,2.22,239,telentang
0.25,3.88,-72.611,0.003,-0.008,0.131,275,36.676,15.762,275,telentang
0.25,4.0,-63.343,0.006,-0.009,0.131,274,-30.301,4.997,318.029,telentang
0.25,4.42,-55.117,-0.001,-0.011,0.145,313.94,131.676,18.315,325,telentang
0.25,4.95,-32.36,0.02,-0.01,0.153,307.41,131.959,6.771,328,telentang
0.25,5.4,-19.373,0.013,-0.01,0.154,319,203.486,7.881,319,telentang
0.25,5.0,-14.638,0.016,-0.01,0.154,314,-56.385,8.031,383.355,telentang
0.25,5.42,-19.455,0.005,-0.008,0.159,353.73,2.287,18.204,380,telentang
0.25,5.89,-5.051,0.024,-0.01,0.161,348.13,84.325,7.437,384,telentang
0.25,6,-5.051,0.024,-0.01,0.161,314,84.325,7.437,384,telentang
0.25,6,-5.218,0.024,-0.01,0.161,314,-1.759,7.437,384,telentang
0.25,6,-5.654,0.024,-0.01,0.161,314,2.631,7.437,384,telentang
0.25,6,-4.987,0.024,-0.01,0.161,314,2.707,7.437,384,telentang
0.25,6,-4.477,0.024,-0.01,0.161,314,-1.117,7.437,384,telentang
0.25,6,-4.555,0.024,-0.01,0.161,314,-0.407,7.437,384,telentang
0.25,6,-4.457,0.024,-0.01,0.161,314,1.173,7.437,384,telentang
0.25,6,-4.165,0.024,-0.01,0.161,314,-0.835,7.437,384,telentang
0.25,6,-4.229,0.024,-0.01,0.161,314,0.005,7.437,384,telentang
0.25,6,-4.086,0.024,-0.01,0.161,314,0.539,7.437,384,telentang
0.25,6,-3.945,0.024,-0.01,0.161,314,-0.667,7.437,384,telentang
0.25,6,-3.956,0.024,-0.01,0.161,314,-0.018,7.437,384,telentang
0.25,6,-3.861,0.024,-0.01,0.161,314,-0.041,7.437,384,telentang
0.25,6,-3.78,0.024,-0.01,0.161,314,-0.598,7.437,384,telentang
0.25,6,-3.837,0.024,-0.01,0.161,314,-0.026,7.437,384,telentang
0.25,6,-3.795,0.024,-0.01,0.161,314,-0.484,7.437,384,telentang
0.25,6,-3.78,0.024,-0.01,0.161,314,-0.354,7.437,384,telentang
0.25,6,-3.775,0.024,-0.01,0.161,314,-0.003,7.437,384,telentang
0.25,6,-3.718,0.024,-0.01,0.161,314,-0.4,7.437,384,telentang
0.25,6,-3.697,0.024,-0.01,0.161,314,0.005,7.437,384,telentang
0.25,6,-3.632,0.024,-0.01,0.161,314,1.73,7.437,384,telentang
0.25,6,-3.553,0.024,-0.01,0.161,314,-0.346,7.437,384,telentang
0.25,6,-3.609,0.024,-0.01,0.161,314,-0.049,7.437,384,telentang
0.25,6,-3.57,0.024,-0.01,0.161,314,-0.278,7.437,384,telentang
0.25,6,-3.65,0.024,-0.01,0.161,314,-0.27,7.437,384,telentang
0.25,6,-3.674,0.024,-0.01,0.161,314,-0.163,7.437,384,telentang
0.25,6,-3.612,0.024,-0.01,0.161,314,-0.285,7.437,384,telentang
0.25,6,-3.631,0.024,-0.01,0.161,314,-0.049,7.437,384,telentang
0.25,6,-3.618,0.024,-0.01,0.161,314,-0.072,7.437,384,telentang
0.25,6,-3.604,0.024,-0.01,0.161,314,-0.163,7.437,384,telentang
    
5.0,0.0,26.927783592303356,79.1304347826087,33.33333333333333,85.56701030927837,51.61290322580645,41.37,61.927,98.576
5.0,16.666666666666664,25.47942999758474,70.43478260869566,49.99999999999999,96.90721649484536,98.2078853046595,41.335,14.198,90.728
5.0,33.33333333333333,-15.003622896707173,0.8695652173913051,91.66666666666666,-4.12371134020619,91.0394265232975,39.881,108.457,0.735
5.0,50.0,34.57290073263023,63.47826086956522,74.99999999999999,16.494845360824744,1.4336917562724014,41.8,23.346,-0.848
5.0,53.333333333333336,35.66540536188713,63.47826086956522,74.99999999999999,16.494845360824744,-82.43727598566308,32.115,3.959356477561389,0.8077205882352951
5.0,62.5,36.72329120038644,72.17391304347827,66.66666666666666,36.08247422680413,3.078853046594983,34.17,49.812023708721426,14.16764705882353
5.0,66.66666666666666,45.154174382094844,78.26086956521739,33.33333333333333,52.57731958762888,15.770609318996415,31.513,15.045,29.79
5.0,70.0,43.31696320747122,78.26086956521739,33.33333333333333,52.57731958762888,-82.43727598566308,47.107,58.52328535139713,32.519852941176474
5.0,80.16666666666667,55.26205619515338,72.17391304347827,16.666666666666664,67.0103092783505,30.086021505376344,90.459,19.183742591024558,33.690808823529416
5.0,90.0,69.15707269946058,90.43478260869566,24.999999999999993,75.25773195876289,27.745519713261658,84.64,23.187129551227777,30.46176470588235
5.0,83.33333333333334,98.78914741164158,86.95652173913044,24.999999999999993,76.28865979381445,30.107526881720432,22.972,25.321,53.807
5.0,86.66666666666667,80.5418243297641,86.95652173913044,24.999999999999993,76.28865979381445,-82.43727598566308,30.003,58.110076206604575,52.8077205882353
5.0,96.33333333333334,80.58690926656469,77.3913043478261,41.66666666666666,81.44329896907217,44.347670250896066,48.134,21.764606265876377,54.10110294117646
    
