Periode(s),Step,error pitch,error com,setpoint pitch,setpoint_com,Pitch Angle,CoMx(m),CoMy(m),CoMz(m),Left Ankle Angle Now,Omega (theta/s),Left Ankle Speed(rpm),Goal,Pola
0.25,0.0,-1.185,0.016,-82.663,87.54,-83.848,0.007,-0.007,0.164,375,-0.077,21.309,507.748,telentang
0.25,0.39,-1.169,-1.726,-82.79267780071088,89.09325376939647,-84.319,0.008,-0.008,0.174,375,-0.077,21.309,507.748,telentang
0.25,1.43,16.794,-18.007,-101.71172278872397,108.98902944999128,-84.996,-0.003,-0.007,0.175,375,-0.077,21.309,507.748,telentang
0.25,1.0,-1.152,-0.684,-83.739,92.33,-84.891,-0.005,-0.006,0.174,506,-0.108,3.732,479.963,telentang
0.25,1.4,12.519,-0.143,-100.18796935453895,107.41782570820547,-98.992,-0.051,-0.008,0.164,506,-0.108,3.732,479.963,telentang
0.25,1.85,-10.145,-0.343,-117.4083555599784,130.25663253208734,-127.553,-0.087,-0.001,0.104,506,-0.108,3.732,479.963,telentang
0.25,2.7800000000000002,-37.534,32.538,-87.28361893333444,101.76308628878215,-124.818,-0.081,-0.002,0.083,506,-0.108,3.732,479.963,telentang
0.25,2.0,-0.449,2.654,-118.80411796199579,133.4,-119.188,-0.083,-0.002,0.08,480,0.266,28.711,238.119,telentang
0.25,2.41,15.994,5.863,-108.11196914794566,121.86993348747953,-91.029,-0.065,-0.002,0.084,480,0.266,28.711,238.119,telentang
0.25,3.4299999999999997,32.861,15.845,-65.46372306269244,85.4648096175899,-35.189,-0.019,-0.001,0.095,480,0.266,28.711,238.119,telentang
0.25,3.0,0.293,0.587,-76.439,95.95,-76.329,-0.011,-0.002,0.096,237,-1.024,1.024,236.454,telentang
0.25,3.4,-16.725,4.283,-66.06064870278898,86.21959186367441,-82.786,-0.001,-0.004,0.114,237,-1.024,1.42,237.536,telentang
0.25,3.86,-19.616,2.513,-54.03700312586549,78.67378848885389,-73.653,0.02,-0.01,0.129,237,-1.024,1.42,237.536,telentang
0.25,4.97,-26.236,4.364,-13.886267849014441,88.6489020825096,-40.48,-0.007,-0.008,0.133,237,-1.024,10.826,299.842,telentang
0.25,4.0,-48.516,15.12,-49.29135354196892,78.78,-97.807,-0.009,-0.008,0.132,300,-35.474,7.894,333.283,telentang
0.25,4.4,-17.722,7.522,-34.37994997712633,81.68747800979536,-52.102,0.002,-0.011,0.145,300,-35.474,16.223,308.278,telentang
0.25,5.42,-17.777,-6.245,-2.8122431884536425,89.16574234744876,-20.355,0.019,-0.01,0.153,300,-35.474,16.223,308.278,telentang
0.25,5.0,-15.633,-0.742,-12.95591226839197,88.87,-29.087,0.005,-0.01,0.153,328,-27.971,6.748,364.93,telentang
0.25,5.4,-18.106,-2.851,-3.1496787209587467,89.22954533865789,-21.256,0.01,-0.009,0.158,328,-27.971,5.424,387.275,telentang
0.25,6.08,-21.147,-4.198,-0.10884745895138535,87.93404431274959,-10.484,0.018,-0.009,0.164,328,-27.971,5.424,387.275,telentang
0.25,6,17.8,0.018,-0.009,0.164,328,73.243,9.546,376,telentang
0.25,6,15.879,0.018,-0.009,0.164,328,-51.65,9.546,376,telentang
0.25,6,3.599,0.018,-0.009,0.164,328,-24.742,9.546,376,telentang
0.25,6,-3.843,0.018,-0.009,0.164,328,7.991,9.546,376,telentang
0.25,6,-4.993,0.018,-0.009,0.164,328,22.442,9.546,376,telentang
0.25,6,-4.053,0.018,-0.009,0.164,328,8.213,9.546,376,telentang
0.25,6,-3.959,0.018,-0.009,0.164,328,-6.581,9.546,376,telentang
0.25,6,-5.306,0.018,-0.009,0.164,328,-10.116,9.546,376,telentang
0.25,6,-7.05,0.018,-0.009,0.164,328,-6.284,9.546,376,telentang
0.25,6,-7.495,0.018,-0.009,0.164,328,6.953,9.546,376,telentang
0.25,6,-6.299,0.018,-0.009,0.164,328,2.877,9.546,376,telentang
0.25,6,-5.589,0.018,-0.009,0.164,328,-3.367,9.546,376,telentang
0.25,6,-5.611,0.018,-0.009,0.164,328,-0.261,9.546,376,telentang
0.25,6,-5.149,0.018,-0.009,0.164,328,2.045,9.546,376,telentang
0.25,6,-4.387,0.018,-0.009,0.164,328,-1.398,9.546,376,telentang
0.25,6,-4.112,0.018,-0.009,0.164,328,-0.146,9.546,376,telentang
0.25,6,-3.655,0.018,-0.009,0.164,328,1.19,9.546,376,telentang
0.25,6,-3.038,0.018,-0.009,0.164,328,-0.971,9.546,376,telentang
0.25,6,-2.788,0.018,-0.009,0.164,328,0.068,9.546,376,telentang
0.25,6,-2.31,0.018,-0.009,0.164,328,0.61,9.546,376,telentang
0.25,6,-1.943,0.018,-0.009,0.164,328,-0.696,9.546,376,telentang
0.25,6,-1.779,0.018,-0.009,0.164,328,0.564,9.546,376,telentang
0.25,6,-1.42,0.018,-0.009,0.164,328,-0.039,9.546,376,telentang
0.25,6,-1.222,0.018,-0.009,0.164,328,-0.375,9.546,376,telentang
0.25,6,-1.135,0.018,-0.009,0.164,328,0.51,9.546,376,telentang
0.25,6,-0.846,0.018,-0.009,0.164,328,-0.406,9.546,376,telentang
0.25,6,-0.754,0.018,-0.009,0.164,328,-0.077,9.546,376,telentang
0.25,6,-0.591,0.018,-0.009,0.164,328,0.579,9.546,376,telentang
0.25,6,-0.557,0.018,-0.009,0.164,328,-0.978,9.546,376,telentang
0.25,6,-0.576,0.018,-0.009,0.164,328,10.556,9.546,376,telentang
    
5.0,0.0,27.754609129699702,79.1304347826087,49.99999999999999,86.59793814432992,51.971326164874554,41.408,70.293,99.54
5.0,16.666666666666664,26.8513002173738,68.69565217391305,58.33333333333333,96.90721649484536,98.9247311827957,41.398,10.76,89.325
5.0,33.33333333333333,-1.014411078013035,0.8695652173913051,91.66666666666666,0.0,89.6057347670251,41.521,95.363,0.411
5.0,50.0,34.24764511714032,63.47826086956522,91.66666666666666,16.494845360824744,2.5089605734767026,41.099,1.588,-0.201
5.0,53.333333333333336,33.03196199983899,63.47826086956522,91.66666666666666,16.494845360824744,-82.43727598566308,40.841,2.929720575783234,0.19705882352941229
5.0,64.33333333333333,36.94549553176073,90.43478260869566,24.999999999999993,50.515463917525786,2.5089605734767026,65.193,34.7874682472481,23.10367647058823
5.0,66.66666666666666,17.4398196602528,65.21739130434784,41.66666666666666,53.60824742268042,25.089605734767023,29.819,24.857,35.398
5.0,70.0,17.078335077691012,65.21739130434784,41.66666666666666,53.60824742268042,-82.43727598566308,54.165,53.06689246401355,26.205147058823535
5.0,90.33333333333333,78.82215602608485,89.56521739130436,24.999999999999993,75.25773195876289,27.956989247311824,63.576,18.496189669771383,40.387499999999996
5.0,83.33333333333334,73.91997423717896,77.3913043478261,24.999999999999993,75.25773195876289,35.12544802867383,32.276,20.975,47.033
5.0,86.66666666666667,71.15852185814347,77.3913043478261,24.999999999999993,75.25773195876289,-82.43727598566308,48.704,16.49110922946656,55.24816176470587
5.0,101.33333333333334,86.76918122534418,88.69565217391305,33.33333333333333,86.59793814432992,46.9247311827957,74.688,28.792548687552923,51.121691176470584
    
