Periode(s),Step,Pitch Angle,CoMx(m),CoMy(m),CoMz(m),Left Ankle Angle Now,Left Ankle Speed(rpm),Goal,Pola
5.0,0.0,-75.633,0.009,-0.009,0.166,374,1.902,467.485,telentang
5.0,0.02,-74.989,0.008,-0.009,0.166,379.05,2.442,467,telentang
5.0,0.06,-75.743,0.003,-0.009,0.167,389.08,2.442,467,telentang
5.0,0.1,-77.387,0.0,-0.009,0.168,399.1,2.442,467,telentang
5.0,0.14,-76.504,-0.002,-0.008,0.17,409.15,2.442,467,telentang
5.0,0.18,-75.929,-0.007,-0.007,0.17,419.19,2.442,467,telentang
5.0,0.22,-74.905,-0.009,-0.007,0.173,429.21,2.442,467,telentang
5.0,0.26,-76.675,-0.013,-0.007,0.173,439.25,2.442,467,telentang
5.0,0.3,-76.571,-0.017,-0.007,0.173,449.27,2.442,467,telentang
5.0,0.34,-75.895,-0.021,-0.007,0.173,459.31,2.442,467,telentang
5.0,0.38,-75.85,-0.022,-0.007,0.174,467,2.442,467,telentang
5.0,0.42,-77.768,-0.019,-0.007,0.175,467,2.442,467,telentang
5.0,0.46,-76.308,-0.015,-0.007,0.177,467,2.442,467,telentang
5.0,0.5,-78.569,-0.011,-0.007,0.176,467,2.442,467,telentang
5.0,0.54,-78.169,-0.007,-0.007,0.176,467,2.442,467,telentang
5.0,0.58,-79.472,-0.004,-0.007,0.176,467,2.442,467,telentang
5.0,0.62,-79.771,-0.0,-0.007,0.176,467,2.442,467,telentang
5.0,0.66,-81.042,0.003,-0.007,0.176,467,2.442,467,telentang
5.0,0.7,-80.491,0.007,-0.008,0.176,467,2.442,467,telentang
5.0,0.74,-81.132,0.011,-0.008,0.175,467,2.442,467,telentang
5.0,0.77,-80.041,0.014,-0.008,0.175,467,2.442,467,telentang
5.0,0.81,-81.098,0.021,-0.009,0.174,467,2.442,467,telentang
5.0,0.85,-80.364,0.024,-0.009,0.173,467,2.442,467,telentang
5.0,0.89,-80.534,0.024,-0.009,0.173,467,2.442,467,telentang
5.0,0.93,-80.321,0.024,-0.009,0.173,467,2.442,467,telentang
5.0,0.97,-79.798,0.024,-0.009,0.173,467,2.442,467,telentang
5.0,1.0,-80.232,0.024,-0.009,0.173,467,1.889,461.748,telentang
5.0,1.02,-82.307,0.023,-0.01,0.173,461.95,2.442,461,telentang
5.0,1.06,-81.761,0.017,-0.01,0.174,461,2.442,461,telentang
5.0,1.1,-82.584,0.012,-0.01,0.174,461,2.442,461,telentang
5.0,1.1400000000000001,-85.104,0.006,-0.01,0.175,461,2.442,461,telentang
5.0,1.18,-85.87,0.0,-0.01,0.173,461,2.442,461,telentang
5.0,1.22,-89.342,-0.006,-0.011,0.174,461,2.442,461,telentang
5.0,1.26,-94.169,-0.011,-0.011,0.172,461,2.442,461,telentang
5.0,1.3,-92.326,-0.018,-0.01,0.171,461,2.442,461,telentang
5.0,1.34,-94.67,-0.024,-0.01,0.17,461,2.442,461,telentang
5.0,1.38,-97.098,-0.032,-0.009,0.168,461,2.442,461,telentang
5.0,1.42,-102.365,-0.038,-0.008,0.165,461,2.442,461,telentang
5.0,1.46,-105.582,-0.045,-0.007,0.159,461,2.442,461,telentang
5.0,1.5,-103.794,-0.051,-0.006,0.156,461,2.442,461,telentang
5.0,1.54,-104.622,-0.057,-0.005,0.15,461,2.442,461,telentang
5.0,1.58,-104.005,-0.062,-0.004,0.142,461,2.442,461,telentang
5.0,1.62,-110.545,-0.066,-0.004,0.135,461,2.442,461,telentang
5.0,1.6600000000000001,-109.355,-0.069,-0.003,0.128,461,2.442,461,telentang
5.0,1.7,-112.861,-0.073,-0.002,0.121,461,2.442,461,telentang
5.0,1.73,-111.63,-0.075,-0.002,0.113,461,2.442,461,telentang
5.0,1.77,-115.607,-0.076,-0.002,0.107,461,2.442,461,telentang
5.0,1.81,-113.019,-0.077,-0.002,0.1,461,2.442,461,telentang
5.0,1.85,-112.966,-0.077,-0.002,0.092,461,2.442,461,telentang
5.0,1.8900000000000001,-113.853,-0.077,-0.002,0.091,461,2.442,461,telentang
5.0,1.9300000000000002,-112.851,-0.077,-0.002,0.091,461,2.442,461,telentang
5.0,1.97,-111.908,-0.077,-0.002,0.091,461,2.442,461,telentang
5.0,2.0,-111.299,-0.079,-0.002,0.09,462,3.358,251.707,telentang
5.0,2.02,-112.722,-0.077,-0.002,0.091,453.96,3.8850000000000002,251,telentang
5.0,2.06,-110.682,-0.073,-0.002,0.094,437.98,3.8850000000000002,251,telentang
5.0,2.1,-113.37,-0.066,-0.002,0.097,421.95,3.8850000000000002,251,telentang
5.0,2.14,-114.037,-0.062,-0.002,0.099,406.0,3.8850000000000002,251,telentang
5.0,2.18,-115.477,-0.056,-0.002,0.1,390.02,3.8850000000000002,251,telentang
5.0,2.22,-113.092,-0.051,-0.003,0.102,374.05,3.8850000000000002,251,telentang
5.0,2.26,-106.985,-0.045,-0.003,0.104,358.19,3.8850000000000002,251,telentang
5.0,2.3,-104.756,-0.04,-0.002,0.105,342.15,3.8850000000000002,251,telentang
5.0,2.34,-103.517,-0.035,-0.002,0.105,326.19,3.8850000000000002,251,telentang
5.0,2.38,-102.106,-0.031,-0.003,0.104,310.23,3.8850000000000002,251,telentang
5.0,2.42,-96.307,-0.025,-0.003,0.104,294.24,3.8850000000000002,251,telentang
5.0,2.46,-95.494,-0.02,-0.003,0.105,278.39,3.8850000000000002,251,telentang
5.0,2.5,-89.946,-0.015,-0.002,0.105,262.33,3.8850000000000002,251,telentang
5.0,2.54,-84.228,-0.011,-0.003,0.104,251,3.8850000000000002,251,telentang
5.0,2.58,-61.103,-0.012,-0.003,0.101,251,3.8850000000000002,251,telentang
5.0,2.62,-71.192,-0.014,-0.002,0.099,251,3.8850000000000002,251,telentang
5.0,2.66,-73.63,-0.015,-0.002,0.097,251,3.8850000000000002,251,telentang
5.0,2.7,-73.44,-0.015,-0.003,0.096,251,3.8850000000000002,251,telentang
5.0,2.74,-72.6,-0.015,-0.003,0.096,251,3.8850000000000002,251,telentang
5.0,2.7800000000000002,-72.105,-0.015,-0.002,0.096,251,3.8850000000000002,251,telentang
5.0,2.82,-71.948,-0.015,-0.002,0.096,251,3.8850000000000002,251,telentang
5.0,2.85,-72.134,-0.015,-0.002,0.096,251,3.8850000000000002,251,telentang
5.0,2.89,-71.913,-0.015,-0.002,0.096,251,3.8850000000000002,251,telentang
5.0,2.93,-72.758,-0.015,-0.002,0.096,251,3.8850000000000002,251,telentang
5.0,2.9699999999999998,-72.671,-0.015,-0.002,0.096,251,3.8850000000000002,251,telentang
5.0,3.0,-71.927,-0.016,-0.002,0.095,251,1.144,239.962,telentang
5.0,3.02,-72.898,-0.014,-0.002,0.098,247.55,1.665,239,telentang
5.0,3.06,-73.435,-0.012,-0.002,0.099,240.69,1.665,239,telentang
5.0,3.1,-74.404,-0.008,-0.002,0.104,239,1.665,239,telentang
5.0,3.14,-73.935,-0.007,-0.002,0.106,239,1.665,239,telentang
5.0,3.18,-73.516,-0.004,-0.002,0.109,239,1.665,239,telentang
5.0,3.22,-74.279,-0.002,-0.003,0.111,239,1.665,239,telentang
5.0,3.26,-74.411,-0.0,-0.003,0.115,239,1.665,239,telentang
5.0,3.3,-74.756,0.001,-0.004,0.116,239,1.665,239,telentang
5.0,3.34,-74.478,0.004,-0.004,0.118,239,1.665,239,telentang
5.0,3.38,-66.753,0.006,-0.005,0.121,239,1.665,239,telentang
5.0,3.42,-68.04,0.008,-0.006,0.124,239,1.665,239,telentang
5.0,3.46,-71.186,0.011,-0.007,0.125,239,1.665,239,telentang
5.0,3.5,-62.059,0.012,-0.007,0.127,239,1.665,239,telentang
5.0,3.54,-60.335,0.016,-0.007,0.129,239,1.665,239,telentang
5.0,3.58,-59.311,0.019,-0.009,0.131,239,1.665,239,telentang
5.0,3.62,-57.824,0.022,-0.01,0.131,239,1.665,239,telentang
5.0,3.66,-54.44,0.022,-0.01,0.131,239,1.665,239,telentang
5.0,3.7,-51.45,0.022,-0.01,0.131,239,1.665,239,telentang
5.0,3.74,-54.14,0.023,-0.01,0.131,239,1.665,239,telentang
5.0,3.7800000000000002,-55.984,0.023,-0.01,0.131,239,1.665,239,telentang
5.0,3.82,-54.042,0.024,-0.011,0.131,239,1.665,239,telentang
5.0,3.86,-52.196,0.025,-0.011,0.131,239,1.665,239,telentang
5.0,3.9,-53.694,0.025,-0.011,0.131,239,1.665,239,telentang
5.0,3.93,-53.086,0.025,-0.011,0.131,239,1.665,239,telentang
5.0,3.9699999999999998,-53.79,0.025,-0.011,0.131,239,1.665,239,telentang
5.0,4.0,-52.91,0.017,-0.01,0.129,240,1.284,313.708,telentang
5.0,4.02,-51.335,0.016,-0.011,0.13,243.67,1.776,313,telentang
5.0,4.06,-56.857,0.015,-0.01,0.133,250.98,1.776,313,telentang
5.0,4.1,-53.015,0.015,-0.01,0.135,258.27,1.776,313,telentang
5.0,4.14,-55.159,0.013,-0.01,0.138,265.57,1.776,313,telentang
5.0,4.18,-51.968,0.013,-0.011,0.14,272.88,1.776,313,telentang
5.0,4.22,-53.252,0.01,-0.011,0.141,280.18,1.776,313,telentang
5.0,4.26,-52.115,0.008,-0.011,0.143,287.48,1.776,313,telentang
5.0,4.3,-52.259,0.005,-0.011,0.144,294.79,1.776,313,telentang
5.0,4.34,-52.482,0.003,-0.011,0.146,302.09,1.776,313,telentang
5.0,4.38,-51.303,-0.0,-0.011,0.146,309.38,1.776,313,telentang
5.0,4.42,-51.385,0.002,-0.011,0.147,313,1.776,313,telentang
5.0,4.46,-54.622,0.002,-0.01,0.148,313,1.776,313,telentang
5.0,4.5,-44.161,0.005,-0.01,0.149,313,1.776,313,telentang
5.0,4.54,-43.183,0.006,-0.011,0.15,313,1.776,313,telentang
5.0,4.58,-39.065,0.008,-0.011,0.15,313,1.776,313,telentang
5.0,4.62,-35.812,0.009,-0.011,0.151,313,1.776,313,telentang
5.0,4.66,-33.059,0.011,-0.011,0.151,313,1.776,313,telentang
5.0,4.71,-29.67,0.014,-0.01,0.153,313,1.776,313,telentang
5.0,4.77,-21.557,0.016,-0.01,0.153,313,1.776,313,telentang
5.0,4.83,-18.463,0.017,-0.01,0.154,313,1.776,313,telentang
5.0,4.89,-12.322,0.017,-0.01,0.154,313,1.776,313,telentang
5.0,4.9399999999999995,-14.462,0.017,-0.01,0.154,313,1.776,313,telentang
5.0,5.0,-13.565,0.01,-0.009,0.15,314,1.017,362.354,telentang
5.0,5.02,-12.951,0.011,-0.009,0.151,317.22,1.554,362,telentang
5.0,5.06,-10.341,0.009,-0.009,0.153,323.6,1.554,362,telentang
5.0,5.1,-14.789,0.007,-0.009,0.154,330.0,1.554,362,telentang
5.0,5.14,-8.983,0.006,-0.009,0.156,336.4,1.554,362,telentang
5.0,5.18,-10.464,0.004,-0.009,0.156,342.8,1.554,362,telentang
5.0,5.22,-12.493,0.003,-0.008,0.157,349.19,1.554,362,telentang
5.0,5.26,-8.265,0.001,-0.008,0.159,355.58,1.554,362,telentang
5.0,5.3,-8.061,0.001,-0.008,0.159,362,1.554,362,telentang
5.0,5.36,-9.028,0.004,-0.009,0.161,362,1.554,362,telentang
5.0,5.41,-0.546,0.006,-0.009,0.161,362,1.554,362,telentang
5.0,5.47,1.582,0.012,-0.01,0.163,362,1.554,362,telentang
5.0,5.53,2.663,0.015,-0.009,0.163,362,1.554,362,telentang
5.0,5.59,0.697,0.018,-0.009,0.164,362,1.554,362,telentang
5.0,5.64,1.256,0.018,-0.009,0.164,362,1.554,362,telentang
5.0,5.7,1.628,0.018,-0.009,0.164,362,1.554,362,telentang
5.0,5.74,1.455,0.018,-0.009,0.164,362,1.554,362,telentang
5.0,5.78,1.693,0.018,-0.009,0.164,362,1.554,362,telentang
5.0,5.82,1.878,0.018,-0.009,0.164,362,1.554,362,telentang
5.0,5.86,1.723,0.018,-0.009,0.164,362,1.554,362,telentang
5.0,5.9,1.947,0.018,-0.009,0.164,362,1.554,362,telentang
5.0,5.9399999999999995,1.758,0.018,-0.009,0.164,362,1.554,362,telentang
5.0,5.98,1.171,0.018,-0.009,0.164,362,1.554,362,telentang
    
100.0,0.0,-153.17881794354565,54.545454545454554,100.0,97.90209790209792,34.92647058823529,8.037951,68.50574
100.0,20.0,-159.48979731862283,71.5909090909091,100.0,100.34965034965036,69.11764705882352,7.9582486,66.315956
100.0,40.0,-202.12149904628603,-45.45454545454546,177.7777777777778,71.32867132867135,67.27941176470588,16.725052,-13.852164
100.0,60.0,-148.093258134014,26.136363636363637,177.7777777777778,73.0769230769231,-10.294117647058822,3.5168693,-18.335186
100.0,80.0,-121.9971731642721,63.63636363636365,88.88888888888887,84.96503496503497,-14.338235294117647,4.3522706,9.812217
100.0,100.0,-68.00598301154064,55.68181818181819,100.0,92.30769230769232,12.867647058823529,2.7582333,28.379467
    
4.0,0.0,-74.975,0.009,-0.009,0.165,374,2.177,466.224,telentang
4.0,0.03,-75.93,0.007,-0.009,0.166,379.51,2.664,466,telentang
4.0,0.07,-74.779,0.003,-0.009,0.168,390.5,2.664,466,telentang
4.0,0.12,-77.872,-0.001,-0.008,0.169,401.45,2.664,466,telentang
4.0,0.17,-75.746,-0.002,-0.008,0.171,412.42,2.664,466,telentang
4.0,0.22,-79.224,-0.007,-0.007,0.173,423.39,2.664,466,telentang
4.0,0.27,-78.241,-0.009,-0.007,0.174,434.35,2.664,466,telentang
4.0,0.32,-75.53,-0.01,-0.007,0.174,445.32,2.664,466,telentang
4.0,0.37,-76.733,-0.016,-0.007,0.174,456.27,2.664,466,telentang
4.0,0.42,-77.836,-0.018,-0.007,0.175,466,2.664,466,telentang
4.0,0.47,-77.425,-0.013,-0.007,0.177,466,2.664,466,telentang
4.0,0.52,-78.657,-0.008,-0.007,0.175,466,2.664,466,telentang
4.0,0.57,-79.208,-0.004,-0.007,0.176,466,2.664,466,telentang
4.0,0.62,-79.536,0.001,-0.007,0.176,466,2.664,466,telentang
4.0,0.67,-80.422,0.004,-0.007,0.176,466,2.664,466,telentang
4.0,0.72,-81.927,0.009,-0.008,0.176,466,2.664,466,telentang
4.0,0.77,-81.18,0.013,-0.008,0.175,466,2.664,466,telentang
4.0,0.82,-80.596,0.019,-0.009,0.174,466,2.664,466,telentang
4.0,0.87,-81.86,0.025,-0.009,0.173,466,2.664,466,telentang
4.0,0.92,-81.662,0.025,-0.009,0.173,466,2.664,466,telentang
4.0,0.97,-80.489,0.025,-0.009,0.173,466,2.664,466,telentang
4.0,1.0,-81.18,0.025,-0.009,0.173,466,2.27,461.169,telentang
4.0,1.03,-81.863,0.023,-0.011,0.173,461,2.775,461,telentang
4.0,1.07,-81.325,0.016,-0.01,0.174,461,2.775,461,telentang
4.0,1.12,-87.571,0.009,-0.01,0.174,461,2.775,461,telentang
4.0,1.17,-87.941,0.002,-0.01,0.174,461,2.775,461,telentang
4.0,1.22,-89.232,-0.006,-0.011,0.174,461,2.775,461,telentang
4.0,1.27,-91.244,-0.013,-0.01,0.172,461,2.775,461,telentang
4.0,1.32,-95.762,-0.021,-0.01,0.172,461,2.775,461,telentang
4.0,1.37,-98.804,-0.028,-0.01,0.169,461,2.775,461,telentang
4.0,1.42,-98.716,-0.037,-0.009,0.165,461,2.775,461,telentang
4.0,1.47,-100.897,-0.046,-0.007,0.159,461,2.775,461,telentang
4.0,1.52,-105.965,-0.053,-0.006,0.154,461,2.775,461,telentang
4.0,1.5699999999999998,-106.756,-0.06,-0.004,0.147,461,2.775,461,telentang
4.0,1.62,-107.405,-0.065,-0.004,0.138,461,2.775,461,telentang
4.0,1.67,-113.008,-0.07,-0.003,0.129,461,2.775,461,telentang
4.0,1.72,-111.262,-0.073,-0.002,0.118,461,2.775,461,telentang
4.0,1.77,-111.369,-0.076,-0.002,0.111,461,2.775,461,telentang
4.0,1.8199999999999998,-116.175,-0.077,-0.002,0.101,461,2.775,461,telentang
4.0,1.87,-108.872,-0.077,-0.002,0.093,461,2.775,461,telentang
4.0,1.92,-113.062,-0.077,-0.002,0.091,461,2.775,461,telentang
4.0,1.97,-112.826,-0.077,-0.002,0.091,461,2.775,461,telentang
4.0,2.0,-112.172,-0.079,-0.002,0.09,462,3.29,254.001,telentang
4.0,2.03,-111.619,-0.077,-0.002,0.091,454.19,3.774,254,telentang
4.0,2.07,-114.937,-0.071,-0.002,0.093,438.71,3.774,254,telentang
4.0,2.12,-112.165,-0.065,-0.002,0.095,423.16,3.774,254,telentang
4.0,2.17,-110.561,-0.061,-0.002,0.096,407.67,3.774,254,telentang
4.0,2.22,-107.535,-0.056,-0.003,0.097,392.1,3.774,254,telentang
4.0,2.27,-103.918,-0.052,-0.003,0.099,376.59,3.774,254,telentang
4.0,2.32,-101.203,-0.048,-0.003,0.1,361.08,3.774,254,telentang
4.0,2.37,-88.76,-0.042,-0.002,0.101,345.58,3.774,254,telentang
4.0,2.42,-92.757,-0.038,-0.003,0.101,330.05,3.774,254,telentang
4.0,2.4699999999999998,-86.802,-0.033,-0.003,0.101,314.47,3.774,254,telentang
4.0,2.52,-85.468,-0.029,-0.002,0.099,298.97,3.774,254,telentang
4.0,2.57,-81.015,-0.023,-0.002,0.099,283.46,3.774,254,telentang
4.0,2.62,-78.4,-0.02,-0.002,0.098,267.91,3.774,254,telentang
4.0,2.67,-73.574,-0.016,-0.002,0.098,254,3.774,254,telentang
4.0,2.7199999999999998,-69.83,-0.015,-0.002,0.096,254,3.774,254,telentang
4.0,2.77,-74.339,-0.015,-0.002,0.096,254,3.774,254,telentang
4.0,2.82,-73.163,-0.015,-0.001,0.096,254,3.774,254,telentang
4.0,2.87,-72.518,-0.015,-0.001,0.096,254,3.774,254,telentang
4.0,2.92,-72.271,-0.015,-0.001,0.096,254,3.774,254,telentang
4.0,2.9699999999999998,-71.86,-0.015,-0.001,0.096,254,3.774,254,telentang
4.0,3.0,-71.527,-0.016,-0.002,0.095,258,1.15,240.759,telentang
4.0,3.03,-72.815,-0.015,-0.002,0.098,254.55,1.665,240,telentang
4.0,3.07,-72.216,-0.013,-0.002,0.1,247.69,1.665,240,telentang
4.0,3.12,-70.38,-0.008,-0.003,0.104,240.82,1.665,240,telentang
4.0,3.17,-74.844,-0.005,-0.002,0.108,240,1.665,240,telentang
4.0,3.22,-75.308,-0.003,-0.003,0.111,240,1.665,240,telentang
4.0,3.27,-72.824,-0.0,-0.003,0.115,240,1.665,240,telentang
4.0,3.32,-75.026,0.002,-0.004,0.117,240,1.665,240,telentang
4.0,3.37,-68.42,0.005,-0.005,0.119,240,1.665,240,telentang
4.0,3.42,-69.132,0.007,-0.006,0.123,240,1.665,240,telentang
4.0,3.4699999999999998,-71.9,0.009,-0.006,0.124,240,1.665,240,telentang
4.0,3.52,-61.354,0.012,-0.007,0.127,240,1.665,240,telentang
4.0,3.57,-60.186,0.017,-0.008,0.129,240,1.665,240,telentang
4.0,3.62,-61.451,0.019,-0.009,0.131,240,1.665,240,telentang
4.0,3.67,-64.333,0.021,-0.01,0.131,240,1.665,240,telentang
4.0,3.7199999999999998,-50.982,0.021,-0.01,0.131,240,1.665,240,telentang
4.0,3.77,-54.485,0.022,-0.01,0.13,240,1.665,240,telentang
4.0,3.82,-52.28,0.023,-0.01,0.13,240,1.665,240,telentang
4.0,3.87,-54.128,0.024,-0.011,0.13,240,1.665,240,telentang
4.0,3.92,-51.928,0.024,-0.011,0.13,240,1.665,240,telentang
4.0,3.9699999999999998,-52.921,0.024,-0.011,0.13,240,1.665,240,telentang
4.0,4.0,-53.37,0.016,-0.01,0.129,240,1.4,312.69,telentang
4.0,4.03,-52.038,0.016,-0.01,0.13,243.9,1.887,312,telentang
4.0,4.07,-57.735,0.015,-0.01,0.133,251.67,1.887,312,telentang
4.0,4.12,-51.137,0.014,-0.01,0.136,259.45,1.887,312,telentang
4.0,4.17,-57.903,0.013,-0.011,0.138,267.22,1.887,312,telentang
4.0,4.22,-47.193,0.011,-0.011,0.141,274.96,1.887,312,telentang
4.0,4.27,-49.903,0.01,-0.011,0.143,282.73,1.887,312,telentang
4.0,4.32,-49.55,0.008,-0.011,0.144,290.48,1.887,312,telentang
4.0,4.37,-51.457,0.005,-0.011,0.145,298.27,1.887,312,telentang
4.0,4.42,-47.68,0.002,-0.011,0.146,306.02,1.887,312,telentang
4.0,4.47,-45.777,0.002,-0.01,0.147,312,1.887,312,telentang
4.0,4.52,-49.45,0.006,-0.01,0.148,312,1.887,312,telentang
4.0,4.57,-37.874,0.007,-0.011,0.149,312,1.887,312,telentang
4.0,4.62,-39.417,0.009,-0.011,0.149,312,1.887,312,telentang
4.0,4.67,-31.07,0.011,-0.011,0.15,312,1.887,312,telentang
4.0,4.72,-31.1,0.013,-0.01,0.151,312,1.887,312,telentang
4.0,4.77,-25.844,0.015,-0.01,0.151,312,1.887,312,telentang
4.0,4.82,-22.377,0.017,-0.01,0.153,312,1.887,312,telentang
4.0,4.87,-18.735,0.017,-0.01,0.153,312,1.887,312,telentang
4.0,4.92,-14.158,0.017,-0.01,0.153,312,1.887,312,telentang
4.0,4.97,-11.737,0.017,-0.01,0.153,312,1.887,312,telentang
4.0,5.0,-13.678,0.012,-0.009,0.151,313,1.159,360.319,telentang
4.0,5.03,-12.268,0.011,-0.009,0.152,316.44,1.665,360,telentang
4.0,5.07,-11.536,0.009,-0.009,0.152,323.29,1.665,360,telentang
4.0,5.12,-15.124,0.008,-0.009,0.155,330.14,1.665,360,telentang
4.0,5.17,-8.568,0.007,-0.009,0.156,336.99,1.665,360,telentang
4.0,5.22,-11.751,0.005,-0.008,0.156,343.86,1.665,360,telentang
4.0,5.27,-11.021,0.004,-0.008,0.158,350.71,1.665,360,telentang
4.0,5.32,-6.58,0.002,-0.008,0.159,357.56,1.665,360,telentang
4.0,5.37,-7.451,0.003,-0.009,0.16,360,1.665,360,telentang
4.0,5.42,-10.052,0.005,-0.009,0.161,360,1.665,360,telentang
4.0,5.47,-2.361,0.008,-0.009,0.162,360,1.665,360,telentang
4.0,5.52,0.268,0.012,-0.01,0.163,360,1.665,360,telentang
4.0,5.57,2.212,0.014,-0.009,0.163,360,1.665,360,telentang
4.0,5.62,1.039,0.017,-0.009,0.164,360,1.665,360,telentang
4.0,5.67,1.784,0.018,-0.009,0.164,360,1.665,360,telentang
4.0,5.72,1.799,0.018,-0.009,0.164,360,1.665,360,telentang
4.0,5.77,1.871,0.018,-0.009,0.164,360,1.665,360,telentang
4.0,5.82,1.202,0.018,-0.009,0.164,360,1.665,360,telentang
4.0,5.87,1.619,0.018,-0.009,0.164,360,1.665,360,telentang
4.0,5.92,2.191,0.018,-0.009,0.164,360,1.665,360,telentang
4.0,5.97,1.398,0.018,-0.009,0.164,360,1.665,360,telentang
    
80.0,0.0,-152.2758772110384,54.545454545454554,100.0,97.55244755244757,34.92647058823529,9.678073,68.02427
80.0,20.0,-160.79069065360287,72.72727272727273,100.0,100.34965034965036,68.75,10.229134,66.09487
80.0,40.0,-203.31947360476445,-45.45454545454546,177.7777777777778,71.32867132867135,67.27941176470588,16.320457,-12.976636
80.0,60.0,-147.54435799267222,26.136363636363637,177.7777777777778,73.0769230769231,-7.720588235294118,3.5478208,-18.030754
80.0,80.0,-122.62840832681516,62.5,88.88888888888887,84.96503496503497,-14.338235294117647,5.0390773,9.423683
80.0,100.0,-68.16104730146971,57.95454545454546,100.0,92.65734265734267,12.5,3.600819,27.602623
    
3.0,0.0,-76.012,0.009,-0.01,0.165,374,2.843,467.841,telentang
3.0,0.03,-76.263,0.006,-0.009,0.166,380.89,3.33,467,telentang
3.0,0.1,-76.312,0.002,-0.009,0.168,394.61,3.33,467,telentang
3.0,0.17,-76.071,-0.001,-0.008,0.17,408.32,3.33,467,telentang
3.0,0.23,-74.912,-0.005,-0.008,0.172,422.05,3.33,467,telentang
3.0,0.3,-75.861,-0.008,-0.007,0.174,435.74,3.33,467,telentang
3.0,0.37,-75.424,-0.014,-0.007,0.175,449.44,3.33,467,telentang
3.0,0.43,-76.073,-0.018,-0.007,0.175,463.18,3.33,467,telentang
3.0,0.5,-76.133,-0.014,-0.007,0.177,467,3.33,467,telentang
3.0,0.56,-73.371,-0.007,-0.007,0.176,467,3.33,467,telentang
3.0,0.63,-79.603,-0.001,-0.007,0.176,467,3.33,467,telentang
3.0,0.7,-79.703,0.003,-0.007,0.176,467,3.33,467,telentang
3.0,0.76,-80.851,0.009,-0.008,0.176,467,3.33,467,telentang
3.0,0.83,-80.085,0.014,-0.008,0.175,467,3.33,467,telentang
3.0,0.9,-80.993,0.024,-0.009,0.173,467,3.33,467,telentang
3.0,0.96,-80.099,0.024,-0.009,0.173,467,3.33,467,telentang
3.0,1.0,-80.11,0.024,-0.009,0.173,467,3.037,460.692,telentang
3.0,1.03,-81.822,0.023,-0.011,0.172,460,3.552,460,telentang
3.0,1.1,-85.82,0.015,-0.01,0.174,460,3.552,460,telentang
3.0,1.17,-86.357,0.005,-0.01,0.174,460,3.552,460,telentang
3.0,1.23,-91.273,-0.005,-0.011,0.175,460,3.552,460,telentang
3.0,1.3,-91.547,-0.015,-0.01,0.172,460,3.552,460,telentang
3.0,1.3599999999999999,-94.078,-0.023,-0.01,0.171,460,3.552,460,telentang
3.0,1.43,-101.178,-0.034,-0.009,0.167,460,3.552,460,telentang
3.0,1.5,-103.8,-0.047,-0.007,0.16,460,3.552,460,telentang
3.0,1.56,-109.134,-0.055,-0.005,0.152,460,3.552,460,telentang
3.0,1.63,-108.336,-0.063,-0.004,0.141,460,3.552,460,telentang
3.0,1.7,-113.968,-0.068,-0.003,0.13,460,3.552,460,telentang
3.0,1.76,-115.457,-0.074,-0.002,0.117,460,3.552,460,telentang
3.0,1.83,-116.966,-0.076,-0.002,0.106,460,3.552,460,telentang
3.0,1.8900000000000001,-114.36,-0.077,-0.002,0.094,460,3.552,460,telentang
3.0,1.96,-114.233,-0.077,-0.002,0.092,460,3.552,460,telentang
3.0,2.0,-112.883,-0.079,-0.002,0.089,461,3.755,254.333,telentang
3.0,2.03,-115.267,-0.077,-0.002,0.091,452.27,4.218,254,telentang
3.0,2.1,-113.635,-0.07,-0.001,0.092,434.89,4.218,254,telentang
3.0,2.17,-113.845,-0.065,-0.002,0.093,417.52,4.218,254,telentang
3.0,2.23,-106.555,-0.06,-0.003,0.095,400.18,4.218,254,telentang
3.0,2.3,-98.416,-0.054,-0.003,0.095,382.84,4.218,254,telentang
3.0,2.36,-91.605,-0.049,-0.002,0.096,365.49,4.218,254,telentang
3.0,2.43,-93.342,-0.043,-0.002,0.095,348.03,4.218,254,telentang
3.0,2.5,-89.504,-0.039,-0.002,0.095,330.68,4.218,254,telentang
3.0,2.56,-84.421,-0.035,-0.002,0.096,313.32,4.218,254,telentang
3.0,2.63,-80.314,-0.028,-0.002,0.094,295.97,4.218,254,telentang
3.0,2.7,-80.017,-0.024,-0.002,0.094,278.6,4.218,254,telentang
3.0,2.76,-74.287,-0.018,-0.002,0.095,261.14,4.218,254,telentang
3.0,2.83,-73.148,-0.015,-0.002,0.096,254,4.218,254,telentang
3.0,2.9,-71.329,-0.015,-0.001,0.096,254,4.218,254,telentang
3.0,2.96,-71.689,-0.015,-0.001,0.096,254,4.218,254,telentang
3.0,3.0,-72.069,-0.017,-0.002,0.096,255,1.678,237.107,telentang
3.0,3.03,-68.398,-0.015,-0.002,0.098,250.41,2.22,237,telentang
3.0,3.1,-71.661,-0.011,-0.002,0.102,241.23,2.22,237,telentang
3.0,3.17,-72.555,-0.005,-0.002,0.106,237,2.22,237,telentang
3.0,3.23,-73.868,-0.003,-0.003,0.11,237,2.22,237,telentang
3.0,3.3,-71.242,-0.0,-0.003,0.114,237,2.22,237,telentang
3.0,3.37,-75.253,0.004,-0.004,0.117,237,2.22,237,telentang
3.0,3.43,-66.921,0.007,-0.006,0.122,237,2.22,237,telentang
3.0,3.5,-71.796,0.01,-0.007,0.123,237,2.22,237,telentang
3.0,3.56,-68.806,0.014,-0.007,0.126,237,2.22,237,telentang
3.0,3.63,-54.873,0.018,-0.009,0.129,237,2.22,237,telentang
3.0,3.7,-58.156,0.021,-0.01,0.13,237,2.22,237,telentang
3.0,3.76,-62.093,0.024,-0.01,0.131,237,2.22,237,telentang
3.0,3.83,-46.213,0.024,-0.011,0.13,237,2.22,237,telentang
3.0,3.9,-54.247,0.026,-0.011,0.13,237,2.22,237,telentang
3.0,3.96,-52.604,0.026,-0.011,0.13,237,2.22,237,telentang
3.0,4.0,-52.446,0.018,-0.01,0.127,237,1.704,313.968,telentang
3.0,4.03,-51.309,0.018,-0.011,0.129,241.59,2.22,313,telentang
3.0,4.1,-54.495,0.018,-0.01,0.134,250.72,2.22,313,telentang
3.0,4.17,-52.7,0.015,-0.011,0.137,259.86,2.22,313,telentang
3.0,4.23,-49.411,0.015,-0.011,0.14,269.0,2.22,313,telentang
3.0,4.3,-47.727,0.012,-0.011,0.142,278.14,2.22,313,telentang
3.0,4.36,-46.542,0.011,-0.012,0.143,287.28,2.22,313,telentang
3.0,4.43,-40.753,0.007,-0.011,0.146,296.41,2.22,313,telentang
3.0,4.5,-43.604,0.003,-0.01,0.147,305.52,2.22,313,telentang
3.0,4.5600000000000005,-41.777,0.005,-0.011,0.15,313,2.22,313,telentang
3.0,4.63,-42.484,0.007,-0.011,0.149,313,2.22,313,telentang
3.0,4.7,-31.281,0.01,-0.011,0.151,313,2.22,313,telentang
3.0,4.76,-33.91,0.013,-0.01,0.152,313,2.22,313,telentang
3.0,4.83,-24.519,0.015,-0.01,0.152,313,2.22,313,telentang
3.0,4.9,-21.794,0.017,-0.01,0.154,313,2.22,313,telentang
3.0,4.96,-14.338,0.017,-0.01,0.154,313,2.22,313,telentang
3.0,5.0,-13.721,0.011,-0.009,0.151,314,1.374,358.156,telentang
3.0,5.03,-10.562,0.011,-0.009,0.152,317.9,1.887,358,telentang
3.0,5.1,-11.478,0.009,-0.009,0.154,325.71,1.887,358,telentang
3.0,5.17,-13.296,0.008,-0.009,0.156,333.48,1.887,358,telentang
3.0,5.23,-11.866,0.006,-0.008,0.156,341.24,1.887,358,telentang
3.0,5.3,-4.635,0.006,-0.008,0.158,349.0,1.887,358,telentang
3.0,5.37,-6.459,0.003,-0.009,0.16,356.76,1.887,358,telentang
3.0,5.43,-7.985,0.006,-0.009,0.161,358,1.887,358,telentang
3.0,5.5,-5.918,0.01,-0.01,0.16,358,1.887,358,telentang
3.0,5.5600000000000005,1.505,0.014,-0.01,0.163,358,1.887,358,telentang
3.0,5.63,7.97,0.017,-0.009,0.163,358,1.887,358,telentang
3.0,5.7,2.674,0.02,-0.01,0.163,358,1.887,358,telentang
3.0,5.76,5.025,0.02,-0.01,0.163,358,1.887,358,telentang
3.0,5.83,2.74,0.02,-0.01,0.163,358,1.887,358,telentang
3.0,5.9,5.119,0.02,-0.01,0.163,358,1.887,358,telentang
3.0,5.96,4.079,0.02,-0.01,0.163,358,1.887,358,telentang
    
60.0,0.0,-153.69890082746699,54.545454545454554,88.88888888888887,97.55244755244757,34.92647058823529,13.653623,68.6416
60.0,20.0,-159.3223827755136,71.5909090909091,100.0,100.34965034965036,69.11764705882352,14.806668,65.912865
60.0,40.0,-204.29514360599953,-45.45454545454546,177.7777777777778,70.97902097902099,66.91176470588235,19.092606,-12.850027
60.0,60.0,-148.28811768419035,25.0,177.7777777777778,73.42657342657344,-8.823529411764707,6.7030053,-19.424677
60.0,80.0,-121.36044900031561,64.77272727272727,88.88888888888887,84.26573426573427,-15.441176470588236,6.8543653,9.911277
60.0,100.0,-68.22005406666392,56.81818181818182,100.0,92.65734265734267,12.867647058823529,4.8838415,26.77712
    
2.0,0.0,-74.909,0.009,-0.009,0.165,374,4.202,466.524,telentang
2.0,0.05,-75.517,0.005,-0.009,0.167,383.65,4.662,466,telentang
2.0,0.15,-75.739,0.0,-0.009,0.169,402.81,4.662,466,telentang
2.0,0.25,-75.762,-0.004,-0.008,0.172,422.01,4.662,466,telentang
2.0,0.35,-75.349,-0.008,-0.007,0.175,441.23,4.662,466,telentang
2.0,0.45,-77.149,-0.015,-0.007,0.175,460.39,4.662,466,telentang
2.0,0.55,-79.2,-0.009,-0.007,0.176,466,4.662,466,telentang
2.0,0.65,-77.273,0.0,-0.007,0.176,466,4.662,466,telentang
2.0,0.75,-78.9,0.008,-0.008,0.177,466,4.662,466,telentang
2.0,0.85,-79.352,0.016,-0.008,0.174,466,4.662,466,telentang
2.0,0.94,-80.033,0.025,-0.009,0.173,466,4.662,466,telentang
2.0,1.0,-79.986,0.025,-0.008,0.173,466,4.631,458.397,telentang
2.0,1.05,-82.216,0.024,-0.01,0.172,458,5.106,458,telentang
2.0,1.15,-83.479,0.01,-0.011,0.175,458,5.106,458,telentang
2.0,1.25,-92.343,-0.004,-0.011,0.175,458,5.106,458,telentang
2.0,1.35,-90.212,-0.019,-0.01,0.171,458,5.106,458,telentang
2.0,1.45,-104.159,-0.034,-0.009,0.167,458,5.106,458,telentang
2.0,1.55,-105.16,-0.049,-0.006,0.157,458,5.106,458,telentang
2.0,1.65,-111.289,-0.062,-0.004,0.143,458,5.106,458,telentang
2.0,1.75,-112.073,-0.071,-0.002,0.124,458,5.106,458,telentang
2.0,1.85,-119.539,-0.075,-0.002,0.106,458,5.106,458,telentang
2.0,1.95,-116.759,-0.076,-0.002,0.092,458,5.106,458,telentang
2.0,2.0,-112.977,-0.078,-0.002,0.091,460,4.948,257.354,telentang
2.0,2.05,-117.249,-0.075,-0.002,0.093,448.75,5.439,257,telentang
2.0,2.15,-113.019,-0.066,-0.002,0.094,426.39,5.439,257,telentang
2.0,2.25,-102.197,-0.06,-0.003,0.095,404.0,5.439,257,telentang
2.0,2.35,-91.502,-0.052,-0.002,0.096,381.62,5.439,257,telentang
2.0,2.45,-95.105,-0.047,-0.002,0.097,359.15,5.439,257,telentang
2.0,2.55,-90.139,-0.04,-0.002,0.096,336.8,5.439,257,telentang
2.0,2.65,-84.173,-0.033,-0.002,0.094,314.41,5.439,257,telentang
2.0,2.75,-74.461,-0.029,-0.002,0.093,292.03,5.439,257,telentang
2.0,2.85,-74.142,-0.021,-0.002,0.094,269.66,5.439,257,telentang
2.0,2.95,-73.493,-0.016,-0.001,0.095,257,5.439,257,telentang
2.0,3.0,-72.663,-0.018,-0.002,0.096,261,2.562,236.64,telentang
2.0,3.05,-67.179,-0.015,-0.002,0.099,254.57,3.108,236,telentang
2.0,3.15,-77.058,-0.008,-0.002,0.104,241.74,3.108,236,telentang
2.0,3.25,-71.864,-0.003,-0.003,0.11,236,3.108,236,telentang
2.0,3.35,-75.345,0.001,-0.004,0.114,236,3.108,236,telentang
2.0,3.45,-70.228,0.006,-0.005,0.121,236,3.108,236,telentang
2.0,3.55,-65.861,0.01,-0.007,0.125,236,3.108,236,telentang
2.0,3.65,-67.463,0.016,-0.008,0.128,236,3.108,236,telentang
2.0,3.75,-54.884,0.021,-0.01,0.13,236,3.108,236,telentang
2.0,3.85,-48.033,0.024,-0.01,0.131,236,3.108,236,telentang
2.0,3.95,-52.678,0.026,-0.011,0.13,236,3.108,236,telentang
2.0,4.0,-52.336,0.02,-0.01,0.127,236,2.402,313.261,telentang
2.0,4.05,-49.638,0.019,-0.01,0.131,241.97,2.886,313,telentang
2.0,4.15,-55.783,0.017,-0.011,0.135,253.86,2.886,313,telentang
2.0,4.25,-46.271,0.017,-0.012,0.14,265.72,2.886,313,telentang
2.0,4.35,-45.022,0.014,-0.012,0.142,277.6,2.886,313,telentang
2.0,4.45,-46.831,0.012,-0.011,0.145,289.46,2.886,313,telentang
2.0,4.55,-37.033,0.009,-0.011,0.148,301.35,2.886,313,telentang
2.0,4.65,-35.187,0.007,-0.011,0.149,313,2.886,313,telentang
2.0,4.75,-36.523,0.011,-0.01,0.151,313,2.886,313,telentang
2.0,4.85,-24.683,0.015,-0.01,0.152,313,2.886,313,telentang
2.0,4.9399999999999995,-19.191,0.017,-0.01,0.154,313,2.886,313,telentang
2.0,5.0,-12.486,0.011,-0.009,0.151,314,2.039,356.736,telentang
2.0,5.05,-13.217,0.01,-0.009,0.152,319.28,2.553,356,telentang
2.0,5.15,-12.663,0.008,-0.009,0.155,329.69,2.553,356,telentang
2.0,5.25,-11.776,0.006,-0.008,0.156,340.19,2.553,356,telentang
2.0,5.35,-8.825,0.006,-0.009,0.158,350.71,2.553,356,telentang
2.0,5.45,-8.202,0.006,-0.009,0.16,356,2.553,356,telentang
2.0,5.55,-5.783,0.011,-0.01,0.161,356,2.553,356,telentang
2.0,5.65,0.051,0.016,-0.01,0.163,356,2.553,356,telentang
2.0,5.75,13.619,0.019,-0.01,0.163,356,2.553,356,telentang
2.0,5.85,2.772,0.021,-0.01,0.163,356,2.553,356,telentang
2.0,5.9399999999999995,6.367,0.021,-0.01,0.163,356,2.553,356,telentang
    
40.0,0.0,-152.18530868771703,54.545454545454554,100.0,97.55244755244757,34.92647058823529,21.758118,68.13908
40.0,20.0,-159.15222373169763,72.72727272727273,111.1111111111111,100.34965034965036,68.75,24.320944,65.03705
40.0,40.0,-204.42413513921483,-44.31818181818182,177.7777777777778,71.6783216783217,66.54411764705883,26.207758,-11.697071
40.0,60.0,-149.10323439408288,23.863636363636367,177.7777777777778,73.42657342657344,-6.61764705882353,11.97663,-19.602966
40.0,80.0,-121.20950146144665,67.04545454545455,88.88888888888887,84.26573426573427,-15.808823529411764,11.019276,9.641502
40.0,100.0,-66.52532488027117,56.81818181818182,100.0,92.65734265734267,12.867647058823529,8.855999,26.235302
    
1.5,0.0,-74.908,0.009,-0.01,0.165,374,5.641,465.945,telentang
1.5,0.07,-75.049,0.004,-0.009,0.167,386.63,6.105,465,telentang
1.5,0.2,-77.682,-0.001,-0.008,0.171,411.53,6.105,465,telentang
1.5,0.33,-75.818,-0.007,-0.007,0.173,436.67,6.105,465,telentang
1.5,0.46,-76.74,-0.015,-0.007,0.176,461.82,6.105,465,telentang
1.5,0.6,-76.664,-0.004,-0.007,0.176,465,6.105,465,telentang
1.5,0.73,-78.082,0.006,-0.008,0.175,465,6.105,465,telentang
1.5,0.86,-79.018,0.017,-0.009,0.175,465,6.105,465,telentang
1.5,0.99,-81.729,0.025,-0.009,0.173,465,6.105,465,telentang
1.5,1.0,-79.163,0.026,-0.009,0.173,465,6.222,458.327,telentang
1.5,1.07,-82.93,0.023,-0.01,0.172,458,6.771,458,telentang
1.5,1.2,-88.522,0.005,-0.01,0.173,458,6.771,458,telentang
1.5,1.33,-101.966,-0.015,-0.01,0.172,458,6.771,458,telentang
1.5,1.46,-102.286,-0.034,-0.009,0.167,458,6.771,458,telentang
1.5,1.6,-99.452,-0.054,-0.005,0.154,458,6.771,458,telentang
1.5,1.73,-114.647,-0.067,-0.003,0.133,458,6.771,458,telentang
1.5,1.8599999999999999,-115.437,-0.076,-0.002,0.108,458,6.771,458,telentang
1.5,1.99,-114.012,-0.076,-0.002,0.092,458,6.771,458,telentang
1.5,2.0,-112.807,-0.078,-0.002,0.091,460,7.028,259.143,telentang
1.5,2.07,-116.874,-0.074,-0.002,0.093,444.38,7.548,259,telentang
1.5,2.2,-112.647,-0.062,-0.002,0.096,413.33,7.548,259,telentang
1.5,2.33,-106.71,-0.053,-0.002,0.097,382.32,7.548,259,telentang
1.5,2.46,-87.03,-0.045,-0.002,0.098,351.25,7.548,259,telentang
1.5,2.6,-90.306,-0.034,-0.002,0.098,320.24,7.548,259,telentang
1.5,2.73,-80.446,-0.025,-0.002,0.097,289.03,7.548,259,telentang
1.5,2.86,-67.901,-0.018,-0.002,0.095,259,7.548,259,telentang
1.5,3.0,-70.874,-0.017,-0.001,0.095,259,7.548,259,telentang
1.5,3.0,-72.21,-0.018,-0.002,0.096,263,3.055,235.724,telentang
1.5,3.07,-72.912,-0.015,-0.002,0.099,255.65,3.552,235,telentang
1.5,3.2,-77.68,-0.006,-0.002,0.107,241.02,3.552,235,telentang
1.5,3.33,-74.055,0.001,-0.004,0.113,235,3.552,235,telentang
1.5,3.46,-71.305,0.007,-0.005,0.121,235,3.552,235,telentang
1.5,3.6,-66.68,0.012,-0.008,0.125,235,3.552,235,telentang
1.5,3.73,-59.908,0.02,-0.009,0.129,235,3.552,235,telentang
1.5,3.86,-55.136,0.025,-0.01,0.13,235,3.552,235,telentang
1.5,4.0,-44.438,0.026,-0.011,0.13,235,3.552,235,telentang
1.5,4.0,-50.255,0.02,-0.01,0.128,236,2.915,314.372,telentang
1.5,4.07,-47.613,0.02,-0.01,0.131,243.12,3.441,314,telentang
1.5,4.2,-53.208,0.018,-0.011,0.138,257.28,3.441,314,telentang
1.5,4.33,-40.329,0.016,-0.012,0.142,271.43,3.441,314,telentang
1.5,4.46,-44.374,0.015,-0.011,0.145,285.6,3.441,314,telentang
1.5,4.6,-33.763,0.011,-0.011,0.147,299.74,3.441,314,telentang
1.5,4.73,-31.701,0.009,-0.01,0.151,313.93,3.441,314,telentang
1.5,4.86,-35.301,0.014,-0.01,0.152,314,3.441,314,telentang
1.5,4.99,-12.899,0.017,-0.01,0.154,314,3.441,314,telentang
1.5,5.0,-10.848,0.011,-0.009,0.151,315,2.574,356.756,telentang
1.5,5.07,-11.944,0.01,-0.009,0.153,321.43,3.108,356,telentang
1.5,5.2,-11.997,0.007,-0.009,0.156,334.25,3.108,356,telentang
1.5,5.33,-10.751,0.005,-0.008,0.158,347.02,3.108,356,telentang
1.5,5.46,-9.232,0.007,-0.009,0.161,356,3.108,356,telentang
1.5,5.6,-8.538,0.012,-0.01,0.162,356,3.108,356,telentang
1.5,5.73,3.178,0.018,-0.009,0.163,356,3.108,356,telentang
1.5,5.86,16.25,0.021,-0.01,0.163,356,3.108,356,telentang
1.5,6.0,3.786,0.021,-0.01,0.163,356,3.108,356,telentang
    
30.0,0.0,-152.18393643736368,54.545454545454554,88.88888888888887,97.55244755244757,34.92647058823529,30.345573,67.91802
30.0,20.0,-158.0228616908869,73.86363636363637,100.0,100.34965034965036,68.38235294117648,33.813225,65.01019
30.0,40.0,-204.19085257914458,-44.31818181818182,177.7777777777778,71.6783216783217,66.54411764705883,38.61863,-11.014112
30.0,60.0,-148.4816049840133,23.863636363636367,177.7777777777778,73.42657342657344,-5.88235294117647,14.917035,-19.952564
30.0,80.0,-118.35384847611601,67.04545454545455,88.88888888888887,84.61538461538461,-15.808823529411764,14.081429,10.065795
30.0,100.0,-64.27757880147655,56.81818181818182,100.0,92.65734265734267,13.23529411764706,12.043926,26.242804
    
1.0,0.0,-74.789,0.009,-0.009,0.165,374,6.933,460.997,telentang
1.0,0.1,-75.127,0.005,-0.009,0.167,389.39,7.437,460,telentang
1.0,0.3,-77.143,0.002,-0.008,0.173,419.96,7.437,460,telentang
1.0,0.5,-74.499,-0.003,-0.007,0.175,450.63,7.437,460,telentang
1.0,0.7,-75.313,0.006,-0.008,0.175,460,7.437,460,telentang
1.0,0.9,-76.544,0.023,-0.009,0.173,460,7.437,460,telentang
1.0,1.0,-80.234,0.026,-0.009,0.171,460,7.824,452.561,telentang
1.0,1.1,-79.876,0.022,-0.01,0.173,452,8.325,452,telentang
1.0,1.3,-90.746,-0.005,-0.012,0.173,452,8.325,452,telentang
1.0,1.5,-104.953,-0.033,-0.009,0.166,452,8.325,452,telentang
1.0,1.7,-106.763,-0.06,-0.004,0.143,452,8.325,452,telentang
1.0,1.9,-118.794,-0.074,-0.002,0.107,452,8.325,452,telentang
1.0,2.0,-112.993,-0.077,-0.002,0.092,454,11.124,256.353,telentang
1.0,2.1,-118.977,-0.069,-0.001,0.096,429.88,11.655,256,telentang
1.0,2.3,-109.779,-0.053,-0.003,0.1,381.93,11.655,256,telentang
1.0,2.5,-94.597,-0.039,-0.003,0.1,334.0,11.655,256,telentang
1.0,2.7,-61.161,-0.023,-0.001,0.1,286.04,11.655,256,telentang
1.0,2.89,-64.039,-0.016,-0.001,0.095,256,11.655,256,telentang
1.0,3.0,-71.031,-0.016,-0.002,0.095,256,3.19,236.451,telentang
1.0,3.1,-80.663,-0.013,-0.001,0.1,248.42,3.6630000000000003,236,telentang
1.0,3.3,-71.644,-0.001,-0.003,0.113,236,3.6630000000000003,236,telentang
1.0,3.5,-74.047,0.006,-0.005,0.121,236,3.6630000000000003,236,telentang
1.0,3.7,-71.115,0.016,-0.008,0.128,236,3.6630000000000003,236,telentang
1.0,3.9,-51.299,0.025,-0.01,0.131,236,3.6630000000000003,236,telentang
1.0,4.0,-52.33,0.021,-0.01,0.128,236,4.372,311.255,telentang
1.0,4.1,-47.403,0.02,-0.011,0.132,246.11,4.884,311,telentang
1.0,4.3,-45.291,0.017,-0.012,0.141,266.24,4.884,311,telentang
1.0,4.5,-36.137,0.014,-0.011,0.145,286.3,4.884,311,telentang
1.0,4.7,-31.973,0.011,-0.01,0.149,306.37,4.884,311,telentang
1.0,4.9,-33.036,0.016,-0.01,0.152,311,4.884,311,telentang
1.0,5.0,-12.071,0.014,-0.01,0.152,312,3.578,358.383,telentang
1.0,5.1,-5.888,0.014,-0.01,0.155,320.5,4.107,358,telentang
1.0,5.3,-11.13,0.01,-0.009,0.157,337.39,4.107,358,telentang
1.0,5.5,-4.141,0.007,-0.009,0.161,354.25,4.107,358,telentang
1.0,5.7,-1.656,0.015,-0.01,0.163,358,4.107,358,telentang
1.0,5.9,8.101,0.02,-0.01,0.163,358,4.107,358,telentang
    
20.0,0.0,-152.02063864531448,54.545454545454554,100.0,97.55244755244757,34.92647058823529,38.05529,66.02933
20.0,20.0,-159.49254181932955,73.86363636363637,100.0,99.65034965034967,66.54411764705883,43.365868,62.809402
20.0,40.0,-204.4460911448685,-43.18181818181818,177.7777777777778,72.02797202797204,64.33823529411765,63.05503,-12.078939
20.0,60.0,-146.8637218174084,26.136363636363637,177.7777777777778,73.0769230769231,-8.455882352941178,15.721761,-19.675005
20.0,80.0,-121.20126795932653,68.18181818181819,88.88888888888887,84.61538461538461,-15.808823529411764,22.770538,8.876017
20.0,100.0,-65.95584098362906,60.22727272727273,88.88888888888887,93.00699300699303,12.132352941176471,18.035816,26.863626
    
0.8,0.0,-74.204,0.009,-0.009,0.165,374,7.747,458.709,telentang
0.8,0.13,-74.734,0.007,-0.009,0.168,391.0,8.214,458,telentang
0.8,0.37,-74.856,0.004,-0.008,0.174,424.84,8.214,458,telentang
0.8,0.62,-74.637,0.0,-0.008,0.175,458,8.214,458,telentang
0.8,0.87,-77.468,0.022,-0.009,0.174,458,8.214,458,telentang
0.8,1.0,-79.485,0.028,-0.009,0.171,458,8.692,449.673,telentang
0.8,1.13,-81.108,0.02,-0.011,0.173,449,9.213000000000001,449,telentang
0.8,1.37,-92.056,-0.013,-0.01,0.173,449,9.213000000000001,449,telentang
0.8,1.62,-103.77,-0.049,-0.006,0.156,449,9.213000000000001,449,telentang
0.8,1.87,-117.729,-0.072,-0.002,0.114,449,9.213000000000001,449,telentang
0.8,2.0,-113.427,-0.076,-0.002,0.093,451,13.001,256.14,telentang
0.8,2.13,-116.111,-0.066,-0.002,0.097,422.98,13.542,256,telentang
0.8,2.37,-110.011,-0.049,-0.003,0.1,367.22,13.542,256,telentang
0.8,2.62,-76.224,-0.031,-0.002,0.1,311.52,13.542,256,telentang
0.8,2.87,-23.339,-0.015,-0.001,0.099,256,13.542,256,telentang
0.8,3.0,-71.323,-0.016,-0.002,0.095,255,3.817,235.796,telentang
0.8,3.13,-79.054,-0.012,-0.002,0.102,246.04,4.329,235,telentang
0.8,3.37,-71.417,0.0,-0.004,0.113,235,4.329,235,telentang
0.8,3.62,-66.516,0.011,-0.008,0.124,235,4.329,235,telentang
0.8,3.87,-56.619,0.023,-0.01,0.129,235,4.329,235,telentang
0.8,4.0,-48.8,0.023,-0.01,0.127,236,5.058,311.12,telentang
0.8,4.13,-26.73,0.021,-0.011,0.133,247.48,5.55,311,telentang
0.8,4.37,-36.833,0.018,-0.012,0.141,270.31,5.55,311,telentang
0.8,4.62,-33.511,0.016,-0.011,0.147,293.11,5.55,311,telentang
0.8,4.87,-26.786,0.014,-0.01,0.151,311,5.55,311,telentang
0.8,5.0,-13.797,0.016,-0.01,0.152,311,4.212,353.788,telentang
0.8,5.13,-5.643,0.015,-0.01,0.154,320.65,4.662,353,telentang
0.8,5.37,-4.537,0.012,-0.009,0.158,339.82,4.662,353,telentang
0.8,5.62,-5.673,0.014,-0.01,0.161,353,4.662,353,telentang
0.8,5.87,6.399,0.023,-0.01,0.163,353,4.662,353,telentang
    
16.0,0.0,-151.21787218860212,54.545454545454554,100.0,97.55244755244757,34.92647058823529,42.911106,65.156265
16.0,20.0,-158.46472630466707,76.13636363636364,100.0,99.65034965034967,65.80882352941177,48.54668,61.707325
16.0,40.0,-205.04164779822435,-42.04545454545455,177.7777777777778,72.37762237762239,63.23529411764706,74.25543,-12.16018
16.0,60.0,-147.2644189205879,26.136363636363637,177.7777777777778,73.0769230769231,-8.823529411764707,19.462742,-19.925102
16.0,80.0,-116.35722421198527,70.45454545454545,88.88888888888887,84.26573426573427,-15.808823529411764,26.866003,8.824578
16.0,100.0,-68.32434509351887,62.5,88.88888888888887,93.00699300699303,11.76470588235294,21.81581,25.10999
    
0.6,0.0,-75.521,0.009,-0.009,0.166,374,10.327,455.521,telentang
0.6,0.17,-78.263,0.006,-0.009,0.169,396.51,10.878,455,telentang
0.6,0.49,-74.549,0.002,-0.008,0.174,440.63,10.878,455,telentang
0.6,0.82,-75.666,0.02,-0.009,0.175,455,10.878,455,telentang
0.6,1.0,-79.671,0.031,-0.009,0.171,455,9.502,446.775,telentang
0.6,1.17,-90.691,0.016,-0.011,0.174,446,9.99,446,telentang
0.6,1.5,-101.904,-0.03,-0.009,0.168,446,9.99,446,telentang
0.6,1.83,-107.779,-0.069,-0.002,0.124,446,9.99,446,telentang
0.6,2.0,-114.128,-0.075,-0.002,0.093,448,14.9,255.846,telentang
0.6,2.17,-116.922,-0.064,-0.002,0.098,416.08,15.429,255,telentang
0.6,2.5,-102.525,-0.044,-0.003,0.097,352.61,15.429,255,telentang
0.6,2.83,-77.055,-0.027,-0.002,0.095,289.14,15.429,255,telentang
0.6,3.0,-71.997,-0.016,-0.002,0.096,254,4.725,234.679,telentang
0.6,3.17,-83.199,-0.01,-0.002,0.104,243.21,5.217,234,telentang
0.6,3.5,-81.25,0.006,-0.005,0.12,234,5.217,234,telentang
0.6,3.83,-71.891,0.022,-0.01,0.129,234,5.217,234,telentang
0.6,4.0,-40.08,0.024,-0.011,0.128,236,6.723,314.6,telentang
0.6,4.17,-41.343,0.023,-0.012,0.135,250.93,7.215,314,telentang
0.6,4.5,-32.527,0.018,-0.012,0.144,280.7,7.215,314,telentang
0.6,4.83,-19.229,0.013,-0.01,0.151,310.43,7.215,314,telentang
0.6,5.0,-13.624,0.015,-0.01,0.153,312,5.609,350.321,telentang
0.6,5.17,-6.184,0.012,-0.01,0.155,324.63,6.105,350,telentang
0.6,5.5,-15.173,0.01,-0.009,0.16,349.85,6.105,350,telentang
0.6,5.83,-3.618,0.022,-0.01,0.162,350,6.105,350,telentang
    
12.0,0.0,-153.02512590396995,54.545454545454554,100.0,97.90209790209792,34.92647058823529,58.29994,63.939278
12.0,20.0,-158.71996487039098,79.54545454545455,100.0,99.65034965034967,64.70588235294117,53.381634,60.601086
12.0,40.0,-206.00359529592583,-40.90909090909091,177.7777777777778,72.37762237762239,62.13235294117647,85.58837,-12.2725725
12.0,60.0,-148.18931565874882,26.136363636363637,177.7777777777778,73.42657342657344,-9.191176470588236,24.880089,-20.351673
12.0,80.0,-104.39120113073432,71.5909090909091,77.77777777777779,84.61538461538461,-15.808823529411764,36.800232,10.1527605
12.0,100.0,-68.08694578238855,61.36363636363637,88.88888888888887,93.35664335664336,12.132352941176471,30.150387,23.786694
    
